13:47:45.086000,-40,9c:1c:12:c1:51:82
13:47:45.086000,-40,9c:1c:12:c1:51:85
13:47:45.087000,-40,9c:1c:12:c1:51:83
13:47:45.087000,-40,9c:1c:12:c1:51:81
13:47:45.087000,-60,00:03:52:ad:90:e4
13:47:45.087000,-60,00:03:52:ad:90:e2
13:47:45.087000,-60,00:03:52:ad:90:e3
13:47:45.087000,-61,00:03:52:ad:90:e6
13:47:45.088000,-62,e8:39:35:f4:9a:94
13:47:45.088000,-63,e8:39:35:f4:9a:96
13:47:45.088000,-63,e8:39:35:f4:9a:90
13:47:45.088000,-71,20:aa:4b:e1:e1:f5
13:47:45.088000,-81,2c:41:38:f3:49:d5
13:47:45.089000,-82,2c:41:38:f3:49:d2
13:47:45.089000,-83,2c:41:38:f3:49:d4
13:47:45.089000,-89,00:03:52:ab:82:c6
13:47:45.089000,-89,00:03:52:ab:82:c3
13:47:45.089000,-89,00:03:52:ab:82:c2
13:47:45.090000,-91,00:03:52:ab:82:c5
13:47:45.090000,-92,00:03:52:e4:30:f3
13:47:45.090000,-39,9c:1c:12:c1:51:80
13:47:45.090000,-40,9c:1c:12:c1:51:84
13:47:45.090000,-61,00:03:52:ad:90:e0
13:47:45.090000,-61,00:03:52:ad:90:e5
13:47:45.091000,-63,e8:39:35:f4:9a:91
13:47:45.091000,-83,2c:41:38:f3:49:d0
13:47:45.091000,-89,00:03:52:ab:82:c0
13:47:45.091000,-89,00:03:52:ab:82:c4
