13:31:39.014000,-44,c4:6e:1f:bd:4d:ec
13:31:39.014000,-53,c8:4c:75:40:90:5b
13:31:39.015000,-74,98:fc:11:6b:d6:fc
13:31:39.015000,-75,9c:1c:12:c1:01:85
13:31:39.016000,-77,2c:41:38:ef:3b:f0
13:31:39.016000,-79,2c:41:38:ef:3b:f6
13:31:39.016000,-79,2c:41:38:ef:3b:f4
13:31:39.016000,-85,34:81:c4:2d:15:26
13:31:39.016000,-86,2c:41:38:f3:cd:d6
13:31:39.017000,-87,2c:41:38:f3:cd:d4
13:31:39.017000,-75,9c:1c:12:c1:01:84
13:31:39.017000,-78,2c:41:38:ef:3b:f1
13:31:39.017000,-81,00:03:52:ab:82:c4
13:31:39.017000,-86,2c:41:38:f3:cd:d1
