13:19:39.111000,-36,c8:4c:75:40:90:5b
13:19:39.112000,-71,2c:41:38:ef:3b:f0
13:19:39.112000,-71,2c:41:38:ef:3b:f6
13:19:39.112000,-71,2c:41:38:ef:3b:f4
13:19:39.113000,-71,c4:6e:1f:bd:4d:ec
13:19:39.113000,-81,00:03:52:ab:82:c3
13:19:39.113000,-81,00:03:52:ab:82:c5
13:19:39.113000,-81,00:03:52:ab:82:c2
13:19:39.114000,-81,98:fc:11:6b:d6:fc
13:19:39.114000,-81,00:03:52:ab:82:c6
13:19:39.114000,-88,c0:25:06:7e:af:7a
13:19:39.114000,-71,2c:41:38:ef:3b:f1
13:19:39.115000,-81,00:03:52:ab:82:c0
13:19:39.115000,-81,00:03:52:ab:82:c4
13:19:39.115000,-90,2c:41:38:f3:cd:d1
