15:27:36.208000,-78,c8:4c:75:40:90:5b
15:27:36.208000,-75,c4:6e:1f:bd:4d:ec
15:27:36.209000,-88,98:fc:11:6b:d6:fc
15:27:36.210000,-72,2c:41:38:f3:cd:d6
15:27:36.210000,-69,2c:41:38:f3:cd:d4
15:27:36.210000,-82,00:03:52:ab:82:c3
15:27:36.210000,-75,2c:41:38:f3:cd:d1
15:27:36.210000,-75,2c:41:38:f3:cd:d0
15:27:36.211000,-76,9c:1c:12:c1:01:85
15:27:36.211000,-77,e8:39:35:f4:9a:90
15:27:36.211000,-74,9c:1c:12:c1:01:83
15:27:36.211000,-73,9c:1c:12:c1:01:82
15:27:36.211000,-74,9c:1c:12:c1:01:81
15:27:36.212000,-82,00:03:52:ab:82:c2
15:27:36.212000,-78,e8:39:35:f4:9a:96
15:27:36.212000,-82,00:03:52:ab:82:c6
15:27:36.212000,-82,00:03:52:ab:82:c5
15:27:36.213000,-79,e8:39:35:f4:9a:94
15:27:36.213000,-87,2c:41:38:f3:49:d2
15:27:36.213000,-88,2c:41:38:f3:49:d4
15:27:36.214000,-74,9c:1c:12:c1:01:80
15:27:36.214000,-77,e8:39:35:f4:9a:91
15:27:36.214000,-74,9c:1c:12:c1:01:84
15:27:36.214000,-83,00:03:52:ab:82:c4
15:27:36.214000,-86,2c:41:38:ef:3b:f6
