13:47:18.641131,-86,2c:41:38:f3:49:d0
13:47:18.666812,-85,2c:41:38:f3:49:d2
13:47:18.672907,-49,9c:1c:12:c1:51:80
13:47:18.673164,-49,9c:1c:12:c1:51:81
13:47:18.673502,-49,9c:1c:12:c1:51:82
13:47:18.673843,-50,9c:1c:12:c1:51:83
13:47:18.674138,-50,9c:1c:12:c1:51:84
13:47:18.674481,-50,9c:1c:12:c1:51:85
13:47:18.674554,-50,9c:1c:12:c1:51:84
13:47:18.718013,-86,2c:41:38:f3:49:d5
13:47:18.775442,-50,9c:1c:12:c1:51:80
13:47:18.775551,-50,9c:1c:12:c1:51:81
13:47:18.775916,-49,9c:1c:12:c1:51:82
13:47:18.776278,-50,9c:1c:12:c1:51:83
13:47:18.776570,-50,9c:1c:12:c1:51:84
13:47:18.776902,-50,9c:1c:12:c1:51:85
13:47:18.800015,-94,00:1b:11:f3:85:3b
13:47:18.846073,-86,2c:41:38:f3:49:d0
13:47:18.871651,-85,2c:41:38:f3:49:d2
13:47:18.877822,-49,9c:1c:12:c1:51:80
13:47:18.877954,-51,9c:1c:12:c1:51:81
13:47:18.878242,-50,9c:1c:12:c1:51:82
13:47:18.878693,-50,9c:1c:12:c1:51:83
13:47:18.878974,-50,9c:1c:12:c1:51:84
13:47:18.879332,-50,9c:1c:12:c1:51:85
13:47:18.897220,-86,2c:41:38:f3:49:d4
13:47:18.902812,-93,00:1b:11:f3:85:3b
13:47:18.922839,-86,2c:41:38:f3:49:d5
13:47:18.980187,-50,9c:1c:12:c1:51:80
13:47:18.980304,-51,9c:1c:12:c1:51:81
13:47:18.980736,-50,9c:1c:12:c1:51:82
13:47:18.981086,-50,9c:1c:12:c1:51:83
13:47:18.981377,-50,9c:1c:12:c1:51:84
13:47:18.981719,-50,9c:1c:12:c1:51:85
13:47:19.004847,-91,00:1b:11:f3:85:3b
13:47:19.050824,-86,2c:41:38:f3:49:d0
13:47:19.076572,-87,2c:41:38:f3:49:d2
13:47:19.082630,-51,9c:1c:12:c1:51:80
13:47:19.082764,-51,9c:1c:12:c1:51:81
13:47:19.083051,-51,9c:1c:12:c1:51:82
13:47:19.083500,-51,9c:1c:12:c1:51:83
13:47:19.083784,-51,9c:1c:12:c1:51:84
13:47:19.084144,-51,9c:1c:12:c1:51:85
13:47:19.102084,-87,2c:41:38:f3:49:d4
13:47:19.127660,-86,2c:41:38:f3:49:d5
13:47:19.185070,-51,9c:1c:12:c1:51:80
13:47:19.185192,-51,9c:1c:12:c1:51:81
13:47:19.185467,-51,9c:1c:12:c1:51:82
13:47:19.185872,-51,9c:1c:12:c1:51:83
13:47:19.186182,-51,9c:1c:12:c1:51:84
13:47:19.186525,-51,9c:1c:12:c1:51:85
13:47:19.186624,-51,9c:1c:12:c1:51:84
13:47:19.209549,-91,00:1b:11:f3:85:3b
13:47:19.255552,-86,2c:41:38:f3:49:d0
13:47:19.281890,-86,2c:41:38:f3:49:d2
13:47:19.287871,-51,9c:1c:12:c1:51:80
13:47:19.288239,-51,9c:1c:12:c1:51:81
13:47:19.288445,-51,9c:1c:12:c1:51:82
13:47:19.288646,-52,9c:1c:12:c1:51:83
13:47:19.288996,-52,9c:1c:12:c1:51:84
13:47:19.289335,-52,9c:1c:12:c1:51:85
13:47:19.307237,-85,2c:41:38:f3:49:d4
13:47:19.312439,-92,00:1b:11:f3:85:3b
13:47:19.332987,-87,2c:41:38:f3:49:d5
13:47:19.390076,-51,9c:1c:12:c1:51:80
13:47:19.390408,-51,9c:1c:12:c1:51:81
13:47:19.390725,-51,9c:1c:12:c1:51:82
13:47:19.391061,-52,9c:1c:12:c1:51:83
13:47:19.391371,-52,9c:1c:12:c1:51:84
13:47:19.391746,-52,9c:1c:12:c1:51:85
13:47:19.460725,-86,2c:41:38:f3:49:d0
13:47:19.486611,-86,2c:41:38:f3:49:d2
13:47:19.492557,-51,9c:1c:12:c1:51:80
13:47:19.492890,-51,9c:1c:12:c1:51:81
13:47:19.493232,-51,9c:1c:12:c1:51:82
13:47:19.493549,-51,9c:1c:12:c1:51:83
13:47:19.493886,-51,9c:1c:12:c1:51:84
13:47:19.494228,-51,9c:1c:12:c1:51:85
13:47:19.512075,-85,2c:41:38:f3:49:d4
13:47:19.517250,-93,00:1b:11:f3:85:3b
13:47:19.537870,-87,2c:41:38:f3:49:d5
13:47:19.594941,-51,9c:1c:12:c1:51:80
13:47:19.595277,-50,9c:1c:12:c1:51:81
13:47:19.595619,-51,9c:1c:12:c1:51:82
13:47:19.595937,-51,9c:1c:12:c1:51:83
13:47:19.596287,-51,9c:1c:12:c1:51:84
13:47:19.596654,-51,9c:1c:12:c1:51:85
13:47:19.596850,-51,9c:1c:12:c1:51:84
13:47:19.665575,-87,2c:41:38:f3:49:d0
13:47:19.691131,-85,2c:41:38:f3:49:d2
13:47:19.697399,-50,9c:1c:12:c1:51:80
13:47:19.697729,-51,9c:1c:12:c1:51:81
13:47:19.698039,-51,9c:1c:12:c1:51:82
13:47:19.698345,-51,9c:1c:12:c1:51:83
13:47:19.698682,-52,9c:1c:12:c1:51:84
13:47:19.698998,-51,9c:1c:12:c1:51:85
13:47:19.699185,-51,9c:1c:12:c1:51:84
13:47:19.716838,-86,2c:41:38:f3:49:d4
13:47:19.722034,-91,00:1b:11:f3:85:3b
13:47:19.742639,-86,2c:41:38:f3:49:d5
13:47:19.799714,-51,9c:1c:12:c1:51:80
13:47:19.800047,-51,9c:1c:12:c1:51:81
13:47:19.800389,-52,9c:1c:12:c1:51:82
13:47:19.800703,-52,9c:1c:12:c1:51:83
13:47:19.801039,-52,9c:1c:12:c1:51:84
13:47:19.801359,-51,9c:1c:12:c1:51:85
13:47:19.824382,-94,00:1b:11:f3:85:3b
13:47:19.870821,-86,2c:41:38:f3:49:d0
13:47:19.896222,-86,2c:41:38:f3:49:d2
13:47:19.902193,-51,9c:1c:12:c1:51:80
13:47:19.902557,-51,9c:1c:12:c1:51:81
13:47:19.902874,-51,9c:1c:12:c1:51:82
13:47:19.903210,-51,9c:1c:12:c1:51:83
13:47:19.903559,-51,9c:1c:12:c1:51:84
13:47:19.903895,-51,9c:1c:12:c1:51:85
13:47:19.922159,-86,2c:41:38:f3:49:d4
13:47:19.926829,-94,00:1b:11:f3:85:3b
13:47:19.947372,-85,2c:41:38:f3:49:d5
13:47:20.004625,-50,9c:1c:12:c1:51:80
13:47:20.004965,-51,9c:1c:12:c1:51:81
13:47:20.005306,-51,9c:1c:12:c1:51:82
13:47:20.005620,-51,9c:1c:12:c1:51:83
13:47:20.005816,-51,9c:1c:12:c1:51:84
13:47:20.006014,-51,9c:1c:12:c1:51:85
13:47:20.006201,-51,9c:1c:12:c1:51:84
13:47:20.006389,-51,9c:1c:12:c1:51:84
13:47:20.006743,-51,9c:1c:12:c1:51:84
13:47:20.075671,-87,2c:41:38:f3:49:d0
13:47:20.101287,-85,2c:41:38:f3:49:d2
13:47:20.107020,-50,9c:1c:12:c1:51:80
13:47:20.107354,-50,9c:1c:12:c1:51:81
13:47:20.107665,-51,9c:1c:12:c1:51:82
13:47:20.108006,-50,9c:1c:12:c1:51:83
13:47:20.108349,-51,9c:1c:12:c1:51:84
13:47:20.108688,-50,9c:1c:12:c1:51:85
13:47:20.108881,-50,9c:1c:12:c1:51:84
13:47:20.126276,-88,2c:41:38:f3:49:d4
13:47:20.131639,-93,00:1b:11:f3:85:3b
13:47:20.152126,-86,2c:41:38:f3:49:d5
13:47:20.209906,-50,9c:1c:12:c1:51:80
13:47:20.210269,-50,9c:1c:12:c1:51:81
13:47:20.210472,-51,9c:1c:12:c1:51:82
13:47:20.210671,-50,9c:1c:12:c1:51:83
13:47:20.210876,-50,9c:1c:12:c1:51:84
13:47:20.211072,-50,9c:1c:12:c1:51:85
13:47:20.279947,-86,2c:41:38:f3:49:d0
13:47:20.306051,-87,2c:41:38:f3:49:d2
13:47:20.312010,-49,9c:1c:12:c1:51:80
13:47:20.312355,-50,9c:1c:12:c1:51:81
13:47:20.312558,-49,9c:1c:12:c1:51:82
13:47:20.312757,-50,9c:1c:12:c1:51:83
13:47:20.313094,-50,9c:1c:12:c1:51:84
13:47:20.313409,-49,9c:1c:12:c1:51:85
13:47:20.331220,-86,2c:41:38:f3:49:d4
13:47:20.336403,-93,00:1b:11:f3:85:3b
13:47:20.356950,-86,2c:41:38:f3:49:d5
13:47:20.414216,-50,9c:1c:12:c1:51:80
13:47:20.414579,-49,9c:1c:12:c1:51:81
13:47:20.414922,-50,9c:1c:12:c1:51:82
13:47:20.415235,-49,9c:1c:12:c1:51:83
13:47:20.415431,-49,9c:1c:12:c1:51:84
13:47:20.415628,-50,9c:1c:12:c1:51:85
13:47:20.415937,-50,9c:1c:12:c1:51:84
13:47:20.416857,-50,9c:1c:12:c1:51:84
13:47:20.438959,-93,00:1b:11:f3:85:3b
13:47:20.484906,-87,2c:41:38:f3:49:d0
13:47:20.510836,-85,2c:41:38:f3:49:d2
13:47:20.516615,-50,9c:1c:12:c1:51:80
13:47:20.516957,-50,9c:1c:12:c1:51:81
13:47:20.517294,-49,9c:1c:12:c1:51:82
13:47:20.517607,-49,9c:1c:12:c1:51:83
13:47:20.517915,-49,9c:1c:12:c1:51:84
13:47:20.518252,-49,9c:1c:12:c1:51:85
13:47:20.536019,-86,2c:41:38:f3:49:d4
13:47:20.541234,-92,00:1b:11:f3:85:3b
13:47:20.561703,-86,2c:41:38:f3:49:d5
13:47:23.096349,-75,20:aa:4b:e1:e1:f5
13:47:23.139470,-87,00:23:08:a2:66:b7
13:47:23.198831,-75,20:aa:4b:e1:e1:f5
13:47:23.242137,-85,00:23:08:a2:66:b7
13:47:23.301886,-73,20:aa:4b:e1:e1:f5
13:47:23.345093,-86,00:23:08:a2:66:b7
13:47:23.404227,-73,20:aa:4b:e1:e1:f5
13:47:23.447507,-84,00:23:08:a2:66:b7
13:47:23.506364,-73,20:aa:4b:e1:e1:f5
13:47:23.549961,-86,00:23:08:a2:66:b7
13:47:23.608779,-79,20:aa:4b:e1:e1:f5
13:47:23.652333,-83,00:23:08:a2:66:b7
13:47:23.711162,-77,20:aa:4b:e1:e1:f5
13:47:23.754762,-83,00:23:08:a2:66:b7
13:47:23.813540,-76,20:aa:4b:e1:e1:f5
13:47:23.857122,-81,00:23:08:a2:66:b7
13:47:23.915937,-75,20:aa:4b:e1:e1:f5
13:47:23.959503,-81,00:23:08:a2:66:b7
13:47:24.018363,-75,20:aa:4b:e1:e1:f5
13:47:24.061963,-84,00:23:08:a2:66:b7
13:47:24.120995,-76,20:aa:4b:e1:e1:f5
13:47:24.164061,-84,00:23:08:a2:66:b7
13:47:24.223392,-76,20:aa:4b:e1:e1:f5
13:47:24.266426,-81,00:23:08:a2:66:b7
13:47:24.325542,-77,20:aa:4b:e1:e1:f5
13:47:24.368758,-81,00:23:08:a2:66:b7
13:47:24.428204,-78,20:aa:4b:e1:e1:f5
13:47:24.471450,-82,00:23:08:a2:66:b7
13:47:24.530601,-78,20:aa:4b:e1:e1:f5
13:47:24.573944,-81,00:23:08:a2:66:b7
13:47:24.633029,-78,20:aa:4b:e1:e1:f5
13:47:24.676266,-84,00:23:08:a2:66:b7
13:47:24.735428,-79,20:aa:4b:e1:e1:f5
13:47:24.778716,-83,00:23:08:a2:66:b7
13:47:24.837512,-78,20:aa:4b:e1:e1:f5
13:47:24.880842,-96,00:23:08:a2:66:b7
13:47:24.940222,-78,20:aa:4b:e1:e1:f5
13:47:24.983485,-84,00:23:08:a2:66:b7
13:47:25.271584,-87,2c:41:38:f3:49:d5
13:47:25.328983,-49,9c:1c:12:c1:51:80
13:47:25.329098,-50,9c:1c:12:c1:51:81
13:47:25.329527,-49,9c:1c:12:c1:51:82
13:47:25.329867,-49,9c:1c:12:c1:51:83
13:47:25.330164,-49,9c:1c:12:c1:51:84
13:47:25.330497,-49,9c:1c:12:c1:51:85
13:47:25.399898,-86,2c:41:38:f3:49:d0
13:47:25.425305,-86,2c:41:38:f3:49:d2
13:47:25.431444,-49,9c:1c:12:c1:51:80
13:47:25.431630,-49,9c:1c:12:c1:51:81
13:47:25.432072,-49,9c:1c:12:c1:51:82
13:47:25.432240,-49,9c:1c:12:c1:51:83
13:47:25.432673,-49,9c:1c:12:c1:51:84
13:47:25.432841,-49,9c:1c:12:c1:51:85
13:47:25.450873,-84,2c:41:38:f3:49:d4
13:47:25.456103,-95,00:1b:11:f3:85:3b
13:47:25.476996,-86,2c:41:38:f3:49:d5
13:47:25.534648,-49,9c:1c:12:c1:51:80
13:47:25.534982,-49,9c:1c:12:c1:51:81
13:47:25.535182,-49,9c:1c:12:c1:51:82
13:47:25.535377,-49,9c:1c:12:c1:51:83
13:47:25.535572,-50,9c:1c:12:c1:51:84
13:47:25.535799,-49,9c:1c:12:c1:51:85
13:47:25.558957,-95,00:1b:11:f3:85:3b
13:47:25.605277,-88,2c:41:38:f3:49:d0
13:47:25.630895,-84,2c:41:38:f3:49:d2
13:47:25.636627,-50,9c:1c:12:c1:51:80
13:47:25.636967,-50,9c:1c:12:c1:51:81
13:47:25.637320,-49,9c:1c:12:c1:51:82
13:47:25.637517,-49,9c:1c:12:c1:51:83
13:47:25.637715,-50,9c:1c:12:c1:51:84
13:47:25.638026,-50,9c:1c:12:c1:51:85
13:47:25.656063,-84,2c:41:38:f3:49:d4
13:47:25.661239,-93,00:1b:11:f3:85:3b
13:47:25.681767,-84,2c:41:38:f3:49:d5
13:47:25.739477,-49,9c:1c:12:c1:51:80
13:47:25.739842,-50,9c:1c:12:c1:51:81
13:47:25.740044,-49,9c:1c:12:c1:51:82
13:47:25.740242,-50,9c:1c:12:c1:51:83
13:47:25.740438,-50,9c:1c:12:c1:51:84
13:47:25.740636,-49,9c:1c:12:c1:51:85
13:47:25.809788,-86,2c:41:38:f3:49:d0
13:47:25.835691,-88,2c:41:38:f3:49:d2
13:47:25.841386,-49,9c:1c:12:c1:51:80
13:47:25.841767,-50,9c:1c:12:c1:51:81
13:47:25.842078,-49,9c:1c:12:c1:51:82
13:47:25.842276,-49,9c:1c:12:c1:51:83
13:47:25.842474,-49,9c:1c:12:c1:51:84
13:47:25.842813,-49,9c:1c:12:c1:51:85
13:47:25.860862,-86,2c:41:38:f3:49:d4
13:47:25.886903,-88,2c:41:38:f3:49:d5
13:47:25.944252,-48,9c:1c:12:c1:51:80
13:47:25.944586,-49,9c:1c:12:c1:51:81
13:47:25.944784,-50,9c:1c:12:c1:51:82
13:47:25.944983,-49,9c:1c:12:c1:51:83
13:47:25.945179,-49,9c:1c:12:c1:51:84
13:47:25.945376,-48,9c:1c:12:c1:51:85
13:47:25.968608,-95,00:1b:11:f3:85:3b
13:47:26.014593,-87,2c:41:38:f3:49:d0
13:47:26.039946,-85,2c:41:38:f3:49:d2
13:47:26.046182,-49,9c:1c:12:c1:51:80
13:47:26.046597,-50,9c:1c:12:c1:51:81
13:47:26.046946,-49,9c:1c:12:c1:51:82
13:47:26.047287,-49,9c:1c:12:c1:51:83
13:47:26.047487,-49,9c:1c:12:c1:51:84
13:47:26.047685,-49,9c:1c:12:c1:51:85
13:47:26.065628,-85,2c:41:38:f3:49:d4
13:47:26.091750,-88,2c:41:38:f3:49:d5
13:47:26.149101,-49,9c:1c:12:c1:51:80
13:47:26.149463,-49,9c:1c:12:c1:51:81
13:47:26.149664,-50,9c:1c:12:c1:51:82
13:47:26.149861,-49,9c:1c:12:c1:51:83
13:47:26.150057,-50,9c:1c:12:c1:51:84
13:47:26.150254,-50,9c:1c:12:c1:51:85
13:47:26.173693,-95,00:1b:11:f3:85:3b
13:47:26.219337,-84,2c:41:38:f3:49:d0
13:47:26.245031,-84,2c:41:38:f3:49:d2
13:47:26.250980,-50,9c:1c:12:c1:51:80
13:47:26.251343,-49,9c:1c:12:c1:51:81
13:47:26.251742,-49,9c:1c:12:c1:51:82
13:47:26.252054,-50,9c:1c:12:c1:51:83
13:47:26.252252,-49,9c:1c:12:c1:51:84
13:47:26.252448,-50,9c:1c:12:c1:51:85
13:47:26.270441,-86,2c:41:38:f3:49:d4
13:47:26.275649,-94,00:1b:11:f3:85:3b
13:47:26.296109,-87,2c:41:38:f3:49:d5
13:47:26.353856,-49,9c:1c:12:c1:51:80
13:47:26.354191,-50,9c:1c:12:c1:51:81
13:47:26.354388,-50,9c:1c:12:c1:51:82
13:47:26.354586,-50,9c:1c:12:c1:51:83
13:47:26.354781,-49,9c:1c:12:c1:51:84
13:47:26.355010,-49,9c:1c:12:c1:51:85
13:47:26.423871,-86,2c:41:38:f3:49:d0
13:47:26.449790,-87,2c:41:38:f3:49:d2
13:47:26.455763,-49,9c:1c:12:c1:51:80
13:47:26.456099,-50,9c:1c:12:c1:51:81
13:47:26.456417,-49,9c:1c:12:c1:51:82
13:47:26.456776,-50,9c:1c:12:c1:51:83
13:47:26.457126,-49,9c:1c:12:c1:51:84
13:47:26.457437,-49,9c:1c:12:c1:51:85
13:47:26.475221,-86,2c:41:38:f3:49:d4
13:47:26.480473,-92,00:1b:11:f3:85:3b
13:47:26.500944,-84,2c:41:38:f3:49:d5
13:47:26.558684,-49,9c:1c:12:c1:51:80
13:47:26.559025,-50,9c:1c:12:c1:51:81
13:47:26.559224,-49,9c:1c:12:c1:51:82
13:47:26.559419,-50,9c:1c:12:c1:51:83
13:47:26.559616,-49,9c:1c:12:c1:51:84
13:47:26.559811,-49,9c:1c:12:c1:51:85
13:47:26.628812,-86,2c:41:38:f3:49:d0
13:47:26.654601,-84,2c:41:38:f3:49:d2
13:47:26.660606,-48,9c:1c:12:c1:51:80
13:47:26.660942,-49,9c:1c:12:c1:51:81
13:47:26.661296,-50,9c:1c:12:c1:51:82
13:47:26.661643,-49,9c:1c:12:c1:51:83
13:47:26.661845,-49,9c:1c:12:c1:51:84
13:47:26.662041,-49,9c:1c:12:c1:51:85
13:47:26.680060,-86,2c:41:38:f3:49:d4
13:47:26.705647,-84,2c:41:38:f3:49:d5
13:47:26.763486,-48,9c:1c:12:c1:51:80
13:47:26.763817,-48,9c:1c:12:c1:51:81
13:47:26.764016,-49,9c:1c:12:c1:51:82
13:47:26.764212,-48,9c:1c:12:c1:51:83
13:47:26.764440,-49,9c:1c:12:c1:51:84
13:47:26.764642,-48,9c:1c:12:c1:51:85
13:47:26.787976,-94,00:1b:11:f3:85:3b
13:47:26.834001,-87,2c:41:38:f3:49:d0
13:47:26.859119,-85,2c:41:38:f3:49:d2
13:47:26.865340,-48,9c:1c:12:c1:51:80
13:47:26.865703,-48,9c:1c:12:c1:51:81
13:47:26.866045,-48,9c:1c:12:c1:51:82
13:47:26.866386,-48,9c:1c:12:c1:51:83
13:47:26.866748,-49,9c:1c:12:c1:51:84
13:47:26.867088,-49,9c:1c:12:c1:51:85
13:47:26.884836,-84,2c:41:38:f3:49:d4
13:47:26.890035,-95,00:1b:11:f3:85:3b
13:47:26.910550,-85,2c:41:38:f3:49:d5
13:47:26.968250,-48,9c:1c:12:c1:51:80
13:47:26.968613,-48,9c:1c:12:c1:51:81
13:47:26.968815,-48,9c:1c:12:c1:51:82
13:47:26.969011,-48,9c:1c:12:c1:51:83
13:47:26.969208,-48,9c:1c:12:c1:51:84
13:47:26.969405,-49,9c:1c:12:c1:51:85
13:47:27.038826,-85,2c:41:38:f3:49:d0
13:47:27.064192,-85,2c:41:38:f3:49:d2
13:47:27.070209,-48,9c:1c:12:c1:51:80
13:47:27.070573,-49,9c:1c:12:c1:51:81
13:47:27.070889,-48,9c:1c:12:c1:51:82
13:47:27.071227,-48,9c:1c:12:c1:51:83
13:47:27.071429,-48,9c:1c:12:c1:51:84
13:47:27.071727,-48,9c:1c:12:c1:51:85
13:47:27.089596,-86,2c:41:38:f3:49:d4
13:47:27.115195,-86,2c:41:38:f3:49:d5
13:47:27.173068,-48,9c:1c:12:c1:51:80
13:47:27.173431,-49,9c:1c:12:c1:51:81
13:47:27.173632,-48,9c:1c:12:c1:51:82
13:47:27.173831,-48,9c:1c:12:c1:51:83
13:47:27.174028,-48,9c:1c:12:c1:51:84
13:47:27.174224,-48,9c:1c:12:c1:51:85
13:47:29.752189,-73,20:aa:4b:e1:e1:f5
13:47:29.796031,-83,00:23:08:a2:66:b7
13:47:29.854668,-72,20:aa:4b:e1:e1:f5
13:47:29.897949,-85,00:23:08:a2:66:b7
13:47:29.957817,-73,20:aa:4b:e1:e1:f5
13:47:30.001072,-84,00:23:08:a2:66:b7
13:47:30.059987,-72,20:aa:4b:e1:e1:f5
13:47:30.103484,-84,00:23:08:a2:66:b7
13:47:30.162385,-73,20:aa:4b:e1:e1:f5
13:47:30.205882,-84,00:23:08:a2:66:b7
13:47:30.264740,-74,20:aa:4b:e1:e1:f5
13:47:30.308297,-85,00:23:08:a2:66:b7
13:47:30.367184,-72,20:aa:4b:e1:e1:f5
13:47:30.410683,-85,00:23:08:a2:66:b7
13:47:30.469830,-71,20:aa:4b:e1:e1:f5
13:47:30.512821,-87,00:23:08:a2:66:b7
13:47:30.572265,-72,20:aa:4b:e1:e1:f5
13:47:30.615227,-86,00:23:08:a2:66:b7
13:47:30.674560,-72,20:aa:4b:e1:e1:f5
13:47:30.717513,-85,00:23:08:a2:66:b7
13:47:30.777098,-72,20:aa:4b:e1:e1:f5
13:47:30.820017,-86,00:23:08:a2:66:b7
13:47:30.879420,-74,20:aa:4b:e1:e1:f5
13:47:30.922642,-85,00:23:08:a2:66:b7
13:47:30.981898,-73,20:aa:4b:e1:e1:f5
13:47:31.025087,-87,00:23:08:a2:66:b7
13:47:31.084218,-73,20:aa:4b:e1:e1:f5
13:47:31.127455,-88,00:23:08:a2:66:b7
13:47:31.186643,-74,20:aa:4b:e1:e1:f5
13:47:31.229851,-84,00:23:08:a2:66:b7
13:47:31.289061,-73,20:aa:4b:e1:e1:f5
13:47:31.332058,-84,00:23:08:a2:66:b7
13:47:31.391450,-73,20:aa:4b:e1:e1:f5
13:47:31.434672,-86,00:23:08:a2:66:b7
13:47:31.493556,-71,20:aa:4b:e1:e1:f5
13:47:31.537072,-85,00:23:08:a2:66:b7
13:47:31.596218,-73,20:aa:4b:e1:e1:f5
13:47:31.639475,-86,00:23:08:a2:66:b7
13:47:31.698352,-72,20:aa:4b:e1:e1:f5
13:47:31.953209,-86,2c:41:38:f3:49:d0
13:47:31.978961,-87,2c:41:38:f3:49:d2
13:47:31.984979,-49,9c:1c:12:c1:51:80
13:47:31.985105,-50,9c:1c:12:c1:51:81
13:47:31.985378,-50,9c:1c:12:c1:51:82
13:47:31.985838,-49,9c:1c:12:c1:51:83
13:47:31.986136,-50,9c:1c:12:c1:51:84
13:47:31.986474,-51,9c:1c:12:c1:51:85
13:47:32.004345,-87,2c:41:38:f3:49:d4
13:47:32.087596,-49,9c:1c:12:c1:51:80
13:47:32.087780,-51,9c:1c:12:c1:51:81
13:47:32.087943,-50,9c:1c:12:c1:51:82
13:47:32.088368,-50,9c:1c:12:c1:51:83
13:47:32.088526,-50,9c:1c:12:c1:51:84
13:47:32.088943,-50,9c:1c:12:c1:51:85
13:47:32.158026,-88,2c:41:38:f3:49:d0
13:47:32.190070,-50,9c:1c:12:c1:51:80
13:47:32.190262,-50,9c:1c:12:c1:51:81
13:47:32.190429,-50,9c:1c:12:c1:51:82
13:47:32.190595,-50,9c:1c:12:c1:51:83
13:47:32.191025,-50,9c:1c:12:c1:51:84
13:47:32.191454,-50,9c:1c:12:c1:51:85
13:47:32.191729,-49,9c:1c:12:c1:51:84
13:47:32.209498,-87,2c:41:38:f3:49:d4
13:47:32.235045,-86,2c:41:38:f3:49:d5
13:47:32.292474,-50,9c:1c:12:c1:51:80
13:47:32.292645,-50,9c:1c:12:c1:51:81
13:47:32.292804,-50,9c:1c:12:c1:51:82
13:47:32.292963,-50,9c:1c:12:c1:51:83
13:47:32.293377,-49,9c:1c:12:c1:51:84
13:47:32.293790,-50,9c:1c:12:c1:51:85
13:47:32.316910,-92,00:1b:11:f3:85:3b
13:47:32.363158,-86,2c:41:38:f3:49:d0
13:47:32.388961,-88,2c:41:38:f3:49:d2
13:47:32.394909,-50,9c:1c:12:c1:51:80
13:47:32.395269,-50,9c:1c:12:c1:51:81
13:47:32.395585,-50,9c:1c:12:c1:51:82
13:47:32.395922,-49,9c:1c:12:c1:51:83
13:47:32.396264,-50,9c:1c:12:c1:51:84
13:47:32.396622,-51,9c:1c:12:c1:51:85
13:47:32.414429,-88,2c:41:38:f3:49:d4
13:47:32.440236,-88,2c:41:38:f3:49:d5
13:47:32.497824,-50,9c:1c:12:c1:51:80
13:47:32.498188,-50,9c:1c:12:c1:51:81
13:47:32.498392,-50,9c:1c:12:c1:51:82
13:47:32.498592,-49,9c:1c:12:c1:51:83
13:47:32.498789,-50,9c:1c:12:c1:51:84
13:47:32.498985,-51,9c:1c:12:c1:51:85
13:47:32.567982,-86,2c:41:38:f3:49:d0
13:47:32.593799,-85,2c:41:38:f3:49:d2
13:47:32.599758,-50,9c:1c:12:c1:51:80
13:47:32.600120,-49,9c:1c:12:c1:51:81
13:47:32.600464,-50,9c:1c:12:c1:51:82
13:47:32.600776,-51,9c:1c:12:c1:51:83
13:47:32.600973,-50,9c:1c:12:c1:51:84
13:47:32.601171,-50,9c:1c:12:c1:51:85
13:47:32.619248,-87,2c:41:38:f3:49:d4
13:47:32.644879,-87,2c:41:38:f3:49:d5
13:47:32.702488,-50,9c:1c:12:c1:51:80
13:47:32.702847,-50,9c:1c:12:c1:51:81
13:47:32.703049,-50,9c:1c:12:c1:51:82
13:47:32.703275,-51,9c:1c:12:c1:51:83
13:47:32.703474,-50,9c:1c:12:c1:51:84
13:47:32.703669,-50,9c:1c:12:c1:51:85
13:47:32.773251,-86,2c:41:38:f3:49:d0
13:47:32.798548,-88,2c:41:38:f3:49:d2
13:47:32.804558,-49,9c:1c:12:c1:51:80
13:47:32.804922,-50,9c:1c:12:c1:51:81
13:47:32.805263,-51,9c:1c:12:c1:51:82
13:47:32.805577,-51,9c:1c:12:c1:51:84
13:47:32.805885,-50,9c:1c:12:c1:51:85
13:47:32.824031,-88,2c:41:38:f3:49:d4
13:47:32.849852,-88,2c:41:38:f3:49:d5
13:47:32.907211,-50,9c:1c:12:c1:51:80
13:47:32.907545,-51,9c:1c:12:c1:51:81
13:47:32.907747,-50,9c:1c:12:c1:51:82
13:47:32.907942,-50,9c:1c:12:c1:51:83
13:47:32.908136,-50,9c:1c:12:c1:51:84
13:47:32.908469,-50,9c:1c:12:c1:51:85
13:47:32.978052,-86,2c:41:38:f3:49:d0
13:47:33.003370,-87,2c:41:38:f3:49:d2
13:47:33.009353,-50,9c:1c:12:c1:51:80
13:47:33.009686,-51,9c:1c:12:c1:51:81
13:47:33.009995,-50,9c:1c:12:c1:51:82
13:47:33.010301,-50,9c:1c:12:c1:51:83
13:47:33.010638,-50,9c:1c:12:c1:51:84
13:47:33.010953,-50,9c:1c:12:c1:51:85
13:47:33.028837,-87,2c:41:38:f3:49:d4
13:47:33.034008,-94,00:1b:11:f3:85:3b
13:47:33.054520,-87,2c:41:38:f3:49:d5
13:47:33.112263,-50,9c:1c:12:c1:51:80
13:47:33.112598,-50,9c:1c:12:c1:51:81
13:47:33.112795,-50,9c:1c:12:c1:51:82
13:47:33.112992,-51,9c:1c:12:c1:51:83
13:47:33.113186,-50,9c:1c:12:c1:51:84
13:47:33.113392,-51,9c:1c:12:c1:51:85
13:47:33.136634,-93,00:1b:11:f3:85:3b
13:47:33.182834,-88,2c:41:38:f3:49:d0
13:47:33.208461,-87,2c:41:38:f3:49:d2
13:47:33.214154,-50,9c:1c:12:c1:51:80
13:47:33.214514,-50,9c:1c:12:c1:51:81
13:47:33.214829,-50,9c:1c:12:c1:51:82
13:47:33.215169,-51,9c:1c:12:c1:51:83
13:47:33.215367,-51,9c:1c:12:c1:51:84
13:47:33.215676,-50,9c:1c:12:c1:51:85
13:47:33.233588,-87,2c:41:38:f3:49:d4
13:47:33.238844,-94,00:1b:11:f3:85:3b
13:47:33.259219,-88,2c:41:38:f3:49:d5
13:47:33.317100,-50,9c:1c:12:c1:51:80
13:47:33.317436,-50,9c:1c:12:c1:51:81
13:47:33.317632,-50,9c:1c:12:c1:51:82
13:47:33.317830,-51,9c:1c:12:c1:51:83
13:47:33.318026,-51,9c:1c:12:c1:51:84
13:47:33.341410,-93,00:1b:11:f3:85:3b
13:47:33.387390,-88,2c:41:38:f3:49:d0
13:47:33.413252,-88,2c:41:38:f3:49:d2
13:47:33.418955,-50,9c:1c:12:c1:51:80
13:47:33.419287,-50,9c:1c:12:c1:51:81
13:47:33.419642,-50,9c:1c:12:c1:51:82
13:47:33.419981,-50,9c:1c:12:c1:51:83
13:47:33.420181,-51,9c:1c:12:c1:51:84
13:47:33.420492,-50,9c:1c:12:c1:51:85
13:47:33.438522,-87,2c:41:38:f3:49:d4
13:47:33.443676,-92,00:1b:11:f3:85:3b
13:47:33.464123,-87,2c:41:38:f3:49:d5
13:47:33.521881,-49,9c:1c:12:c1:51:80
13:47:33.522244,-50,9c:1c:12:c1:51:81
13:47:33.522446,-50,9c:1c:12:c1:51:82
13:47:33.522644,-50,9c:1c:12:c1:51:83
13:47:33.522841,-51,9c:1c:12:c1:51:84
13:47:33.523043,-51,9c:1c:12:c1:51:85
13:47:33.545955,-96,00:1b:11:f3:85:3b
13:47:33.592424,-87,2c:41:38:f3:49:d0
13:47:33.618018,-87,2c:41:38:f3:49:d2
13:47:33.623762,-50,9c:1c:12:c1:51:80
13:47:33.624093,-50,9c:1c:12:c1:51:81
13:47:33.624404,-50,9c:1c:12:c1:51:82
13:47:33.624714,-50,9c:1c:12:c1:51:83
13:47:33.625052,-50,9c:1c:12:c1:51:84
13:47:33.625367,-50,9c:1c:12:c1:51:85
13:47:33.643352,-88,2c:41:38:f3:49:d4
13:47:33.726625,-49,9c:1c:12:c1:51:80
13:47:33.726963,-50,9c:1c:12:c1:51:81
13:47:33.727163,-50,9c:1c:12:c1:51:82
13:47:33.727359,-50,9c:1c:12:c1:51:83
13:47:33.727700,-51,9c:1c:12:c1:51:85
13:47:33.751005,-94,00:1b:11:f3:85:3b
13:47:33.797319,-88,2c:41:38:f3:49:d0
13:47:33.822653,-88,2c:41:38:f3:49:d2
13:47:33.828507,-49,9c:1c:12:c1:51:80
13:47:33.828839,-50,9c:1c:12:c1:51:81
13:47:33.829148,-50,9c:1c:12:c1:51:82
13:47:33.829457,-49,9c:1c:12:c1:51:83
13:47:33.829808,-50,9c:1c:12:c1:51:84
13:47:33.830117,-51,9c:1c:12:c1:51:85
13:47:33.848127,-87,2c:41:38:f3:49:d4
13:47:33.853243,-94,00:1b:11:f3:85:3b
13:47:33.873729,-87,2c:41:38:f3:49:d5
13:47:36.348985,-87,00:23:08:a2:66:b7
13:47:36.408079,-72,20:aa:4b:e1:e1:f5
13:47:36.451330,-88,00:23:08:a2:66:b7
13:47:36.510893,-72,20:aa:4b:e1:e1:f5
13:47:36.554082,-91,00:23:08:a2:66:b7
13:47:36.613477,-72,20:aa:4b:e1:e1:f5
13:47:36.657091,-89,00:23:08:a2:66:b7
13:47:36.715972,-72,20:aa:4b:e1:e1:f5
13:47:36.759441,-90,00:23:08:a2:66:b7
13:47:36.818321,-71,20:aa:4b:e1:e1:f5
13:47:36.861880,-89,00:23:08:a2:66:b7
13:47:36.921054,-71,20:aa:4b:e1:e1:f5
13:47:36.964213,-86,00:23:08:a2:66:b7
13:47:37.023434,-71,20:aa:4b:e1:e1:f5
13:47:37.066352,-87,00:23:08:a2:66:b7
13:47:37.125660,-72,20:aa:4b:e1:e1:f5
13:47:37.169084,-88,00:23:08:a2:66:b7
13:47:37.228252,-71,20:aa:4b:e1:e1:f5
13:47:37.271444,-83,00:23:08:a2:66:b7
13:47:37.330402,-71,20:aa:4b:e1:e1:f5
13:47:37.373846,-85,00:23:08:a2:66:b7
13:47:37.433066,-71,20:aa:4b:e1:e1:f5
13:47:37.476263,-85,00:23:08:a2:66:b7
13:47:37.535440,-72,20:aa:4b:e1:e1:f5
13:47:37.578611,-87,00:23:08:a2:66:b7
13:47:37.637838,-71,20:aa:4b:e1:e1:f5
13:47:37.681011,-90,00:23:08:a2:66:b7
13:47:37.740230,-71,20:aa:4b:e1:e1:f5
13:47:37.783436,-90,00:23:08:a2:66:b7
13:47:37.842640,-72,20:aa:4b:e1:e1:f5
13:47:37.885839,-93,00:23:08:a2:66:b7
13:47:37.944757,-71,20:aa:4b:e1:e1:f5
13:47:37.988207,-90,00:23:08:a2:66:b7
13:47:38.047253,-72,20:aa:4b:e1:e1:f5
13:47:38.090645,-89,00:23:08:a2:66:b7
13:47:38.149521,-72,20:aa:4b:e1:e1:f5
13:47:38.193026,-87,00:23:08:a2:66:b7
13:47:38.252043,-72,20:aa:4b:e1:e1:f5
13:47:38.295386,-88,00:23:08:a2:66:b7
13:47:38.641066,-50,9c:1c:12:c1:51:80
13:47:38.641193,-51,9c:1c:12:c1:51:81
13:47:38.641504,-50,9c:1c:12:c1:51:82
13:47:38.641803,-50,9c:1c:12:c1:51:83
13:47:38.642078,-51,9c:1c:12:c1:51:84
13:47:38.642447,-51,9c:1c:12:c1:51:85
13:47:38.711524,-87,2c:41:38:f3:49:d0
13:47:38.737203,-88,2c:41:38:f3:49:d2
13:47:38.743253,-51,9c:1c:12:c1:51:80
13:47:38.743535,-50,9c:1c:12:c1:51:81
13:47:38.743863,-50,9c:1c:12:c1:51:82
13:47:38.744213,-51,9c:1c:12:c1:51:83
13:47:38.744506,-50,9c:1c:12:c1:51:84
13:47:38.744853,-51,9c:1c:12:c1:51:85
13:47:38.762790,-89,2c:41:38:f3:49:d4
13:47:38.788865,-87,2c:41:38:f3:49:d5
13:47:38.846644,-50,9c:1c:12:c1:51:80
13:47:38.847015,-50,9c:1c:12:c1:51:81
13:47:38.847222,-50,9c:1c:12:c1:51:82
13:47:38.847421,-51,9c:1c:12:c1:51:83
13:47:38.847618,-50,9c:1c:12:c1:51:84
13:47:38.847816,-50,9c:1c:12:c1:51:85
13:47:38.870976,-95,00:1b:11:f3:85:3b
13:47:38.916843,-88,2c:41:38:f3:49:d0
13:47:38.942955,-87,2c:41:38:f3:49:d2
13:47:38.948533,-50,9c:1c:12:c1:51:80
13:47:38.948866,-50,9c:1c:12:c1:51:81
13:47:38.949207,-51,9c:1c:12:c1:51:82
13:47:38.949550,-50,9c:1c:12:c1:51:83
13:47:38.949890,-51,9c:1c:12:c1:51:84
13:47:38.950232,-50,9c:1c:12:c1:51:85
13:47:38.950424,-50,9c:1c:12:c1:51:84
13:47:38.968048,-89,2c:41:38:f3:49:d4
13:47:38.993615,-87,2c:41:38:f3:49:d5
13:47:39.051434,-50,9c:1c:12:c1:51:80
13:47:39.051877,-50,9c:1c:12:c1:51:81
13:47:39.052082,-51,9c:1c:12:c1:51:82
13:47:39.052282,-50,9c:1c:12:c1:51:83
13:47:39.052503,-51,9c:1c:12:c1:51:84
13:47:39.052702,-51,9c:1c:12:c1:51:85
13:47:39.121872,-89,2c:41:38:f3:49:d0
13:47:39.147208,-87,2c:41:38:f3:49:d2
13:47:39.153302,-50,9c:1c:12:c1:51:80
13:47:39.153634,-50,9c:1c:12:c1:51:81
13:47:39.153976,-51,9c:1c:12:c1:51:82
13:47:39.154291,-50,9c:1c:12:c1:51:83
13:47:39.154629,-51,9c:1c:12:c1:51:84
13:47:39.154971,-51,9c:1c:12:c1:51:85
13:47:39.172934,-88,2c:41:38:f3:49:d4
13:47:39.178050,-93,00:1b:11:f3:85:3b
13:47:39.198475,-87,2c:41:38:f3:49:d5
13:47:39.256200,-50,9c:1c:12:c1:51:80
13:47:39.256592,-50,9c:1c:12:c1:51:81
13:47:39.256795,-51,9c:1c:12:c1:51:82
13:47:39.256993,-50,9c:1c:12:c1:51:83
13:47:39.257188,-51,9c:1c:12:c1:51:84
13:47:39.257385,-50,9c:1c:12:c1:51:85
13:47:39.280613,-93,00:1b:11:f3:85:3b
13:47:39.326634,-87,2c:41:38:f3:49:d0
13:47:39.352449,-88,2c:41:38:f3:49:d2
13:47:39.358018,-51,9c:1c:12:c1:51:80
13:47:39.358330,-50,9c:1c:12:c1:51:81
13:47:39.358660,-51,9c:1c:12:c1:51:82
13:47:39.358968,-50,9c:1c:12:c1:51:83
13:47:39.359273,-50,9c:1c:12:c1:51:84
13:47:39.359578,-51,9c:1c:12:c1:51:85
13:47:39.377834,-89,2c:41:38:f3:49:d4
13:47:39.382851,-96,00:1b:11:f3:85:3b
13:47:39.403330,-89,2c:41:38:f3:49:d5
13:47:39.461029,-50,9c:1c:12:c1:51:80
13:47:39.461363,-49,9c:1c:12:c1:51:81
13:47:39.461622,-50,9c:1c:12:c1:51:82
13:47:39.461825,-49,9c:1c:12:c1:51:83
13:47:39.462022,-50,9c:1c:12:c1:51:84
13:47:39.462218,-50,9c:1c:12:c1:51:85
13:47:39.531725,-87,2c:41:38:f3:49:d0
13:47:39.557355,-87,2c:41:38:f3:49:d2
13:47:39.562954,-50,9c:1c:12:c1:51:80
13:47:39.563317,-50,9c:1c:12:c1:51:81
13:47:39.563632,-49,9c:1c:12:c1:51:82
13:47:39.563941,-49,9c:1c:12:c1:51:83
13:47:39.564137,-50,9c:1c:12:c1:51:84
13:47:39.564363,-49,9c:1c:12:c1:51:85
13:47:39.582314,-88,2c:41:38:f3:49:d4
13:47:39.608485,-89,2c:41:38:f3:49:d5
13:47:39.665825,-50,9c:1c:12:c1:51:80
13:47:39.666162,-49,9c:1c:12:c1:51:81
13:47:39.666361,-51,9c:1c:12:c1:51:82
13:47:39.666617,-50,9c:1c:12:c1:51:83
13:47:39.666818,-50,9c:1c:12:c1:51:84
13:47:39.667017,-49,9c:1c:12:c1:51:85
13:47:39.690217,-92,00:1b:11:f3:85:3b
13:47:39.736440,-87,2c:41:38:f3:49:d0
13:47:39.762141,-90,2c:41:38:f3:49:d2
13:47:39.767732,-50,9c:1c:12:c1:51:80
13:47:39.768096,-51,9c:1c:12:c1:51:81
13:47:39.768410,-50,9c:1c:12:c1:51:82
13:47:39.768720,-49,9c:1c:12:c1:51:83
13:47:39.768917,-50,9c:1c:12:c1:51:84
13:47:39.769257,-50,9c:1c:12:c1:51:85
13:47:39.787247,-88,2c:41:38:f3:49:d4
13:47:39.812940,-88,2c:41:38:f3:49:d5
13:47:39.870629,-50,9c:1c:12:c1:51:80
13:47:39.870998,-50,9c:1c:12:c1:51:81
13:47:39.871203,-49,9c:1c:12:c1:51:82
13:47:39.871401,-50,9c:1c:12:c1:51:83
13:47:39.871633,-51,9c:1c:12:c1:51:84
13:47:39.871834,-50,9c:1c:12:c1:51:85
13:47:39.966439,-88,2c:41:38:f3:49:d2
13:47:39.972521,-49,9c:1c:12:c1:51:80
13:47:39.972886,-50,9c:1c:12:c1:51:81
13:47:39.973228,-50,9c:1c:12:c1:51:82
13:47:39.973541,-50,9c:1c:12:c1:51:83
13:47:39.973887,-50,9c:1c:12:c1:51:84
13:47:39.974087,-49,9c:1c:12:c1:51:85
13:47:39.992109,-88,2c:41:38:f3:49:d4
13:47:40.017794,-89,2c:41:38:f3:49:d5
13:47:40.074965,-49,9c:1c:12:c1:51:80
13:47:40.075297,-50,9c:1c:12:c1:51:81
13:47:40.075495,-51,9c:1c:12:c1:51:82
13:47:40.075836,-50,9c:1c:12:c1:51:83
13:47:40.076159,-51,9c:1c:12:c1:51:84
13:47:40.076468,-49,9c:1c:12:c1:51:85
13:47:40.146026,-87,2c:41:38:f3:49:d0
13:47:40.171336,-88,2c:41:38:f3:49:d2
13:47:40.177355,-49,9c:1c:12:c1:51:80
13:47:40.177692,-49,9c:1c:12:c1:51:81
13:47:40.178004,-49,9c:1c:12:c1:51:82
13:47:40.178315,-49,9c:1c:12:c1:51:83
13:47:40.178512,-48,9c:1c:12:c1:51:84
13:47:40.178819,-48,9c:1c:12:c1:51:85
13:47:40.196858,-86,2c:41:38:f3:49:d4
13:47:40.222624,-88,2c:41:38:f3:49:d5
13:47:40.279939,-48,9c:1c:12:c1:51:80
13:47:40.280305,-48,9c:1c:12:c1:51:81
13:47:40.280508,-48,9c:1c:12:c1:51:82
13:47:40.280705,-49,9c:1c:12:c1:51:83
13:47:40.280900,-49,9c:1c:12:c1:51:84
13:47:40.281212,-49,9c:1c:12:c1:51:85
13:47:40.350362,-88,2c:41:38:f3:49:d0
13:47:40.376182,-89,2c:41:38:f3:49:d2
13:47:40.382220,-48,9c:1c:12:c1:51:80
13:47:40.382582,-49,9c:1c:12:c1:51:81
13:47:40.382783,-49,9c:1c:12:c1:51:82
13:47:40.383006,-48,9c:1c:12:c1:51:83
13:47:40.383317,-48,9c:1c:12:c1:51:84
13:47:40.383651,-48,9c:1c:12:c1:51:85
13:47:40.402139,-89,2c:41:38:f3:49:d4
13:47:40.427362,-89,2c:41:38:f3:49:d5
13:47:40.484746,-48,9c:1c:12:c1:51:80
13:47:40.485108,-49,9c:1c:12:c1:51:81
13:47:40.485311,-49,9c:1c:12:c1:51:82
13:47:40.485509,-49,9c:1c:12:c1:51:83
13:47:40.485705,-49,9c:1c:12:c1:51:84
13:47:40.486014,-48,9c:1c:12:c1:51:85
13:47:40.555207,-88,2c:41:38:f3:49:d0
13:47:40.581045,-87,2c:41:38:f3:49:d2
13:47:40.586954,-48,9c:1c:12:c1:51:80
13:47:40.587317,-48,9c:1c:12:c1:51:81
13:47:40.587643,-49,9c:1c:12:c1:51:82
13:47:40.587980,-49,9c:1c:12:c1:51:83
13:47:40.887821,-93,98:fc:11:6b:d6:fc
13:47:41.195879,-92,98:fc:11:6b:d6:fc
13:47:41.298253,-94,98:fc:11:6b:d6:fc
