13:25:32.841000,-50,98:fc:11:6b:d6:fc
13:25:32.842000,-55,c8:4c:75:40:90:5b
13:25:32.843000,-80,9c:1c:12:c1:51:85
13:25:32.843000,-80,9c:1c:12:c1:51:82
13:25:32.843000,-80,9c:1c:12:c1:51:83
13:25:32.844000,-81,9c:1c:12:c1:51:81
13:25:32.844000,-80,9c:1c:12:c1:51:84
13:25:32.844000,-80,9c:1c:12:c1:51:80
13:25:32.845000,-75,c4:6e:1f:bd:4d:ec
13:25:32.845000,-84,00:03:52:ad:90:e3
13:25:32.845000,-84,00:03:52:ad:90:e4
13:25:32.845000,-84,00:03:52:ad:90:e6
13:25:32.845000,-85,00:03:52:ad:90:e2
13:25:32.846000,-84,00:03:52:ad:90:e5
