13:31:14.829662,-90,2c:41:38:ef:3b:f1
13:31:14.836582,-92,34:81:c4:2d:15:26
13:31:14.855083,-90,2c:41:38:ef:3b:f4
13:31:14.880820,-89,2c:41:38:ef:3b:f6
13:31:14.939143,-92,34:81:c4:2d:15:26
13:31:15.008883,-87,2c:41:38:ef:3b:f0
13:31:15.034743,-87,2c:41:38:ef:3b:f1
13:31:15.041497,-91,34:81:c4:2d:15:26
13:31:15.059976,-85,2c:41:38:ef:3b:f4
13:31:15.085569,-85,2c:41:38:ef:3b:f6
13:31:15.143972,-91,34:81:c4:2d:15:26
13:31:15.213686,-84,2c:41:38:ef:3b:f0
13:31:15.241179,-83,2c:41:38:ef:3b:f1
13:31:15.246206,-91,34:81:c4:2d:15:26
13:31:15.264754,-84,2c:41:38:ef:3b:f4
13:31:15.290427,-84,2c:41:38:ef:3b:f6
13:31:15.348752,-90,34:81:c4:2d:15:26
13:31:15.418492,-83,2c:41:38:ef:3b:f0
13:31:15.448805,-84,2c:41:38:ef:3b:f1
13:31:15.451054,-91,34:81:c4:2d:15:26
13:31:15.469576,-83,2c:41:38:ef:3b:f4
13:31:15.495103,-82,2c:41:38:ef:3b:f6
13:31:15.553590,-90,34:81:c4:2d:15:26
13:31:15.623417,-84,2c:41:38:ef:3b:f0
13:31:15.651531,-83,2c:41:38:ef:3b:f1
13:31:15.656275,-90,34:81:c4:2d:15:26
13:31:15.674771,-83,2c:41:38:ef:3b:f4
13:31:15.700467,-84,2c:41:38:ef:3b:f6
13:31:15.758892,-91,34:81:c4:2d:15:26
13:31:15.828848,-85,2c:41:38:ef:3b:f0
13:31:15.854932,-83,2c:41:38:ef:3b:f1
13:31:15.861146,-93,34:81:c4:2d:15:26
13:31:15.879630,-86,2c:41:38:ef:3b:f4
13:31:15.905229,-86,2c:41:38:ef:3b:f6
13:31:15.963962,-90,34:81:c4:2d:15:26
13:31:16.033557,-85,2c:41:38:ef:3b:f0
13:31:16.059682,-84,2c:41:38:ef:3b:f1
13:31:16.065861,-92,34:81:c4:2d:15:26
13:31:16.084466,-83,2c:41:38:ef:3b:f4
13:31:16.110033,-84,2c:41:38:ef:3b:f6
13:31:16.168711,-90,34:81:c4:2d:15:26
13:31:16.238433,-83,2c:41:38:ef:3b:f0
13:31:16.265947,-84,2c:41:38:ef:3b:f1
13:31:16.270675,-90,34:81:c4:2d:15:26
13:31:16.289262,-83,2c:41:38:ef:3b:f4
13:31:16.314866,-83,2c:41:38:ef:3b:f6
13:31:16.373545,-90,34:81:c4:2d:15:26
13:31:16.442901,-84,2c:41:38:ef:3b:f0
13:31:16.470723,-84,2c:41:38:ef:3b:f1
13:31:16.475401,-93,34:81:c4:2d:15:26
13:31:16.494081,-84,2c:41:38:ef:3b:f4
13:31:16.519651,-84,2c:41:38:ef:3b:f6
13:31:16.578321,-90,34:81:c4:2d:15:26
13:31:16.647967,-83,2c:41:38:ef:3b:f0
13:31:16.680808,-90,34:81:c4:2d:15:26
13:31:16.698832,-84,2c:41:38:ef:3b:f4
13:31:16.724496,-84,2c:41:38:ef:3b:f6
13:31:17.064079,-87,98:fc:11:6b:d6:fc
13:31:17.127916,-53,c8:4c:75:40:90:5b
13:31:17.167004,-89,98:fc:11:6b:d6:fc
13:31:17.240322,-53,c8:4c:75:40:90:5b
13:31:17.269261,-88,98:fc:11:6b:d6:fc
13:31:17.337313,-52,c8:4c:75:40:90:5b
13:31:17.371629,-86,98:fc:11:6b:d6:fc
13:31:17.435928,-52,c8:4c:75:40:90:5b
13:31:17.474123,-85,98:fc:11:6b:d6:fc
13:31:17.548214,-52,c8:4c:75:40:90:5b
13:31:17.576498,-85,98:fc:11:6b:d6:fc
13:31:17.644743,-53,c8:4c:75:40:90:5b
13:31:17.678895,-85,98:fc:11:6b:d6:fc
13:31:17.743063,-53,c8:4c:75:40:90:5b
13:31:17.781283,-85,98:fc:11:6b:d6:fc
13:31:17.855236,-53,c8:4c:75:40:90:5b
13:31:17.883621,-83,98:fc:11:6b:d6:fc
13:31:17.951950,-53,c8:4c:75:40:90:5b
13:31:17.986105,-84,98:fc:11:6b:d6:fc
13:31:18.050234,-53,c8:4c:75:40:90:5b
13:31:18.088754,-85,98:fc:11:6b:d6:fc
13:31:18.166818,-52,c8:4c:75:40:90:5b
13:31:18.190734,-85,98:fc:11:6b:d6:fc
13:31:18.258783,-53,c8:4c:75:40:90:5b
13:31:18.292958,-85,98:fc:11:6b:d6:fc
13:31:18.357430,-53,c8:4c:75:40:90:5b
13:31:18.395985,-84,98:fc:11:6b:d6:fc
13:31:18.470768,-52,c8:4c:75:40:90:5b
13:31:18.498292,-82,98:fc:11:6b:d6:fc
13:31:18.566400,-54,c8:4c:75:40:90:5b
13:31:18.600822,-83,98:fc:11:6b:d6:fc
13:31:18.664620,-52,c8:4c:75:40:90:5b
13:31:18.703158,-83,98:fc:11:6b:d6:fc
13:31:18.776657,-53,c8:4c:75:40:90:5b
13:31:18.805293,-84,98:fc:11:6b:d6:fc
13:31:18.873468,-53,c8:4c:75:40:90:5b
13:31:18.907664,-84,98:fc:11:6b:d6:fc
13:31:18.971846,-54,c8:4c:75:40:90:5b
13:31:19.981645,-46,c4:6e:1f:bd:4d:ec
13:31:20.084010,-45,c4:6e:1f:bd:4d:ec
13:31:20.186442,-43,c4:6e:1f:bd:4d:ec
13:31:20.698412,-42,c4:6e:1f:bd:4d:ec
13:31:21.487192,-90,c0:25:06:7e:af:7a
13:31:21.492683,-92,34:81:c4:2d:15:26
13:31:21.562535,-84,2c:41:38:ef:3b:f0
13:31:21.588341,-84,2c:41:38:ef:3b:f1
13:31:21.595065,-90,34:81:c4:2d:15:26
13:31:21.613632,-84,2c:41:38:ef:3b:f4
13:31:21.639276,-84,2c:41:38:ef:3b:f6
13:31:21.692576,-93,c0:25:06:7e:af:7a
13:31:21.768040,-84,2c:41:38:ef:3b:f0
13:31:21.794945,-94,c0:25:06:7e:af:7a
13:31:21.800228,-90,34:81:c4:2d:15:26
13:31:21.800559,-84,2c:41:38:ef:3b:f1
13:31:21.818782,-84,2c:41:38:ef:3b:f4
13:31:21.844470,-83,2c:41:38:ef:3b:f6
13:31:21.903094,-91,34:81:c4:2d:15:26
13:31:21.972839,-84,2c:41:38:ef:3b:f0
13:31:21.998465,-85,2c:41:38:ef:3b:f1
13:31:22.005025,-93,34:81:c4:2d:15:26
13:31:22.023649,-84,2c:41:38:ef:3b:f4
13:31:22.049301,-84,2c:41:38:ef:3b:f6
13:31:22.102416,-92,c0:25:06:7e:af:7a
13:31:22.107453,-93,34:81:c4:2d:15:26
13:31:22.177608,-83,2c:41:38:ef:3b:f0
13:31:22.204156,-83,2c:41:38:ef:3b:f1
13:31:22.209781,-93,34:81:c4:2d:15:26
13:31:22.228471,-84,2c:41:38:ef:3b:f4
13:31:22.307197,-92,c0:25:06:7e:af:7a
13:31:22.312173,-93,34:81:c4:2d:15:26
13:31:22.382415,-84,2c:41:38:ef:3b:f0
13:31:22.407748,-84,2c:41:38:ef:3b:f1
13:31:22.414577,-92,34:81:c4:2d:15:26
13:31:22.433275,-84,2c:41:38:ef:3b:f4
13:31:22.458921,-83,2c:41:38:ef:3b:f6
13:31:22.517532,-91,34:81:c4:2d:15:26
13:31:22.587208,-83,2c:41:38:ef:3b:f0
13:31:22.612871,-83,2c:41:38:ef:3b:f1
13:31:22.619417,-91,34:81:c4:2d:15:26
13:31:22.638059,-84,2c:41:38:ef:3b:f4
13:31:22.664013,-84,2c:41:38:ef:3b:f6
13:31:22.722276,-91,34:81:c4:2d:15:26
13:31:22.792048,-84,2c:41:38:ef:3b:f0
13:31:22.819202,-93,c0:25:06:7e:af:7a
13:31:22.821876,-83,2c:41:38:ef:3b:f1
13:31:22.824164,-92,34:81:c4:2d:15:26
13:31:22.842863,-83,2c:41:38:ef:3b:f4
13:31:22.868836,-83,2c:41:38:ef:3b:f6
13:31:22.926836,-94,34:81:c4:2d:15:26
13:31:22.996827,-84,2c:41:38:ef:3b:f0
13:31:23.022765,-85,2c:41:38:ef:3b:f1
13:31:23.029020,-90,34:81:c4:2d:15:26
13:31:23.047661,-84,2c:41:38:ef:3b:f4
13:31:23.073610,-84,2c:41:38:ef:3b:f6
13:31:23.131920,-92,34:81:c4:2d:15:26
13:31:23.201622,-85,2c:41:38:ef:3b:f0
13:31:23.227212,-85,2c:41:38:ef:3b:f1
13:31:23.233816,-91,34:81:c4:2d:15:26
13:31:23.252467,-85,2c:41:38:ef:3b:f4
13:31:23.278441,-87,2c:41:38:ef:3b:f6
13:31:23.336694,-88,34:81:c4:2d:15:26
13:31:23.406200,-87,2c:41:38:ef:3b:f0
13:31:23.691497,-52,c8:4c:75:40:90:5b
13:31:23.719964,-83,98:fc:11:6b:d6:fc
13:31:23.787971,-53,c8:4c:75:40:90:5b
13:31:23.822607,-83,98:fc:11:6b:d6:fc
13:31:23.886668,-53,c8:4c:75:40:90:5b
13:31:23.925571,-83,98:fc:11:6b:d6:fc
13:31:23.998965,-52,c8:4c:75:40:90:5b
13:31:24.096240,-54,c8:4c:75:40:90:5b
13:31:24.213503,-54,c8:4c:75:40:90:5b
13:31:24.241681,-82,98:fc:11:6b:d6:fc
13:31:24.318354,-53,c8:4c:75:40:90:5b
13:31:24.334682,-85,98:fc:11:6b:d6:fc
13:31:24.404588,-54,c8:4c:75:40:90:5b
13:31:24.437337,-84,98:fc:11:6b:d6:fc
13:31:24.501161,-52,c8:4c:75:40:90:5b
13:31:24.539458,-83,98:fc:11:6b:d6:fc
13:31:24.613099,-53,c8:4c:75:40:90:5b
13:31:24.642277,-81,98:fc:11:6b:d6:fc
13:31:24.709821,-53,c8:4c:75:40:90:5b
13:31:24.744551,-83,98:fc:11:6b:d6:fc
13:31:24.808608,-53,c8:4c:75:40:90:5b
13:31:24.846947,-86,98:fc:11:6b:d6:fc
13:31:24.920696,-53,c8:4c:75:40:90:5b
13:31:24.949301,-85,98:fc:11:6b:d6:fc
13:31:25.019407,-54,c8:4c:75:40:90:5b
13:31:25.115883,-52,c8:4c:75:40:90:5b
13:31:25.154402,-84,98:fc:11:6b:d6:fc
13:31:25.229231,-52,c8:4c:75:40:90:5b
13:31:25.256740,-83,98:fc:11:6b:d6:fc
13:31:25.324684,-54,c8:4c:75:40:90:5b
13:31:25.423024,-53,c8:4c:75:40:90:5b
13:31:25.461583,-85,98:fc:11:6b:d6:fc
13:31:25.535971,-53,c8:4c:75:40:90:5b
13:31:25.564001,-83,98:fc:11:6b:d6:fc
13:31:25.631878,-53,c8:4c:75:40:90:5b
13:31:26.022572,-47,c4:6e:1f:bd:4d:ec
13:31:26.125376,-46,c4:6e:1f:bd:4d:ec
13:31:26.740012,-47,c4:6e:1f:bd:4d:ec
13:31:26.944818,-47,c4:6e:1f:bd:4d:ec
13:31:28.146226,-86,2c:41:38:ef:3b:f1
13:31:28.148576,-92,34:81:c4:2d:15:26
13:31:28.167175,-87,2c:41:38:ef:3b:f4
13:31:28.192954,-86,2c:41:38:ef:3b:f6
13:31:28.251136,-89,34:81:c4:2d:15:26
13:31:28.321075,-86,2c:41:38:ef:3b:f0
13:31:28.354262,-90,34:81:c4:2d:15:26
13:31:28.397959,-87,2c:41:38:ef:3b:f6
13:31:28.456691,-89,34:81:c4:2d:15:26
13:31:28.526485,-86,2c:41:38:ef:3b:f0
13:31:28.553816,-86,2c:41:38:ef:3b:f1
13:31:28.558589,-90,34:81:c4:2d:15:26
13:31:28.577291,-86,2c:41:38:ef:3b:f4
13:31:28.602902,-86,2c:41:38:ef:3b:f6
13:31:28.661483,-91,34:81:c4:2d:15:26
13:31:28.731320,-86,2c:41:38:ef:3b:f0
13:31:28.763869,-89,34:81:c4:2d:15:26
13:31:28.782096,-87,2c:41:38:ef:3b:f4
13:31:28.808081,-86,2c:41:38:ef:3b:f6
13:31:28.860738,-90,c0:25:06:7e:af:7a
13:31:28.865834,-92,34:81:c4:2d:15:26
13:31:28.935896,-85,2c:41:38:ef:3b:f0
13:31:28.962078,-85,2c:41:38:ef:3b:f1
13:31:28.968204,-91,34:81:c4:2d:15:26
13:31:28.986857,-86,2c:41:38:ef:3b:f4
13:31:29.012850,-86,2c:41:38:ef:3b:f6
13:31:29.071119,-91,34:81:c4:2d:15:26
13:31:29.140957,-86,2c:41:38:ef:3b:f0
13:31:29.173474,-90,34:81:c4:2d:15:26
13:31:29.191651,-85,2c:41:38:ef:3b:f4
13:31:29.217387,-86,2c:41:38:ef:3b:f6
13:31:29.275979,-91,34:81:c4:2d:15:26
13:31:29.345751,-86,2c:41:38:ef:3b:f0
13:31:29.372771,-92,c0:25:06:7e:af:7a
13:31:29.373104,-87,2c:41:38:ef:3b:f1
13:31:29.377787,-90,34:81:c4:2d:15:26
13:31:29.396380,-86,2c:41:38:ef:3b:f4
13:31:29.422445,-86,2c:41:38:ef:3b:f6
13:31:29.467162,-91,c0:25:06:7e:af:7a
13:31:29.480212,-90,34:81:c4:2d:15:26
13:31:29.549932,-86,2c:41:38:ef:3b:f0
13:31:29.577782,-87,2c:41:38:ef:3b:f1
13:31:29.601369,-86,2c:41:38:ef:3b:f4
13:31:29.627042,-87,2c:41:38:ef:3b:f6
13:31:29.685497,-87,34:81:c4:2d:15:26
13:31:29.754724,-86,2c:41:38:ef:3b:f0
13:31:29.782649,-86,2c:41:38:ef:3b:f1
13:31:29.787415,-90,34:81:c4:2d:15:26
13:31:29.805999,-85,2c:41:38:ef:3b:f4
13:31:29.831780,-86,2c:41:38:ef:3b:f6
13:31:29.890261,-89,34:81:c4:2d:15:26
13:31:29.960073,-86,2c:41:38:ef:3b:f0
13:31:29.987184,-84,2c:41:38:ef:3b:f1
13:31:29.992183,-91,34:81:c4:2d:15:26
13:31:30.010843,-86,2c:41:38:ef:3b:f4
13:31:30.036473,-86,2c:41:38:ef:3b:f6
13:31:30.095107,-88,34:81:c4:2d:15:26
13:31:30.450202,-53,c8:4c:75:40:90:5b
13:31:30.478596,-81,98:fc:11:6b:d6:fc
13:31:30.546300,-55,c8:4c:75:40:90:5b
13:31:30.648130,-55,c8:4c:75:40:90:5b
13:31:30.683791,-81,98:fc:11:6b:d6:fc
13:31:30.757737,-55,c8:4c:75:40:90:5b
13:31:30.856350,-54,c8:4c:75:40:90:5b
13:31:30.888764,-80,98:fc:11:6b:d6:fc
13:31:30.952551,-55,c8:4c:75:40:90:5b
13:31:31.087935,-55,c8:4c:75:40:90:5b
13:31:31.093148,-80,98:fc:11:6b:d6:fc
13:31:31.161471,-55,c8:4c:75:40:90:5b
13:31:31.196092,-81,98:fc:11:6b:d6:fc
13:31:31.259719,-54,c8:4c:75:40:90:5b
13:31:31.298454,-80,98:fc:11:6b:d6:fc
13:31:31.376102,-53,c8:4c:75:40:90:5b
13:31:31.400857,-81,98:fc:11:6b:d6:fc
13:31:31.468647,-55,c8:4c:75:40:90:5b
13:31:31.503230,-81,98:fc:11:6b:d6:fc
13:31:31.566988,-55,c8:4c:75:40:90:5b
13:31:31.605720,-80,98:fc:11:6b:d6:fc
13:31:31.679693,-56,c8:4c:75:40:90:5b
13:31:31.707710,-81,98:fc:11:6b:d6:fc
13:31:31.775892,-55,c8:4c:75:40:90:5b
13:31:31.810449,-81,98:fc:11:6b:d6:fc
13:31:31.874139,-55,c8:4c:75:40:90:5b
13:31:31.912858,-81,98:fc:11:6b:d6:fc
13:31:31.990441,-56,c8:4c:75:40:90:5b
13:31:32.015218,-81,98:fc:11:6b:d6:fc
13:31:32.083031,-55,c8:4c:75:40:90:5b
13:31:32.117667,-81,98:fc:11:6b:d6:fc
13:31:32.181132,-56,c8:4c:75:40:90:5b
13:31:32.219764,-82,98:fc:11:6b:d6:fc
13:31:32.293347,-55,c8:4c:75:40:90:5b
13:31:32.322461,-84,98:fc:11:6b:d6:fc
13:31:34.874499,-86,2c:41:38:ef:3b:f0
13:31:34.904783,-86,2c:41:38:ef:3b:f1
13:31:34.906999,-89,34:81:c4:2d:15:26
13:31:34.925643,-86,2c:41:38:ef:3b:f4
13:31:35.009998,-89,34:81:c4:2d:15:26
13:31:35.105952,-86,2c:41:38:ef:3b:f1
13:31:35.112197,-92,34:81:c4:2d:15:26
13:31:35.130926,-85,2c:41:38:ef:3b:f4
13:31:35.156478,-86,2c:41:38:ef:3b:f6
13:31:35.214774,-90,34:81:c4:2d:15:26
13:31:35.284889,-89,2c:41:38:ef:3b:f0
13:31:35.310706,-86,2c:41:38:ef:3b:f1
13:31:35.317026,-91,34:81:c4:2d:15:26
13:31:35.335708,-85,2c:41:38:ef:3b:f4
13:31:35.361432,-87,2c:41:38:ef:3b:f6
13:31:35.419854,-90,34:81:c4:2d:15:26
13:31:35.515237,-87,2c:41:38:ef:3b:f1
13:31:35.521797,-90,34:81:c4:2d:15:26
13:31:35.540445,-87,2c:41:38:ef:3b:f4
13:31:35.566236,-87,2c:41:38:ef:3b:f6
13:31:35.624627,-90,34:81:c4:2d:15:26
13:31:35.694508,-87,2c:41:38:ef:3b:f0
13:31:35.719843,-86,2c:41:38:ef:3b:f1
13:31:35.726486,-90,34:81:c4:2d:15:26
13:31:35.745250,-86,2c:41:38:ef:3b:f4
13:31:35.771009,-88,2c:41:38:ef:3b:f6
13:31:35.829476,-92,34:81:c4:2d:15:26
13:31:35.899064,-86,2c:41:38:ef:3b:f0
13:31:35.926402,-95,c0:25:06:7e:af:7a
13:31:35.928939,-86,2c:41:38:ef:3b:f1
13:31:35.931310,-89,34:81:c4:2d:15:26
13:31:35.950008,-87,2c:41:38:ef:3b:f4
13:31:35.975834,-86,2c:41:38:ef:3b:f6
13:31:36.028744,-91,c0:25:06:7e:af:7a
13:31:36.033762,-91,34:81:c4:2d:15:26
13:31:36.104093,-86,2c:41:38:ef:3b:f0
13:31:36.136670,-90,34:81:c4:2d:15:26
13:31:36.137004,-88,2c:41:38:ef:3b:f1
13:31:36.154811,-87,2c:41:38:ef:3b:f4
13:31:36.180536,-88,2c:41:38:ef:3b:f6
13:31:36.233534,-93,c0:25:06:7e:af:7a
13:31:36.238562,-90,34:81:c4:2d:15:26
13:31:36.308898,-85,2c:41:38:ef:3b:f0
13:31:36.339063,-86,2c:41:38:ef:3b:f1
13:31:36.340962,-88,34:81:c4:2d:15:26
13:31:36.359771,-86,2c:41:38:ef:3b:f4
13:31:36.385361,-85,2c:41:38:ef:3b:f6
13:31:36.443876,-91,34:81:c4:2d:15:26
13:31:36.513707,-87,2c:41:38:ef:3b:f0
13:31:36.539176,-86,2c:41:38:ef:3b:f1
13:31:36.545846,-91,34:81:c4:2d:15:26
13:31:36.564538,-86,2c:41:38:ef:3b:f4
13:31:36.590171,-86,2c:41:38:ef:3b:f6
13:31:36.643125,-92,c0:25:06:7e:af:7a
13:31:36.648189,-90,34:81:c4:2d:15:26
13:31:36.718513,-86,2c:41:38:ef:3b:f0
13:31:36.750864,-89,34:81:c4:2d:15:26
13:31:36.769343,-86,2c:41:38:ef:3b:f4
13:31:37.095871,-54,c8:4c:75:40:90:5b
13:31:37.134377,-78,98:fc:11:6b:d6:fc
13:31:37.212628,-55,c8:4c:75:40:90:5b
13:31:37.236965,-78,98:fc:11:6b:d6:fc
13:31:37.306844,-56,c8:4c:75:40:90:5b
13:31:37.339824,-79,98:fc:11:6b:d6:fc
13:31:37.410170,-56,c8:4c:75:40:90:5b
13:31:37.442238,-79,98:fc:11:6b:d6:fc
13:31:37.544862,-79,98:fc:11:6b:d6:fc
13:31:37.547429,-56,c8:4c:75:40:90:5b
13:31:37.613986,-56,c8:4c:75:40:90:5b
13:31:37.647033,-79,98:fc:11:6b:d6:fc
13:31:37.710975,-57,c8:4c:75:40:90:5b
13:31:37.749396,-79,98:fc:11:6b:d6:fc
13:31:37.823200,-57,c8:4c:75:40:90:5b
13:31:37.851837,-79,98:fc:11:6b:d6:fc
13:31:37.921047,-57,c8:4c:75:40:90:5b
13:31:37.954170,-79,98:fc:11:6b:d6:fc
13:31:38.019125,-57,c8:4c:75:40:90:5b
13:31:38.131690,-57,c8:4c:75:40:90:5b
13:31:38.159264,-79,98:fc:11:6b:d6:fc
13:31:38.226857,-56,c8:4c:75:40:90:5b
13:31:38.261711,-79,98:fc:11:6b:d6:fc
13:31:38.325265,-56,c8:4c:75:40:90:5b
13:31:38.364064,-79,98:fc:11:6b:d6:fc
13:31:38.441644,-56,c8:4c:75:40:90:5b
13:31:38.466313,-79,98:fc:11:6b:d6:fc
13:31:38.534018,-57,c8:4c:75:40:90:5b
13:31:38.568707,-79,98:fc:11:6b:d6:fc
13:31:38.632298,-57,c8:4c:75:40:90:5b
13:31:38.670977,-80,98:fc:11:6b:d6:fc
13:31:38.744214,-56,c8:4c:75:40:90:5b
13:31:38.841272,-56,c8:4c:75:40:90:5b
13:31:38.875881,-79,98:fc:11:6b:d6:fc
13:31:38.939199,-57,c8:4c:75:40:90:5b
13:31:38.978777,-79,98:fc:11:6b:d6:fc
