13:44:31.207000,-57,c8:4c:75:40:90:5b
13:44:31.209000,-72,c4:6e:1f:bd:4d:ec
13:44:31.209000,-72,98:fc:11:6b:d6:fc
13:44:31.209000,-82,9c:1c:12:c1:01:81
13:44:31.210000,-83,9c:1c:12:c1:01:85
13:44:31.210000,-83,9c:1c:12:c1:01:83
13:44:31.210000,-83,9c:1c:12:c1:01:82
13:44:31.210000,-85,9c:1c:12:c1:51:82
13:44:31.210000,-85,9c:1c:12:c1:51:85
13:44:31.210000,-86,9c:1c:12:c1:51:83
13:44:31.211000,-87,9c:1c:12:c1:51:81
13:44:31.211000,-83,9c:1c:12:c1:01:80
13:44:31.211000,-83,9c:1c:12:c1:01:84
13:44:31.212000,-86,9c:1c:12:c1:51:84
13:44:31.212000,-86,9c:1c:12:c1:51:80
