13:36:58.828236,-82,2c:41:38:f3:49:d5
13:36:58.888805,-81,9c:1c:12:c1:51:80
13:36:58.888931,-83,9c:1c:12:c1:51:81
13:36:58.889208,-81,9c:1c:12:c1:51:82
13:36:58.889608,-83,9c:1c:12:c1:51:83
13:36:58.889906,-82,9c:1c:12:c1:51:84
13:36:58.890246,-82,9c:1c:12:c1:51:85
13:36:58.956216,-79,2c:41:38:f3:49:d0
13:36:58.981820,-80,2c:41:38:f3:49:d2
13:36:58.991066,-81,9c:1c:12:c1:51:80
13:36:58.991274,-79,9c:1c:12:c1:51:81
13:36:58.991614,-81,9c:1c:12:c1:51:82
13:36:58.991958,-79,9c:1c:12:c1:51:83
13:36:58.992254,-81,9c:1c:12:c1:51:84
13:36:58.992630,-80,9c:1c:12:c1:51:85
13:36:59.007386,-81,2c:41:38:f3:49:d4
13:36:59.033206,-80,2c:41:38:f3:49:d5
13:36:59.093550,-81,9c:1c:12:c1:51:80
13:36:59.093680,-81,9c:1c:12:c1:51:81
13:36:59.093967,-81,9c:1c:12:c1:51:82
13:36:59.094417,-80,9c:1c:12:c1:51:83
13:36:59.094701,-82,9c:1c:12:c1:51:84
13:36:59.095055,-80,9c:1c:12:c1:51:85
13:36:59.161013,-83,2c:41:38:f3:49:d0
13:36:59.186694,-82,2c:41:38:f3:49:d2
13:36:59.195928,-80,9c:1c:12:c1:51:80
13:36:59.196052,-81,9c:1c:12:c1:51:81
13:36:59.196496,-82,9c:1c:12:c1:51:82
13:36:59.196810,-83,9c:1c:12:c1:51:83
13:36:59.197107,-82,9c:1c:12:c1:51:84
13:36:59.197448,-82,9c:1c:12:c1:51:85
13:36:59.198992,-83,9c:1c:12:c1:51:84
13:36:59.212300,-81,2c:41:38:f3:49:d4
13:36:59.237959,-81,2c:41:38:f3:49:d5
13:36:59.298339,-83,9c:1c:12:c1:51:80
13:36:59.298472,-81,9c:1c:12:c1:51:81
13:36:59.298760,-80,9c:1c:12:c1:51:82
13:36:59.299210,-83,9c:1c:12:c1:51:83
13:36:59.299500,-82,9c:1c:12:c1:51:84
13:36:59.299853,-82,9c:1c:12:c1:51:85
13:36:59.365830,-83,2c:41:38:f3:49:d0
13:36:59.391367,-80,2c:41:38:f3:49:d2
13:36:59.400653,-82,9c:1c:12:c1:51:80
13:36:59.400929,-83,9c:1c:12:c1:51:81
13:36:59.401242,-83,9c:1c:12:c1:51:82
13:36:59.401602,-81,9c:1c:12:c1:51:83
13:36:59.401899,-82,9c:1c:12:c1:51:84
13:36:59.402239,-82,9c:1c:12:c1:51:85
13:36:59.417137,-83,2c:41:38:f3:49:d4
13:36:59.442850,-81,2c:41:38:f3:49:d5
13:36:59.503279,-82,9c:1c:12:c1:51:80
13:36:59.503454,-80,9c:1c:12:c1:51:81
13:36:59.503619,-81,9c:1c:12:c1:51:82
13:36:59.504056,-80,9c:1c:12:c1:51:83
13:36:59.504488,-81,9c:1c:12:c1:51:84
13:36:59.504661,-82,9c:1c:12:c1:51:85
13:36:59.571216,-82,2c:41:38:f3:49:d0
13:36:59.596674,-81,2c:41:38:f3:49:d2
13:36:59.605950,-80,9c:1c:12:c1:51:80
13:36:59.606285,-81,9c:1c:12:c1:51:81
13:36:59.606628,-79,9c:1c:12:c1:51:82
13:36:59.606943,-80,9c:1c:12:c1:51:83
13:36:59.607141,-80,9c:1c:12:c1:51:84
13:36:59.607367,-80,9c:1c:12:c1:51:85
13:36:59.622260,-81,2c:41:38:f3:49:d4
13:36:59.648122,-82,2c:41:38:f3:49:d5
13:36:59.708514,-80,9c:1c:12:c1:51:80
13:36:59.708851,-79,9c:1c:12:c1:51:81
13:36:59.709049,-80,9c:1c:12:c1:51:82
13:36:59.709245,-80,9c:1c:12:c1:51:83
13:36:59.709440,-80,9c:1c:12:c1:51:84
13:36:59.709749,-80,9c:1c:12:c1:51:85
13:36:59.713047,-80,9c:1c:12:c1:51:84
13:36:59.776314,-81,2c:41:38:f3:49:d0
13:36:59.801393,-82,2c:41:38:f3:49:d2
13:36:59.810706,-80,9c:1c:12:c1:51:80
13:36:59.811071,-79,9c:1c:12:c1:51:81
13:36:59.811387,-80,9c:1c:12:c1:51:82
13:36:59.811695,-81,9c:1c:12:c1:51:83
13:36:59.812030,-80,9c:1c:12:c1:51:84
13:36:59.812345,-81,9c:1c:12:c1:51:85
13:36:59.827068,-80,2c:41:38:f3:49:d4
13:36:59.853203,-80,2c:41:38:f3:49:d5
13:36:59.913200,-80,9c:1c:12:c1:51:80
13:36:59.913561,-79,9c:1c:12:c1:51:81
13:36:59.913763,-80,9c:1c:12:c1:51:82
13:36:59.913962,-81,9c:1c:12:c1:51:83
13:36:59.914307,-80,9c:1c:12:c1:51:84
13:36:59.914641,-80,9c:1c:12:c1:51:85
13:36:59.915284,-80,9c:1c:12:c1:51:84
13:36:59.980724,-81,2c:41:38:f3:49:d0
13:37:00.006374,-80,2c:41:38:f3:49:d2
13:37:00.015628,-80,9c:1c:12:c1:51:80
13:37:00.015987,-80,9c:1c:12:c1:51:81
13:37:00.016189,-80,9c:1c:12:c1:51:82
13:37:00.016388,-81,9c:1c:12:c1:51:83
13:37:00.016726,-81,9c:1c:12:c1:51:84
13:37:00.017068,-81,9c:1c:12:c1:51:85
13:37:00.031837,-80,2c:41:38:f3:49:d4
13:37:00.057382,-80,2c:41:38:f3:49:d5
13:37:00.117852,-81,9c:1c:12:c1:51:80
13:37:00.118006,-81,9c:1c:12:c1:51:81
13:37:00.118128,-81,9c:1c:12:c1:51:82
13:37:00.118445,-80,9c:1c:12:c1:51:83
13:37:00.118746,-82,9c:1c:12:c1:51:84
13:37:00.119049,-81,9c:1c:12:c1:51:85
13:37:00.121990,-80,9c:1c:12:c1:51:84
13:37:00.184985,-80,2c:41:38:f3:49:d0
13:37:00.210673,-80,2c:41:38:f3:49:d2
13:37:00.219972,-80,9c:1c:12:c1:51:80
13:37:00.220142,-81,9c:1c:12:c1:51:81
13:37:00.220558,-80,9c:1c:12:c1:51:82
13:37:00.220972,-80,9c:1c:12:c1:51:83
13:37:00.221128,-81,9c:1c:12:c1:51:84
13:37:00.221541,-80,9c:1c:12:c1:51:85
13:37:00.236295,-81,2c:41:38:f3:49:d4
13:37:00.261983,-81,2c:41:38:f3:49:d5
13:37:00.322659,-81,9c:1c:12:c1:51:80
13:37:00.322826,-80,9c:1c:12:c1:51:81
13:37:00.322984,-81,9c:1c:12:c1:51:82
13:37:00.323140,-80,9c:1c:12:c1:51:83
13:37:00.323548,-81,9c:1c:12:c1:51:84
13:37:00.323957,-81,9c:1c:12:c1:51:85
13:37:00.390880,-82,2c:41:38:f3:49:d0
13:37:00.416413,-82,2c:41:38:f3:49:d2
13:37:00.425098,-80,9c:1c:12:c1:51:80
13:37:00.425424,-81,9c:1c:12:c1:51:81
13:37:00.425729,-81,9c:1c:12:c1:51:82
13:37:00.426031,-80,9c:1c:12:c1:51:83
13:37:00.426333,-81,9c:1c:12:c1:51:84
13:37:00.426634,-81,9c:1c:12:c1:51:85
13:37:00.441424,-80,2c:41:38:f3:49:d4
13:37:00.466936,-80,2c:41:38:f3:49:d5
13:37:00.528183,-80,9c:1c:12:c1:51:80
13:37:00.528380,-80,9c:1c:12:c1:51:81
13:37:00.528574,-80,9c:1c:12:c1:51:82
13:37:00.528766,-81,9c:1c:12:c1:51:83
13:37:00.528958,-81,9c:1c:12:c1:51:84
13:37:00.529150,-80,9c:1c:12:c1:51:85
13:37:00.595498,-81,2c:41:38:f3:49:d0
13:37:00.620853,-80,2c:41:38:f3:49:d2
13:37:00.630026,-80,9c:1c:12:c1:51:80
13:37:00.630355,-80,9c:1c:12:c1:51:81
13:37:00.630556,-81,9c:1c:12:c1:51:82
13:37:00.630756,-80,9c:1c:12:c1:51:83
13:37:00.631099,-81,9c:1c:12:c1:51:84
13:37:00.631415,-81,9c:1c:12:c1:51:85
13:37:00.646343,-80,2c:41:38:f3:49:d4
13:37:00.672144,-80,2c:41:38:f3:49:d5
13:37:00.732547,-80,9c:1c:12:c1:51:80
13:37:00.732852,-80,9c:1c:12:c1:51:81
13:37:00.733058,-81,9c:1c:12:c1:51:82
13:37:00.733257,-80,9c:1c:12:c1:51:83
13:37:00.733455,-80,9c:1c:12:c1:51:84
13:37:00.733796,-81,9c:1c:12:c1:51:85
13:37:01.099883,-77,c8:4c:75:40:90:5b
13:37:01.129039,-92,98:fc:11:6b:d6:fc
13:37:01.194678,-78,c8:4c:75:40:90:5b
13:37:01.231414,-91,98:fc:11:6b:d6:fc
13:37:01.334563,-87,98:fc:11:6b:d6:fc
13:37:01.339698,-78,c8:4c:75:40:90:5b
13:37:01.407540,-80,c8:4c:75:40:90:5b
13:37:01.436952,-86,98:fc:11:6b:d6:fc
13:37:01.499400,-78,c8:4c:75:40:90:5b
13:37:01.539308,-86,98:fc:11:6b:d6:fc
13:37:01.599901,-78,c8:4c:75:40:90:5b
13:37:01.641540,-86,98:fc:11:6b:d6:fc
13:37:01.743789,-85,98:fc:11:6b:d6:fc
13:37:01.746627,-77,c8:4c:75:40:90:5b
13:37:01.846328,-85,98:fc:11:6b:d6:fc
13:37:01.849114,-77,c8:4c:75:40:90:5b
13:37:01.908298,-78,c8:4c:75:40:90:5b
13:37:01.948730,-85,98:fc:11:6b:d6:fc
13:37:02.018394,-78,c8:4c:75:40:90:5b
13:37:02.051086,-85,98:fc:11:6b:d6:fc
13:37:02.131067,-79,c8:4c:75:40:90:5b
13:37:02.153475,-85,98:fc:11:6b:d6:fc
13:37:02.218774,-78,c8:4c:75:40:90:5b
13:37:02.255895,-85,98:fc:11:6b:d6:fc
13:37:02.329167,-79,c8:4c:75:40:90:5b
13:37:02.358305,-85,98:fc:11:6b:d6:fc
13:37:02.460720,-85,98:fc:11:6b:d6:fc
13:37:02.466174,-79,c8:4c:75:40:90:5b
13:37:02.519368,-78,c8:4c:75:40:90:5b
13:37:02.563147,-85,98:fc:11:6b:d6:fc
13:37:02.631626,-78,c8:4c:75:40:90:5b
13:37:02.667760,-81,98:fc:11:6b:d6:fc
13:37:02.729832,-79,c8:4c:75:40:90:5b
13:37:02.768252,-84,98:fc:11:6b:d6:fc
13:37:02.826511,-79,c8:4c:75:40:90:5b
13:37:02.870574,-84,98:fc:11:6b:d6:fc
13:37:02.939742,-79,c8:4c:75:40:90:5b
13:37:02.973024,-87,98:fc:11:6b:d6:fc
13:37:03.035430,-79,c8:4c:75:40:90:5b
13:37:05.509926,-81,2c:41:38:f3:49:d0
13:37:05.535636,-82,2c:41:38:f3:49:d2
13:37:05.544638,-81,9c:1c:12:c1:51:80
13:37:05.544904,-81,9c:1c:12:c1:51:81
13:37:05.545226,-82,9c:1c:12:c1:51:82
13:37:05.545584,-81,9c:1c:12:c1:51:83
13:37:05.545875,-81,9c:1c:12:c1:51:84
13:37:05.546221,-82,9c:1c:12:c1:51:85
13:37:05.560989,-82,2c:41:38:f3:49:d4
13:37:05.586631,-81,2c:41:38:f3:49:d5
13:37:05.647985,-82,9c:1c:12:c1:51:80
13:37:05.648331,-81,9c:1c:12:c1:51:81
13:37:05.648530,-82,9c:1c:12:c1:51:82
13:37:05.648727,-82,9c:1c:12:c1:51:83
13:37:05.648923,-82,9c:1c:12:c1:51:84
13:37:05.649121,-82,9c:1c:12:c1:51:85
13:37:05.715465,-82,2c:41:38:f3:49:d0
13:37:05.741144,-80,2c:41:38:f3:49:d2
13:37:05.749932,-83,9c:1c:12:c1:51:80
13:37:05.750263,-82,9c:1c:12:c1:51:81
13:37:05.750570,-82,9c:1c:12:c1:51:82
13:37:05.750912,-81,9c:1c:12:c1:51:83
13:37:05.751232,-83,9c:1c:12:c1:51:84
13:37:05.751608,-82,9c:1c:12:c1:51:85
13:37:05.766280,-81,2c:41:38:f3:49:d4
13:37:05.792353,-82,2c:41:38:f3:49:d5
13:37:05.852852,-82,9c:1c:12:c1:51:80
13:37:05.853186,-81,9c:1c:12:c1:51:81
13:37:05.853384,-83,9c:1c:12:c1:51:82
13:37:05.853581,-82,9c:1c:12:c1:51:83
13:37:05.853805,-81,9c:1c:12:c1:51:84
13:37:05.854004,-82,9c:1c:12:c1:51:85
13:37:05.920319,-81,2c:41:38:f3:49:d0
13:37:05.945981,-82,2c:41:38:f3:49:d2
13:37:05.954685,-81,9c:1c:12:c1:51:80
13:37:05.955018,-84,9c:1c:12:c1:51:81
13:37:05.955357,-82,9c:1c:12:c1:51:82
13:37:05.955704,-82,9c:1c:12:c1:51:83
13:37:05.956016,-81,9c:1c:12:c1:51:84
13:37:05.956352,-82,9c:1c:12:c1:51:85
13:37:05.956741,-81,9c:1c:12:c1:51:84
13:37:05.971170,-81,2c:41:38:f3:49:d4
13:37:05.997139,-81,2c:41:38:f3:49:d5
13:37:06.057652,-81,9c:1c:12:c1:51:80
13:37:06.058016,-82,9c:1c:12:c1:51:81
13:37:06.058216,-81,9c:1c:12:c1:51:82
13:37:06.058413,-82,9c:1c:12:c1:51:83
13:37:06.058609,-82,9c:1c:12:c1:51:84
13:37:06.058806,-81,9c:1c:12:c1:51:85
13:37:06.125108,-81,2c:41:38:f3:49:d0
13:37:06.150493,-81,2c:41:38:f3:49:d2
13:37:06.159500,-82,9c:1c:12:c1:51:80
13:37:06.159832,-82,9c:1c:12:c1:51:81
13:37:06.160174,-81,9c:1c:12:c1:51:82
13:37:06.160489,-82,9c:1c:12:c1:51:83
13:37:06.160827,-83,9c:1c:12:c1:51:84
13:37:06.161140,-81,9c:1c:12:c1:51:85
13:37:06.175904,-81,2c:41:38:f3:49:d4
13:37:06.201654,-81,2c:41:38:f3:49:d5
13:37:06.262412,-81,9c:1c:12:c1:51:80
13:37:06.262831,-81,9c:1c:12:c1:51:81
13:37:06.263034,-83,9c:1c:12:c1:51:82
13:37:06.263233,-81,9c:1c:12:c1:51:83
13:37:06.263430,-83,9c:1c:12:c1:51:84
13:37:06.263626,-81,9c:1c:12:c1:51:85
13:37:06.329920,-81,2c:41:38:f3:49:d0
13:37:06.355547,-80,2c:41:38:f3:49:d2
13:37:06.364326,-81,9c:1c:12:c1:51:80
13:37:06.364690,-82,9c:1c:12:c1:51:81
13:37:06.365037,-82,9c:1c:12:c1:51:82
13:37:06.365381,-82,9c:1c:12:c1:51:83
13:37:06.365582,-83,9c:1c:12:c1:51:84
13:37:06.365780,-81,9c:1c:12:c1:51:85
13:37:06.380696,-81,2c:41:38:f3:49:d4
13:37:06.406761,-81,2c:41:38:f3:49:d5
13:37:06.467190,-81,9c:1c:12:c1:51:80
13:37:06.467558,-82,9c:1c:12:c1:51:81
13:37:06.467844,-81,9c:1c:12:c1:51:82
13:37:06.468046,-82,9c:1c:12:c1:51:83
13:37:06.468244,-83,9c:1c:12:c1:51:84
13:37:06.468440,-82,9c:1c:12:c1:51:85
13:37:06.534398,-80,2c:41:38:f3:49:d0
13:37:06.560316,-81,2c:41:38:f3:49:d2
13:37:06.569120,-80,9c:1c:12:c1:51:80
13:37:06.569484,-83,9c:1c:12:c1:51:81
13:37:06.569800,-83,9c:1c:12:c1:51:82
13:37:06.570141,-82,9c:1c:12:c1:51:83
13:37:06.570342,-83,9c:1c:12:c1:51:84
13:37:06.570541,-81,9c:1c:12:c1:51:85
13:37:06.585497,-82,2c:41:38:f3:49:d4
13:37:06.611559,-81,2c:41:38:f3:49:d5
13:37:06.672014,-83,9c:1c:12:c1:51:80
13:37:06.672350,-82,9c:1c:12:c1:51:81
13:37:06.672546,-82,9c:1c:12:c1:51:82
13:37:06.672828,-81,9c:1c:12:c1:51:83
13:37:06.673027,-82,9c:1c:12:c1:51:84
13:37:06.673224,-82,9c:1c:12:c1:51:85
13:37:06.739463,-81,2c:41:38:f3:49:d0
13:37:06.765121,-80,2c:41:38:f3:49:d2
13:37:06.773957,-81,9c:1c:12:c1:51:80
13:37:06.774291,-83,9c:1c:12:c1:51:81
13:37:06.774601,-83,9c:1c:12:c1:51:82
13:37:06.774798,-81,9c:1c:12:c1:51:83
13:37:06.774994,-82,9c:1c:12:c1:51:84
13:37:06.775336,-81,9c:1c:12:c1:51:85
13:37:07.682677,-84,98:fc:11:6b:d6:fc
13:37:07.741284,-79,c8:4c:75:40:90:5b
13:37:07.785233,-83,98:fc:11:6b:d6:fc
13:37:07.864725,-80,c8:4c:75:40:90:5b
13:37:07.887960,-82,98:fc:11:6b:d6:fc
13:37:07.950544,-80,c8:4c:75:40:90:5b
13:37:07.990603,-84,98:fc:11:6b:d6:fc
13:37:08.048938,-80,c8:4c:75:40:90:5b
13:37:08.093049,-83,98:fc:11:6b:d6:fc
13:37:08.162753,-80,c8:4c:75:40:90:5b
13:37:08.195139,-83,98:fc:11:6b:d6:fc
13:37:08.257737,-79,c8:4c:75:40:90:5b
13:37:08.297854,-83,98:fc:11:6b:d6:fc
13:37:08.370636,-80,c8:4c:75:40:90:5b
13:37:08.400232,-83,98:fc:11:6b:d6:fc
13:37:08.469100,-80,c8:4c:75:40:90:5b
13:37:08.502404,-83,98:fc:11:6b:d6:fc
13:37:08.564995,-80,c8:4c:75:40:90:5b
13:37:08.604736,-85,98:fc:11:6b:d6:fc
13:37:08.663307,-79,c8:4c:75:40:90:5b
13:37:08.707143,-86,98:fc:11:6b:d6:fc
13:37:08.775461,-79,c8:4c:75:40:90:5b
13:37:08.809812,-83,98:fc:11:6b:d6:fc
13:37:08.872178,-80,c8:4c:75:40:90:5b
13:37:08.911897,-84,98:fc:11:6b:d6:fc
13:37:08.985064,-80,c8:4c:75:40:90:5b
13:37:09.014346,-85,98:fc:11:6b:d6:fc
13:37:09.085269,-79,c8:4c:75:40:90:5b
13:37:09.116758,-86,98:fc:11:6b:d6:fc
13:37:09.204251,-80,c8:4c:75:40:90:5b
13:37:09.218977,-87,98:fc:11:6b:d6:fc
13:37:09.277651,-81,c8:4c:75:40:90:5b
13:37:09.321579,-87,98:fc:11:6b:d6:fc
13:37:09.390637,-81,c8:4c:75:40:90:5b
13:37:09.423953,-88,98:fc:11:6b:d6:fc
13:37:09.526386,-85,98:fc:11:6b:d6:fc
13:37:09.529168,-80,c8:4c:75:40:90:5b
13:37:09.609455,-80,c8:4c:75:40:90:5b
13:37:12.088983,-82,2c:41:38:f3:49:d2
13:37:12.098320,-80,9c:1c:12:c1:51:80
13:37:12.098443,-80,9c:1c:12:c1:51:81
13:37:12.098720,-82,9c:1c:12:c1:51:82
13:37:12.099150,-80,9c:1c:12:c1:51:83
13:37:12.099461,-81,9c:1c:12:c1:51:84
13:37:12.099799,-80,9c:1c:12:c1:51:85
13:37:12.114704,-81,2c:41:38:f3:49:d4
13:37:12.140184,-82,2c:41:38:f3:49:d5
13:37:12.200992,-80,9c:1c:12:c1:51:80
13:37:12.201164,-81,9c:1c:12:c1:51:81
13:37:12.201323,-81,9c:1c:12:c1:51:82
13:37:12.201482,-80,9c:1c:12:c1:51:83
13:37:12.201892,-80,9c:1c:12:c1:51:84
13:37:12.202306,-80,9c:1c:12:c1:51:85
13:37:12.268560,-81,2c:41:38:f3:49:d0
13:37:12.294759,-81,2c:41:38:f3:49:d2
13:37:12.303470,-80,9c:1c:12:c1:51:80
13:37:12.303804,-81,9c:1c:12:c1:51:81
13:37:12.304115,-81,9c:1c:12:c1:51:82
13:37:12.304458,-80,9c:1c:12:c1:51:83
13:37:12.304801,-81,9c:1c:12:c1:51:84
13:37:12.305115,-80,9c:1c:12:c1:51:85
13:37:12.319942,-81,2c:41:38:f3:49:d4
13:37:12.345935,-82,2c:41:38:f3:49:d5
13:37:12.405839,-81,9c:1c:12:c1:51:80
13:37:12.406201,-81,9c:1c:12:c1:51:81
13:37:12.406575,-81,9c:1c:12:c1:51:82
13:37:12.406889,-82,9c:1c:12:c1:51:83
13:37:12.407226,-80,9c:1c:12:c1:51:84
13:37:12.407549,-81,9c:1c:12:c1:51:85
13:37:12.473906,-82,2c:41:38:f3:49:d0
13:37:12.499520,-80,2c:41:38:f3:49:d2
13:37:12.508337,-81,9c:1c:12:c1:51:80
13:37:12.508673,-81,9c:1c:12:c1:51:81
13:37:12.508898,-81,9c:1c:12:c1:51:82
13:37:12.509101,-81,9c:1c:12:c1:51:83
13:37:12.509413,-82,9c:1c:12:c1:51:84
13:37:12.509720,-81,9c:1c:12:c1:51:85
13:37:12.524867,-82,2c:41:38:f3:49:d4
13:37:12.550442,-81,2c:41:38:f3:49:d5
13:37:12.611010,-81,9c:1c:12:c1:51:80
13:37:12.611356,-81,9c:1c:12:c1:51:81
13:37:12.611557,-81,9c:1c:12:c1:51:82
13:37:12.611756,-80,9c:1c:12:c1:51:83
13:37:12.611954,-81,9c:1c:12:c1:51:84
13:37:12.612152,-81,9c:1c:12:c1:51:85
13:37:12.678330,-81,2c:41:38:f3:49:d0
13:37:12.704010,-81,2c:41:38:f3:49:d2
13:37:12.713133,-81,9c:1c:12:c1:51:80
13:37:12.713503,-81,9c:1c:12:c1:51:81
13:37:12.713708,-80,9c:1c:12:c1:51:82
13:37:12.713908,-81,9c:1c:12:c1:51:83
13:37:12.714248,-82,9c:1c:12:c1:51:84
13:37:12.714563,-81,9c:1c:12:c1:51:85
13:37:12.729494,-82,2c:41:38:f3:49:d4
13:37:12.755539,-81,2c:41:38:f3:49:d5
13:37:12.815736,-81,9c:1c:12:c1:51:80
13:37:12.816071,-80,9c:1c:12:c1:51:81
13:37:12.816270,-81,9c:1c:12:c1:51:82
13:37:12.816468,-80,9c:1c:12:c1:51:83
13:37:12.816666,-81,9c:1c:12:c1:51:84
13:37:12.816975,-81,9c:1c:12:c1:51:85
13:37:12.883524,-80,2c:41:38:f3:49:d0
13:37:12.908913,-81,2c:41:38:f3:49:d2
13:37:12.917909,-81,9c:1c:12:c1:51:80
13:37:12.918249,-81,9c:1c:12:c1:51:81
13:37:12.918559,-81,9c:1c:12:c1:51:82
13:37:12.918896,-81,9c:1c:12:c1:51:83
13:37:12.919095,-80,9c:1c:12:c1:51:84
13:37:12.919431,-81,9c:1c:12:c1:51:85
13:37:12.934307,-82,2c:41:38:f3:49:d4
13:37:12.960337,-81,2c:41:38:f3:49:d5
13:37:13.020778,-81,9c:1c:12:c1:51:80
13:37:13.021110,-80,9c:1c:12:c1:51:81
13:37:13.021308,-81,9c:1c:12:c1:51:82
13:37:13.021513,-81,9c:1c:12:c1:51:83
13:37:13.021708,-80,9c:1c:12:c1:51:84
13:37:13.021936,-81,9c:1c:12:c1:51:85
13:37:13.088398,-82,2c:41:38:f3:49:d0
13:37:13.113617,-81,2c:41:38:f3:49:d2
13:37:13.122740,-81,9c:1c:12:c1:51:80
13:37:13.123077,-80,9c:1c:12:c1:51:81
13:37:13.123420,-81,9c:1c:12:c1:51:82
13:37:13.123624,-80,9c:1c:12:c1:51:83
13:37:13.123850,-82,9c:1c:12:c1:51:84
13:37:13.124172,-81,9c:1c:12:c1:51:85
13:37:13.139064,-82,2c:41:38:f3:49:d4
13:37:13.165137,-81,2c:41:38:f3:49:d5
13:37:13.225558,-81,9c:1c:12:c1:51:80
13:37:13.225889,-82,9c:1c:12:c1:51:81
13:37:13.226091,-81,9c:1c:12:c1:51:82
13:37:13.226287,-81,9c:1c:12:c1:51:83
13:37:13.226516,-82,9c:1c:12:c1:51:84
13:37:13.226719,-81,9c:1c:12:c1:51:85
13:37:13.293123,-83,2c:41:38:f3:49:d0
13:37:13.318770,-82,2c:41:38:f3:49:d2
13:37:13.327464,-81,9c:1c:12:c1:51:80
13:37:13.327864,-82,9c:1c:12:c1:51:81
13:37:13.328176,-81,9c:1c:12:c1:51:82
13:37:13.328375,-82,9c:1c:12:c1:51:83
13:37:13.328572,-82,9c:1c:12:c1:51:84
13:37:13.328912,-81,9c:1c:12:c1:51:85
13:37:13.343912,-83,2c:41:38:f3:49:d4
13:37:13.369963,-84,2c:41:38:f3:49:d5
13:37:13.430373,-82,9c:1c:12:c1:51:80
13:37:13.430706,-82,9c:1c:12:c1:51:81
13:37:13.430903,-81,9c:1c:12:c1:51:82
13:37:13.431101,-83,9c:1c:12:c1:51:83
13:37:13.431329,-83,9c:1c:12:c1:51:84
13:37:13.431530,-82,9c:1c:12:c1:51:85
13:37:13.497420,-81,2c:41:38:f3:49:d0
13:37:13.523555,-82,2c:41:38:f3:49:d2
13:37:13.532265,-81,9c:1c:12:c1:51:80
13:37:13.532711,-82,9c:1c:12:c1:51:81
13:37:13.533035,-81,9c:1c:12:c1:51:82
13:37:13.533373,-82,9c:1c:12:c1:51:83
13:37:13.533575,-83,9c:1c:12:c1:51:84
13:37:13.533799,-82,9c:1c:12:c1:51:85
13:37:13.548693,-84,2c:41:38:f3:49:d4
13:37:13.574514,-82,2c:41:38:f3:49:d5
13:37:13.635150,-83,9c:1c:12:c1:51:80
13:37:13.635483,-83,9c:1c:12:c1:51:81
13:37:13.635682,-82,9c:1c:12:c1:51:82
13:37:13.635880,-82,9c:1c:12:c1:51:83
13:37:13.636076,-82,9c:1c:12:c1:51:84
13:37:13.636273,-83,9c:1c:12:c1:51:85
13:37:13.702747,-82,2c:41:38:f3:49:d0
13:37:13.728124,-81,2c:41:38:f3:49:d2
13:37:13.737111,-82,9c:1c:12:c1:51:80
13:37:13.737445,-84,9c:1c:12:c1:51:81
13:37:13.737851,-82,9c:1c:12:c1:51:82
13:37:13.738165,-83,9c:1c:12:c1:51:83
13:37:13.738362,-82,9c:1c:12:c1:51:84
13:37:13.738560,-83,9c:1c:12:c1:51:85
13:37:13.753504,-82,2c:41:38:f3:49:d4
13:37:13.779595,-82,2c:41:38:f3:49:d5
13:37:13.839933,-81,9c:1c:12:c1:51:80
13:37:13.840269,-81,9c:1c:12:c1:51:81
13:37:13.840468,-82,9c:1c:12:c1:51:82
13:37:13.840665,-81,9c:1c:12:c1:51:83
13:37:13.840860,-81,9c:1c:12:c1:51:84
13:37:13.841057,-80,9c:1c:12:c1:51:85
13:37:13.933235,-83,2c:41:38:f3:49:d2
13:37:13.941862,-81,9c:1c:12:c1:51:80
13:37:13.942226,-80,9c:1c:12:c1:51:81
13:37:13.942542,-80,9c:1c:12:c1:51:82
13:37:13.942923,-80,9c:1c:12:c1:51:83
13:37:13.943235,-81,9c:1c:12:c1:51:84
13:37:13.943434,-80,9c:1c:12:c1:51:85
13:37:13.958260,-82,2c:41:38:f3:49:d4
13:37:13.984077,-82,2c:41:38:f3:49:d5
13:37:14.304937,-82,c8:4c:75:40:90:5b
13:37:14.338634,-83,98:fc:11:6b:d6:fc
13:37:14.401738,-82,c8:4c:75:40:90:5b
13:37:14.441850,-83,98:fc:11:6b:d6:fc
13:37:14.500504,-83,c8:4c:75:40:90:5b
13:37:14.544245,-83,98:fc:11:6b:d6:fc
13:37:14.612193,-82,c8:4c:75:40:90:5b
13:37:14.646387,-83,98:fc:11:6b:d6:fc
13:37:14.711847,-82,c8:4c:75:40:90:5b
13:37:14.749051,-83,98:fc:11:6b:d6:fc
13:37:14.829721,-82,c8:4c:75:40:90:5b
13:37:14.857281,-81,98:fc:11:6b:d6:fc
13:37:14.920471,-82,c8:4c:75:40:90:5b
13:37:14.953885,-84,98:fc:11:6b:d6:fc
13:37:15.022731,-82,c8:4c:75:40:90:5b
13:37:15.055989,-83,98:fc:11:6b:d6:fc
13:37:15.120133,-83,c8:4c:75:40:90:5b
13:37:15.158429,-84,98:fc:11:6b:d6:fc
13:37:15.228152,-83,c8:4c:75:40:90:5b
13:37:15.261061,-83,98:fc:11:6b:d6:fc
13:37:15.326120,-83,c8:4c:75:40:90:5b
13:37:15.363457,-83,98:fc:11:6b:d6:fc
13:37:15.421628,-82,c8:4c:75:40:90:5b
13:37:15.465621,-83,98:fc:11:6b:d6:fc
13:37:15.567986,-82,98:fc:11:6b:d6:fc
13:37:15.620397,-81,c8:4c:75:40:90:5b
13:37:15.670447,-83,98:fc:11:6b:d6:fc
13:37:15.743496,-82,c8:4c:75:40:90:5b
13:37:15.772880,-84,98:fc:11:6b:d6:fc
13:37:15.875219,-83,98:fc:11:6b:d6:fc
13:37:15.880367,-82,c8:4c:75:40:90:5b
13:37:15.940629,-83,c8:4c:75:40:90:5b
13:37:15.977714,-82,98:fc:11:6b:d6:fc
13:37:16.036015,-82,c8:4c:75:40:90:5b
13:37:16.080028,-82,98:fc:11:6b:d6:fc
13:37:16.148739,-82,c8:4c:75:40:90:5b
13:37:16.182721,-84,98:fc:11:6b:d6:fc
13:37:18.754391,-82,9c:1c:12:c1:51:80
13:37:18.754522,-83,9c:1c:12:c1:51:81
13:37:18.754807,-83,9c:1c:12:c1:51:82
13:37:18.755178,-83,9c:1c:12:c1:51:83
13:37:18.755441,-83,9c:1c:12:c1:51:84
13:37:18.755773,-82,9c:1c:12:c1:51:85
13:37:18.756804,-82,9c:1c:12:c1:51:84
13:37:18.821967,-79,2c:41:38:f3:49:d0
13:37:18.847388,-79,2c:41:38:f3:49:d2
13:37:18.856593,-82,9c:1c:12:c1:51:80
13:37:18.856861,-81,9c:1c:12:c1:51:81
13:37:18.857178,-83,9c:1c:12:c1:51:82
13:37:18.857538,-82,9c:1c:12:c1:51:83
13:37:18.857837,-82,9c:1c:12:c1:51:84
13:37:18.858169,-83,9c:1c:12:c1:51:85
13:37:18.873528,-79,2c:41:38:f3:49:d4
13:37:18.899094,-79,2c:41:38:f3:49:d5
13:37:18.959904,-82,9c:1c:12:c1:51:80
13:37:18.960268,-82,9c:1c:12:c1:51:81
13:37:18.960473,-82,9c:1c:12:c1:51:82
13:37:18.960672,-83,9c:1c:12:c1:51:83
13:37:18.960875,-81,9c:1c:12:c1:51:84
13:37:18.961072,-82,9c:1c:12:c1:51:85
13:37:19.027517,-81,2c:41:38:f3:49:d0
13:37:19.052693,-79,2c:41:38:f3:49:d2
13:37:19.061885,-82,9c:1c:12:c1:51:80
13:37:19.062249,-82,9c:1c:12:c1:51:81
13:37:19.062565,-81,9c:1c:12:c1:51:82
13:37:19.062960,-81,9c:1c:12:c1:51:83
13:37:19.063159,-82,9c:1c:12:c1:51:84
13:37:19.063357,-81,9c:1c:12:c1:51:85
13:37:19.065350,-81,9c:1c:12:c1:51:84
13:37:19.078309,-79,2c:41:38:f3:49:d4
13:37:19.164703,-81,9c:1c:12:c1:51:80
13:37:19.165038,-82,9c:1c:12:c1:51:81
13:37:19.165238,-81,9c:1c:12:c1:51:82
13:37:19.165434,-83,9c:1c:12:c1:51:83
13:37:19.165629,-83,9c:1c:12:c1:51:84
13:37:19.165826,-82,9c:1c:12:c1:51:85
13:37:19.232319,-79,2c:41:38:f3:49:d0
13:37:19.257998,-80,2c:41:38:f3:49:d2
13:37:19.266618,-81,9c:1c:12:c1:51:80
13:37:19.266983,-82,9c:1c:12:c1:51:81
13:37:19.267328,-81,9c:1c:12:c1:51:82
13:37:19.267752,-82,9c:1c:12:c1:51:83
13:37:19.268080,-82,9c:1c:12:c1:51:84
13:37:19.268418,-82,9c:1c:12:c1:51:85
13:37:19.283155,-79,2c:41:38:f3:49:d4
13:37:19.309081,-80,2c:41:38:f3:49:d5
13:37:19.369533,-81,9c:1c:12:c1:51:80
13:37:19.369901,-82,9c:1c:12:c1:51:81
13:37:19.370112,-82,9c:1c:12:c1:51:82
13:37:19.370313,-81,9c:1c:12:c1:51:83
13:37:19.370539,-82,9c:1c:12:c1:51:84
13:37:19.370739,-81,9c:1c:12:c1:51:85
13:37:19.437131,-80,2c:41:38:f3:49:d0
13:37:19.462299,-80,2c:41:38:f3:49:d2
13:37:19.471444,-81,9c:1c:12:c1:51:80
13:37:19.471808,-82,9c:1c:12:c1:51:81
13:37:19.472127,-81,9c:1c:12:c1:51:82
13:37:19.472437,-81,9c:1c:12:c1:51:83
13:37:19.472836,-81,9c:1c:12:c1:51:85
13:37:19.487957,-79,2c:41:38:f3:49:d4
13:37:19.513689,-80,2c:41:38:f3:49:d5
13:37:19.573841,-81,9c:1c:12:c1:51:80
13:37:19.574207,-82,9c:1c:12:c1:51:81
13:37:19.574553,-81,9c:1c:12:c1:51:82
13:37:19.574867,-81,9c:1c:12:c1:51:83
13:37:19.575203,-81,9c:1c:12:c1:51:84
13:37:19.575405,-82,9c:1c:12:c1:51:85
13:37:19.641905,-80,2c:41:38:f3:49:d0
13:37:19.667056,-81,2c:41:38:f3:49:d2
13:37:19.676291,-81,9c:1c:12:c1:51:80
13:37:19.676667,-81,9c:1c:12:c1:51:81
13:37:19.676869,-81,9c:1c:12:c1:51:82
13:37:19.677096,-82,9c:1c:12:c1:51:83
13:37:19.677413,-81,9c:1c:12:c1:51:84
13:37:19.677763,-82,9c:1c:12:c1:51:85
13:37:19.692750,-81,2c:41:38:f3:49:d4
13:37:19.718820,-81,2c:41:38:f3:49:d5
13:37:19.778598,-81,9c:1c:12:c1:51:80
13:37:19.778962,-82,9c:1c:12:c1:51:81
13:37:19.779303,-81,9c:1c:12:c1:51:82
13:37:19.779651,-82,9c:1c:12:c1:51:83
13:37:19.779961,-81,9c:1c:12:c1:51:84
13:37:19.780307,-81,9c:1c:12:c1:51:85
13:37:19.846704,-80,2c:41:38:f3:49:d0
13:37:19.871861,-80,2c:41:38:f3:49:d2
13:37:19.881063,-81,9c:1c:12:c1:51:80
13:37:19.881401,-81,9c:1c:12:c1:51:81
13:37:19.881744,-82,9c:1c:12:c1:51:82
13:37:19.882060,-81,9c:1c:12:c1:51:83
13:37:19.882411,-81,9c:1c:12:c1:51:84
13:37:19.882846,-81,9c:1c:12:c1:51:85
13:37:19.897507,-81,2c:41:38:f3:49:d4
13:37:19.923554,-80,2c:41:38:f3:49:d5
13:37:19.983698,-81,9c:1c:12:c1:51:80
13:37:19.984064,-81,9c:1c:12:c1:51:81
13:37:19.984268,-81,9c:1c:12:c1:51:82
13:37:19.984469,-82,9c:1c:12:c1:51:83
13:37:19.984667,-81,9c:1c:12:c1:51:84
13:37:19.984864,-81,9c:1c:12:c1:51:85
13:37:20.050991,-80,2c:41:38:f3:49:d0
13:37:20.076705,-80,2c:41:38:f3:49:d2
13:37:20.085887,-81,9c:1c:12:c1:51:80
13:37:20.086255,-81,9c:1c:12:c1:51:81
13:37:20.086582,-82,9c:1c:12:c1:51:82
13:37:20.086921,-81,9c:1c:12:c1:51:83
13:37:20.087123,-81,9c:1c:12:c1:51:84
13:37:20.087322,-81,9c:1c:12:c1:51:85
13:37:20.102302,-80,2c:41:38:f3:49:d4
13:37:20.128159,-80,2c:41:38:f3:49:d5
13:37:20.188554,-80,9c:1c:12:c1:51:80
13:37:20.188896,-81,9c:1c:12:c1:51:81
13:37:20.189097,-81,9c:1c:12:c1:51:82
13:37:20.189294,-80,9c:1c:12:c1:51:83
13:37:20.189490,-81,9c:1c:12:c1:51:84
13:37:20.189686,-81,9c:1c:12:c1:51:85
13:37:20.255867,-80,2c:41:38:f3:49:d0
13:37:20.281751,-80,2c:41:38:f3:49:d2
13:37:20.290683,-81,9c:1c:12:c1:51:80
13:37:20.291047,-80,9c:1c:12:c1:51:81
13:37:20.291391,-81,9c:1c:12:c1:51:82
13:37:20.291733,-81,9c:1c:12:c1:51:83
13:37:20.291932,-81,9c:1c:12:c1:51:84
13:37:20.292130,-81,9c:1c:12:c1:51:85
13:37:20.307065,-81,2c:41:38:f3:49:d4
13:37:20.332890,-81,2c:41:38:f3:49:d5
13:37:20.393099,-81,9c:1c:12:c1:51:80
13:37:20.393465,-80,9c:1c:12:c1:51:81
13:37:20.393670,-81,9c:1c:12:c1:51:82
13:37:20.393869,-82,9c:1c:12:c1:51:83
13:37:20.394210,-81,9c:1c:12:c1:51:84
13:37:20.394552,-81,9c:1c:12:c1:51:85
13:37:20.460796,-80,2c:41:38:f3:49:d0
13:37:20.486457,-79,2c:41:38:f3:49:d2
13:37:20.495467,-81,9c:1c:12:c1:51:80
13:37:20.495802,-80,9c:1c:12:c1:51:81
13:37:20.496111,-81,9c:1c:12:c1:51:82
13:37:20.496450,-80,9c:1c:12:c1:51:84
13:37:20.496765,-81,9c:1c:12:c1:51:85
13:37:20.511900,-80,2c:41:38:f3:49:d4
13:37:20.537750,-80,2c:41:38:f3:49:d5
13:37:20.598401,-81,9c:1c:12:c1:51:80
13:37:20.598771,-81,9c:1c:12:c1:51:81
13:37:20.598975,-81,9c:1c:12:c1:51:82
13:37:20.599174,-80,9c:1c:12:c1:51:83
13:37:20.599379,-81,9c:1c:12:c1:51:84
13:37:20.599573,-81,9c:1c:12:c1:51:85
13:37:20.599759,-81,9c:1c:12:c1:51:84
13:37:20.665908,-81,2c:41:38:f3:49:d0
13:37:20.950793,-79,c8:4c:75:40:90:5b
13:37:20.994755,-85,98:fc:11:6b:d6:fc
13:37:21.063737,-79,c8:4c:75:40:90:5b
13:37:21.097312,-83,98:fc:11:6b:d6:fc
13:37:21.160066,-80,c8:4c:75:40:90:5b
13:37:21.200038,-85,98:fc:11:6b:d6:fc
13:37:21.265028,-80,c8:4c:75:40:90:5b
13:37:21.302757,-86,98:fc:11:6b:d6:fc
13:37:21.405107,-85,98:fc:11:6b:d6:fc
13:37:21.467276,-79,c8:4c:75:40:90:5b
13:37:21.507450,-85,98:fc:11:6b:d6:fc
13:37:21.609886,-85,98:fc:11:6b:d6:fc
13:37:21.612396,-77,c8:4c:75:40:90:5b
13:37:21.682542,-80,c8:4c:75:40:90:5b
13:37:21.711992,-84,98:fc:11:6b:d6:fc
13:37:21.774482,-79,c8:4c:75:40:90:5b
13:37:21.814658,-85,98:fc:11:6b:d6:fc
13:37:21.890138,-80,c8:4c:75:40:90:5b
13:37:21.916831,-85,98:fc:11:6b:d6:fc
13:37:21.985668,-80,c8:4c:75:40:90:5b
13:37:22.019272,-89,98:fc:11:6b:d6:fc
13:37:22.121665,-86,98:fc:11:6b:d6:fc
13:37:22.124419,-77,c8:4c:75:40:90:5b
13:37:22.186976,-80,c8:4c:75:40:90:5b
13:37:22.224073,-84,98:fc:11:6b:d6:fc
13:37:22.293198,-80,c8:4c:75:40:90:5b
13:37:22.326539,-86,98:fc:11:6b:d6:fc
13:37:22.388828,-80,c8:4c:75:40:90:5b
13:37:22.428938,-85,98:fc:11:6b:d6:fc
13:37:22.520601,-78,c8:4c:75:40:90:5b
13:37:22.537428,-84,98:fc:11:6b:d6:fc
13:37:22.587491,-79,c8:4c:75:40:90:5b
13:37:22.633637,-85,98:fc:11:6b:d6:fc
13:37:22.697925,-79,c8:4c:75:40:90:5b
13:37:22.736052,-87,98:fc:11:6b:d6:fc
13:37:22.800795,-80,c8:4c:75:40:90:5b
13:37:22.838445,-84,98:fc:11:6b:d6:fc
