13:25:14.995207,-91,9c:1c:12:c1:51:80
13:25:14.996193,-92,9c:1c:12:c1:51:84
13:25:14.996626,-94,9c:1c:12:c1:51:84
13:25:15.098658,-93,9c:1c:12:c1:51:81
13:25:15.200976,-91,9c:1c:12:c1:51:81
13:25:15.201312,-93,9c:1c:12:c1:51:85
13:25:15.302776,-90,9c:1c:12:c1:51:81
13:25:15.303108,-92,9c:1c:12:c1:51:82
13:25:15.407060,-89,9c:1c:12:c1:51:85
13:25:15.407387,-91,9c:1c:12:c1:51:84
13:25:15.507806,-92,9c:1c:12:c1:51:80
13:25:15.509320,-92,9c:1c:12:c1:51:84
13:25:15.610266,-91,9c:1c:12:c1:51:80
13:25:15.610684,-91,9c:1c:12:c1:51:82
13:25:15.712594,-93,9c:1c:12:c1:51:80
13:25:15.815747,-89,9c:1c:12:c1:51:82
13:25:15.816093,-92,9c:1c:12:c1:51:85
13:25:15.917470,-93,9c:1c:12:c1:51:81
13:25:16.020115,-93,9c:1c:12:c1:51:81
13:25:16.020448,-92,9c:1c:12:c1:51:83
13:25:16.020738,-92,9c:1c:12:c1:51:84
13:25:16.123478,-91,9c:1c:12:c1:51:84
13:25:16.123812,-92,9c:1c:12:c1:51:85
13:25:16.224595,-92,9c:1c:12:c1:51:80
13:25:16.224963,-93,9c:1c:12:c1:51:81
13:25:16.225167,-91,9c:1c:12:c1:51:82
13:25:16.225366,-91,9c:1c:12:c1:51:83
13:25:16.510920,-51,98:fc:11:6b:d6:fc
13:25:16.589960,-62,c8:4c:75:40:90:5b
13:25:16.613264,-53,98:fc:11:6b:d6:fc
13:25:16.686813,-63,c8:4c:75:40:90:5b
13:25:16.715847,-52,98:fc:11:6b:d6:fc
13:25:16.785440,-62,c8:4c:75:40:90:5b
13:25:16.818656,-53,98:fc:11:6b:d6:fc
13:25:16.904528,-63,c8:4c:75:40:90:5b
13:25:16.921013,-52,98:fc:11:6b:d6:fc
13:25:16.994410,-62,c8:4c:75:40:90:5b
13:25:17.023484,-52,98:fc:11:6b:d6:fc
13:25:17.092716,-62,c8:4c:75:40:90:5b
13:25:17.125933,-54,98:fc:11:6b:d6:fc
13:25:17.209115,-61,c8:4c:75:40:90:5b
13:25:17.228237,-52,98:fc:11:6b:d6:fc
13:25:17.301734,-61,c8:4c:75:40:90:5b
13:25:17.330735,-54,98:fc:11:6b:d6:fc
13:25:17.399931,-61,c8:4c:75:40:90:5b
13:25:17.433369,-54,98:fc:11:6b:d6:fc
13:25:17.512102,-61,c8:4c:75:40:90:5b
13:25:17.535473,-55,98:fc:11:6b:d6:fc
13:25:17.609374,-60,c8:4c:75:40:90:5b
13:25:17.638171,-55,98:fc:11:6b:d6:fc
13:25:17.707056,-61,c8:4c:75:40:90:5b
13:25:17.740232,-54,98:fc:11:6b:d6:fc
13:25:17.820546,-61,c8:4c:75:40:90:5b
13:25:17.842675,-52,98:fc:11:6b:d6:fc
13:25:17.918461,-60,c8:4c:75:40:90:5b
13:25:17.945044,-54,98:fc:11:6b:d6:fc
13:25:18.014316,-60,c8:4c:75:40:90:5b
13:25:18.047484,-54,98:fc:11:6b:d6:fc
13:25:18.126422,-60,c8:4c:75:40:90:5b
13:25:18.149838,-54,98:fc:11:6b:d6:fc
13:25:18.223208,-60,c8:4c:75:40:90:5b
13:25:18.252541,-54,98:fc:11:6b:d6:fc
13:25:18.321363,-60,c8:4c:75:40:90:5b
13:25:18.354681,-53,98:fc:11:6b:d6:fc
13:25:18.433525,-61,c8:4c:75:40:90:5b
13:25:18.457118,-53,98:fc:11:6b:d6:fc
13:25:18.920174,-89,c4:6e:1f:bd:4d:ec
13:25:21.037058,-91,9c:1c:12:c1:51:81
13:25:21.038068,-91,9c:1c:12:c1:51:85
13:25:21.139516,-92,9c:1c:12:c1:51:81
13:25:21.139939,-91,9c:1c:12:c1:51:83
13:25:21.242185,-92,9c:1c:12:c1:51:80
13:25:21.242528,-91,9c:1c:12:c1:51:81
13:25:21.242838,-90,9c:1c:12:c1:51:84
13:25:21.344919,-91,9c:1c:12:c1:51:81
13:25:21.345256,-92,9c:1c:12:c1:51:82
13:25:21.345457,-90,9c:1c:12:c1:51:83
13:25:21.345719,-90,9c:1c:12:c1:51:84
13:25:21.346034,-90,9c:1c:12:c1:51:84
13:25:21.448684,-91,9c:1c:12:c1:51:85
13:25:21.449010,-92,9c:1c:12:c1:51:84
13:25:21.549423,-89,9c:1c:12:c1:51:80
13:25:21.549794,-90,9c:1c:12:c1:51:81
13:25:21.549996,-91,9c:1c:12:c1:51:82
13:25:21.550197,-90,9c:1c:12:c1:51:83
13:25:21.550394,-91,9c:1c:12:c1:51:84
13:25:21.550723,-90,9c:1c:12:c1:51:85
13:25:21.651846,-91,9c:1c:12:c1:51:80
13:25:21.652183,-93,9c:1c:12:c1:51:83
13:25:21.754338,-91,9c:1c:12:c1:51:82
13:25:21.755193,-92,9c:1c:12:c1:51:85
13:25:21.857209,-92,9c:1c:12:c1:51:82
13:25:21.857545,-95,9c:1c:12:c1:51:83
13:25:21.857743,-94,9c:1c:12:c1:51:84
13:25:21.958992,-92,9c:1c:12:c1:51:80
13:25:21.959328,-90,9c:1c:12:c1:51:82
13:25:21.959528,-92,9c:1c:12:c1:51:83
13:25:22.675883,-91,9c:1c:12:c1:51:80
13:25:22.676250,-92,9c:1c:12:c1:51:84
13:25:22.880942,-92,9c:1c:12:c1:51:81
13:25:23.237990,-61,c8:4c:75:40:90:5b
13:25:23.270734,-54,98:fc:11:6b:d6:fc
13:25:23.348327,-62,c8:4c:75:40:90:5b
13:25:23.372045,-55,98:fc:11:6b:d6:fc
13:25:23.445400,-60,c8:4c:75:40:90:5b
13:25:23.474632,-55,98:fc:11:6b:d6:fc
13:25:23.543853,-61,c8:4c:75:40:90:5b
13:25:23.577081,-53,98:fc:11:6b:d6:fc
13:25:23.660189,-61,c8:4c:75:40:90:5b
13:25:23.679478,-54,98:fc:11:6b:d6:fc
13:25:23.752758,-61,c8:4c:75:40:90:5b
13:25:23.781958,-55,98:fc:11:6b:d6:fc
13:25:23.851043,-61,c8:4c:75:40:90:5b
13:25:23.884283,-52,98:fc:11:6b:d6:fc
13:25:23.962466,-61,c8:4c:75:40:90:5b
13:25:23.986717,-53,98:fc:11:6b:d6:fc
13:25:24.059873,-61,c8:4c:75:40:90:5b
13:25:24.089088,-54,98:fc:11:6b:d6:fc
13:25:24.158224,-61,c8:4c:75:40:90:5b
13:25:24.191473,-54,98:fc:11:6b:d6:fc
13:25:24.270714,-61,c8:4c:75:40:90:5b
13:25:24.293921,-52,98:fc:11:6b:d6:fc
13:25:24.368640,-62,c8:4c:75:40:90:5b
13:25:24.396378,-53,98:fc:11:6b:d6:fc
13:25:24.465406,-62,c8:4c:75:40:90:5b
13:25:24.498685,-53,98:fc:11:6b:d6:fc
13:25:24.577640,-61,c8:4c:75:40:90:5b
13:25:24.601115,-53,98:fc:11:6b:d6:fc
13:25:24.676367,-62,c8:4c:75:40:90:5b
13:25:24.703482,-53,98:fc:11:6b:d6:fc
13:25:24.772572,-62,c8:4c:75:40:90:5b
13:25:24.805935,-53,98:fc:11:6b:d6:fc
13:25:24.885395,-62,c8:4c:75:40:90:5b
13:25:24.908312,-52,98:fc:11:6b:d6:fc
13:25:24.981441,-61,c8:4c:75:40:90:5b
13:25:25.010726,-53,98:fc:11:6b:d6:fc
13:25:25.079815,-62,c8:4c:75:40:90:5b
13:25:25.113470,-53,98:fc:11:6b:d6:fc
13:25:25.473800,-90,c4:6e:1f:bd:4d:ec
13:25:28.000891,-92,9c:1c:12:c1:51:80
13:25:28.102981,-91,9c:1c:12:c1:51:80
13:25:28.103317,-91,9c:1c:12:c1:51:84
13:25:28.410183,-92,9c:1c:12:c1:51:80
13:25:28.614978,-90,9c:1c:12:c1:51:80
13:25:28.615346,-93,9c:1c:12:c1:51:81
13:25:28.615552,-91,9c:1c:12:c1:51:82
13:25:28.717367,-92,9c:1c:12:c1:51:80
13:25:28.717701,-90,9c:1c:12:c1:51:81
13:25:28.717900,-94,9c:1c:12:c1:51:82
13:25:28.718098,-93,9c:1c:12:c1:51:83
13:25:28.718294,-93,9c:1c:12:c1:51:84
13:25:28.819780,-91,9c:1c:12:c1:51:80
13:25:28.820147,-90,9c:1c:12:c1:51:82
13:25:28.820462,-90,9c:1c:12:c1:51:84
13:25:28.820841,-92,9c:1c:12:c1:51:85
13:25:28.821032,-90,9c:1c:12:c1:51:84
13:25:28.923545,-91,9c:1c:12:c1:51:84
13:25:29.024586,-93,9c:1c:12:c1:51:80
13:25:29.024923,-91,9c:1c:12:c1:51:82
13:25:29.127003,-93,9c:1c:12:c1:51:80
13:25:29.127342,-91,9c:1c:12:c1:51:81
13:25:29.127542,-90,9c:1c:12:c1:51:82
13:25:29.127740,-92,9c:1c:12:c1:51:83
13:25:29.128040,-90,9c:1c:12:c1:51:84
13:25:29.230058,-92,9c:1c:12:c1:51:82
13:25:29.230427,-91,9c:1c:12:c1:51:83
13:25:29.230714,-95,9c:1c:12:c1:51:85
13:25:29.230911,-90,9c:1c:12:c1:51:84
13:25:29.332803,-91,9c:1c:12:c1:51:83
13:25:29.333141,-95,9c:1c:12:c1:51:84
13:25:29.434157,-92,9c:1c:12:c1:51:80
13:25:29.536868,-94,9c:1c:12:c1:51:81
13:25:29.896139,-63,c8:4c:75:40:90:5b
13:25:29.925358,-52,98:fc:11:6b:d6:fc
13:25:29.994553,-64,c8:4c:75:40:90:5b
13:25:30.028107,-52,98:fc:11:6b:d6:fc
13:25:30.107192,-63,c8:4c:75:40:90:5b
13:25:30.130811,-52,98:fc:11:6b:d6:fc
13:25:30.203911,-62,c8:4c:75:40:90:5b
13:25:30.233206,-53,98:fc:11:6b:d6:fc
13:25:30.302214,-61,c8:4c:75:40:90:5b
13:25:30.335552,-52,98:fc:11:6b:d6:fc
13:25:30.414208,-61,c8:4c:75:40:90:5b
13:25:30.437924,-51,98:fc:11:6b:d6:fc
13:25:30.511048,-62,c8:4c:75:40:90:5b
13:25:30.540328,-52,98:fc:11:6b:d6:fc
13:25:30.609368,-62,c8:4c:75:40:90:5b
13:25:30.642779,-53,98:fc:11:6b:d6:fc
13:25:30.725873,-61,c8:4c:75:40:90:5b
13:25:30.745172,-51,98:fc:11:6b:d6:fc
13:25:30.818309,-63,c8:4c:75:40:90:5b
13:25:30.847880,-52,98:fc:11:6b:d6:fc
13:25:30.916801,-61,c8:4c:75:40:90:5b
13:25:30.949974,-51,98:fc:11:6b:d6:fc
13:25:31.028595,-61,c8:4c:75:40:90:5b
13:25:31.052411,-54,98:fc:11:6b:d6:fc
13:25:31.125451,-61,c8:4c:75:40:90:5b
13:25:31.154734,-52,98:fc:11:6b:d6:fc
13:25:31.223759,-60,c8:4c:75:40:90:5b
13:25:31.257537,-52,98:fc:11:6b:d6:fc
13:25:31.336354,-61,c8:4c:75:40:90:5b
13:25:31.359534,-53,98:fc:11:6b:d6:fc
13:25:31.432696,-61,c8:4c:75:40:90:5b
13:25:31.462096,-52,98:fc:11:6b:d6:fc
13:25:31.530944,-60,c8:4c:75:40:90:5b
13:25:31.564375,-53,98:fc:11:6b:d6:fc
13:25:31.644345,-62,c8:4c:75:40:90:5b
13:25:31.666822,-52,98:fc:11:6b:d6:fc
13:25:31.739880,-63,c8:4c:75:40:90:5b
13:25:31.769136,-52,98:fc:11:6b:d6:fc
13:25:34.451508,-90,9c:1c:12:c1:51:80
13:25:34.451852,-91,9c:1c:12:c1:51:81
13:25:34.452050,-91,9c:1c:12:c1:51:82
13:25:34.452243,-90,9c:1c:12:c1:51:83
13:25:34.452435,-91,9c:1c:12:c1:51:84
13:25:34.452738,-90,9c:1c:12:c1:51:85
13:25:34.554143,-89,9c:1c:12:c1:51:80
13:25:34.554478,-92,9c:1c:12:c1:51:82
13:25:34.554679,-91,9c:1c:12:c1:51:83
13:25:34.554875,-91,9c:1c:12:c1:51:84
13:25:34.555216,-91,9c:1c:12:c1:51:85
13:25:34.656792,-92,9c:1c:12:c1:51:81
13:25:34.657136,-91,9c:1c:12:c1:51:82
13:25:34.657334,-92,9c:1c:12:c1:51:83
13:25:34.657530,-90,9c:1c:12:c1:51:84
13:25:34.657727,-91,9c:1c:12:c1:51:85
13:25:34.657914,-92,9c:1c:12:c1:51:84
13:25:34.758996,-90,9c:1c:12:c1:51:80
13:25:34.759365,-90,9c:1c:12:c1:51:81
13:25:34.759569,-92,9c:1c:12:c1:51:82
13:25:34.759874,-91,9c:1c:12:c1:51:84
13:25:34.861437,-90,9c:1c:12:c1:51:80
13:25:34.861779,-89,9c:1c:12:c1:51:81
13:25:34.862010,-90,9c:1c:12:c1:51:82
13:25:34.862238,-90,9c:1c:12:c1:51:83
13:25:34.862439,-91,9c:1c:12:c1:51:85
13:25:34.963763,-90,9c:1c:12:c1:51:80
13:25:34.964132,-89,9c:1c:12:c1:51:81
13:25:34.964336,-91,9c:1c:12:c1:51:82
13:25:34.964536,-91,9c:1c:12:c1:51:83
13:25:34.964731,-90,9c:1c:12:c1:51:84
13:25:34.964927,-90,9c:1c:12:c1:51:85
13:25:35.066249,-90,9c:1c:12:c1:51:80
13:25:35.066585,-88,9c:1c:12:c1:51:81
13:25:35.066784,-91,9c:1c:12:c1:51:82
13:25:35.066980,-91,9c:1c:12:c1:51:83
13:25:35.067822,-91,9c:1c:12:c1:51:84
13:25:35.168559,-93,9c:1c:12:c1:51:80
13:25:35.168924,-93,9c:1c:12:c1:51:84
13:25:35.169267,-89,9c:1c:12:c1:51:85
13:25:35.270996,-92,9c:1c:12:c1:51:80
13:25:35.272030,-89,9c:1c:12:c1:51:85
13:25:35.373339,-92,9c:1c:12:c1:51:80
13:25:35.373703,-91,9c:1c:12:c1:51:81
13:25:35.373905,-90,9c:1c:12:c1:51:82
13:25:35.374101,-90,9c:1c:12:c1:51:83
13:25:35.374298,-91,9c:1c:12:c1:51:84
13:25:35.374524,-93,9c:1c:12:c1:51:85
13:25:35.475848,-90,9c:1c:12:c1:51:80
13:25:35.476182,-90,9c:1c:12:c1:51:81
13:25:35.476389,-91,9c:1c:12:c1:51:82
13:25:35.476586,-89,9c:1c:12:c1:51:83
13:25:35.476783,-90,9c:1c:12:c1:51:84
13:25:35.476980,-91,9c:1c:12:c1:51:85
13:25:35.477206,-91,9c:1c:12:c1:51:84
13:25:35.579184,-89,9c:1c:12:c1:51:83
13:25:35.579519,-91,9c:1c:12:c1:51:85
13:25:35.579711,-90,9c:1c:12:c1:51:84
13:25:35.680082,-90,9c:1c:12:c1:51:80
13:25:35.680414,-92,9c:1c:12:c1:51:81
13:25:35.680815,-91,9c:1c:12:c1:51:82
13:25:35.681129,-91,9c:1c:12:c1:51:83
13:25:35.782929,-90,9c:1c:12:c1:51:80
13:25:35.783293,-90,9c:1c:12:c1:51:82
13:25:35.783494,-89,9c:1c:12:c1:51:83
13:25:35.783691,-91,9c:1c:12:c1:51:84
13:25:35.783889,-90,9c:1c:12:c1:51:85
13:25:35.885329,-91,9c:1c:12:c1:51:80
13:25:35.885760,-89,9c:1c:12:c1:51:81
13:25:35.885968,-90,9c:1c:12:c1:51:82
13:25:35.886168,-90,9c:1c:12:c1:51:83
13:25:35.886365,-90,9c:1c:12:c1:51:84
13:25:35.886563,-90,9c:1c:12:c1:51:85
13:25:35.987739,-90,9c:1c:12:c1:51:80
13:25:35.988102,-90,9c:1c:12:c1:51:81
13:25:35.988305,-91,9c:1c:12:c1:51:82
13:25:35.988503,-89,9c:1c:12:c1:51:83
13:25:35.988700,-90,9c:1c:12:c1:51:85
13:25:36.090464,-90,9c:1c:12:c1:51:81
13:25:36.090877,-91,9c:1c:12:c1:51:82
13:25:36.192891,-91,9c:1c:12:c1:51:81
13:25:36.193256,-91,9c:1c:12:c1:51:82
13:25:36.193457,-92,9c:1c:12:c1:51:83
13:25:36.193685,-90,9c:1c:12:c1:51:84
13:25:36.193886,-90,9c:1c:12:c1:51:85
13:25:36.194084,-92,9c:1c:12:c1:51:84
13:25:36.558372,-64,c8:4c:75:40:90:5b
13:25:36.581383,-51,98:fc:11:6b:d6:fc
13:25:36.654892,-65,c8:4c:75:40:90:5b
13:25:36.683902,-51,98:fc:11:6b:d6:fc
13:25:36.753707,-64,c8:4c:75:40:90:5b
13:25:36.786666,-50,98:fc:11:6b:d6:fc
13:25:36.865939,-64,c8:4c:75:40:90:5b
13:25:36.889089,-51,98:fc:11:6b:d6:fc
13:25:36.962374,-64,c8:4c:75:40:90:5b
13:25:36.991749,-51,98:fc:11:6b:d6:fc
13:25:37.061005,-64,c8:4c:75:40:90:5b
13:25:37.093880,-50,98:fc:11:6b:d6:fc
13:25:37.173149,-64,c8:4c:75:40:90:5b
13:25:37.196323,-51,98:fc:11:6b:d6:fc
13:25:37.269805,-64,c8:4c:75:40:90:5b
13:25:37.298686,-51,98:fc:11:6b:d6:fc
13:25:37.368412,-65,c8:4c:75:40:90:5b
13:25:37.401119,-50,98:fc:11:6b:d6:fc
13:25:37.480324,-64,c8:4c:75:40:90:5b
13:25:37.503451,-51,98:fc:11:6b:d6:fc
13:25:37.576609,-64,c8:4c:75:40:90:5b
13:25:37.605941,-51,98:fc:11:6b:d6:fc
13:25:37.675248,-64,c8:4c:75:40:90:5b
13:25:37.708279,-50,98:fc:11:6b:d6:fc
13:25:37.788194,-65,c8:4c:75:40:90:5b
13:25:37.810747,-50,98:fc:11:6b:d6:fc
13:25:37.884298,-64,c8:4c:75:40:90:5b
13:25:37.913245,-49,98:fc:11:6b:d6:fc
13:25:37.984632,-64,c8:4c:75:40:90:5b
13:25:38.015515,-49,98:fc:11:6b:d6:fc
13:25:38.094496,-65,c8:4c:75:40:90:5b
13:25:38.117753,-49,98:fc:11:6b:d6:fc
13:25:38.190655,-65,c8:4c:75:40:90:5b
13:25:38.219982,-49,98:fc:11:6b:d6:fc
13:25:38.289207,-65,c8:4c:75:40:90:5b
13:25:38.322696,-50,98:fc:11:6b:d6:fc
13:25:38.402242,-65,c8:4c:75:40:90:5b
13:25:38.425086,-49,98:fc:11:6b:d6:fc
