15:34:18.671111,-79,2c:41:38:f3:49:d0
15:34:18.696782,-79,2c:41:38:f3:49:d2
15:34:18.722363,-79,2c:41:38:f3:49:d4
15:34:18.747990,-79,2c:41:38:f3:49:d5
15:34:18.876102,-79,2c:41:38:f3:49:d0
15:34:18.901647,-80,2c:41:38:f3:49:d2
15:34:18.927354,-79,2c:41:38:f3:49:d4
15:34:18.952913,-80,2c:41:38:f3:49:d5
15:34:19.080836,-80,2c:41:38:f3:49:d0
15:34:19.106454,-80,2c:41:38:f3:49:d2
15:34:19.132093,-79,2c:41:38:f3:49:d4
15:34:19.157673,-80,2c:41:38:f3:49:d5
15:34:19.285732,-80,2c:41:38:f3:49:d0
15:34:19.311790,-80,2c:41:38:f3:49:d2
15:34:19.337349,-81,2c:41:38:f3:49:d4
15:34:19.362963,-81,2c:41:38:f3:49:d5
15:34:19.491205,-80,2c:41:38:f3:49:d0
15:34:19.516545,-81,2c:41:38:f3:49:d2
15:34:19.542430,-80,2c:41:38:f3:49:d4
15:34:19.567797,-80,2c:41:38:f3:49:d5
15:34:19.696009,-80,2c:41:38:f3:49:d0
15:34:19.721398,-79,2c:41:38:f3:49:d2
15:34:19.747283,-79,2c:41:38:f3:49:d4
15:34:19.772564,-80,2c:41:38:f3:49:d5
15:34:19.900834,-78,2c:41:38:f3:49:d0
15:34:19.926160,-79,2c:41:38:f3:49:d2
15:34:19.952058,-79,2c:41:38:f3:49:d4
15:34:19.977353,-79,2c:41:38:f3:49:d5
15:34:20.105613,-79,2c:41:38:f3:49:d0
15:34:20.130934,-79,2c:41:38:f3:49:d2
15:34:20.156851,-79,2c:41:38:f3:49:d4
15:34:20.182167,-80,2c:41:38:f3:49:d5
15:34:20.310637,-79,2c:41:38:f3:49:d0
15:34:20.335770,-79,2c:41:38:f3:49:d2
15:34:20.361174,-77,2c:41:38:f3:49:d4
15:34:20.387230,-78,2c:41:38:f3:49:d5
15:34:20.514932,-78,2c:41:38:f3:49:d0
15:34:20.850909,-92,c8:4c:75:40:90:5b
15:34:20.949417,-94,c8:4c:75:40:90:5b
15:34:21.158975,-93,c8:4c:75:40:90:5b
15:34:21.256859,-93,c8:4c:75:40:90:5b
15:34:21.366965,-95,c8:4c:75:40:90:5b
15:34:21.465753,-91,c8:4c:75:40:90:5b
15:34:21.564071,-93,c8:4c:75:40:90:5b
15:34:21.618811,-95,98:fc:11:6b:d6:fc
15:34:21.674666,-93,c8:4c:75:40:90:5b
15:34:21.720668,-95,98:fc:11:6b:d6:fc
15:34:21.772500,-93,c8:4c:75:40:90:5b
15:34:21.823617,-95,98:fc:11:6b:d6:fc
15:34:21.871491,-93,c8:4c:75:40:90:5b
15:34:21.925452,-93,98:fc:11:6b:d6:fc
15:34:21.981855,-92,c8:4c:75:40:90:5b
15:34:22.274523,-91,c8:4c:75:40:90:5b
15:34:22.279571,-90,c8:4c:75:40:90:5b
15:34:22.386879,-94,c8:4c:75:40:90:5b
15:34:22.437469,-94,98:fc:11:6b:d6:fc
15:34:22.485664,-92,c8:4c:75:40:90:5b
15:34:22.540341,-94,98:fc:11:6b:d6:fc
15:34:22.596883,-92,c8:4c:75:40:90:5b
15:34:22.694277,-91,c8:4c:75:40:90:5b
15:34:23.223672,-95,98:fc:11:6f:26:85
15:34:23.428515,-93,98:fc:11:6f:26:85
15:34:23.530806,-95,98:fc:11:6f:26:85
15:34:23.581311,-82,20:aa:4b:e1:e1:f5
15:34:23.685190,-79,20:aa:4b:e1:e1:f5
15:34:24.555038,-96,98:fc:11:6f:26:85
15:34:24.759606,-93,98:fc:11:6f:26:85
15:34:25.250380,-80,2c:41:38:f3:49:d2
15:34:25.276179,-80,2c:41:38:f3:49:d4
15:34:25.301708,-80,2c:41:38:f3:49:d5
15:34:25.430184,-80,2c:41:38:f3:49:d0
15:34:25.455836,-80,2c:41:38:f3:49:d2
15:34:25.481337,-81,2c:41:38:f3:49:d4
15:34:25.507004,-81,2c:41:38:f3:49:d5
15:34:25.635229,-81,2c:41:38:f3:49:d0
15:34:25.660608,-80,2c:41:38:f3:49:d2
15:34:25.686203,-82,2c:41:38:f3:49:d4
15:34:25.711737,-82,2c:41:38:f3:49:d5
15:34:25.839958,-82,2c:41:38:f3:49:d0
15:34:25.865385,-82,2c:41:38:f3:49:d2
15:34:25.891232,-84,2c:41:38:f3:49:d4
15:34:25.916578,-84,2c:41:38:f3:49:d5
15:34:26.044847,-84,2c:41:38:f3:49:d0
15:34:26.070145,-85,2c:41:38:f3:49:d2
15:34:26.096066,-84,2c:41:38:f3:49:d4
15:34:26.121410,-84,2c:41:38:f3:49:d5
15:34:26.249625,-84,2c:41:38:f3:49:d0
15:34:26.275019,-85,2c:41:38:f3:49:d2
15:34:26.300869,-84,2c:41:38:f3:49:d4
15:34:26.326181,-84,2c:41:38:f3:49:d5
15:34:26.454454,-84,2c:41:38:f3:49:d0
15:34:26.479772,-84,2c:41:38:f3:49:d2
15:34:26.505632,-83,2c:41:38:f3:49:d4
15:34:26.530977,-84,2c:41:38:f3:49:d5
15:34:26.659228,-85,2c:41:38:f3:49:d0
15:34:26.684403,-84,2c:41:38:f3:49:d2
15:34:26.710013,-85,2c:41:38:f3:49:d4
15:34:26.736040,-84,2c:41:38:f3:49:d5
15:34:26.864044,-85,2c:41:38:f3:49:d0
15:34:26.889617,-86,2c:41:38:f3:49:d2
15:34:26.915245,-84,2c:41:38:f3:49:d4
15:34:26.940868,-86,2c:41:38:f3:49:d5
15:34:27.068909,-84,2c:41:38:f3:49:d0
15:34:27.094143,-84,2c:41:38:f3:49:d2
15:34:27.119802,-85,2c:41:38:f3:49:d4
15:34:27.145678,-85,2c:41:38:f3:49:d5
15:34:28.325810,-92,c8:4c:75:40:90:5b
15:34:29.145794,-94,c8:4c:75:40:90:5b
15:34:29.354436,-93,c8:4c:75:40:90:5b
15:34:31.263545,-87,20:aa:4b:e1:e1:f5
15:34:31.983381,-84,2c:41:38:f3:49:d0
15:34:32.009074,-84,2c:41:38:f3:49:d2
15:34:32.034669,-85,2c:41:38:f3:49:d4
15:34:32.060106,-86,2c:41:38:f3:49:d5
15:34:32.188632,-84,2c:41:38:f3:49:d0
15:34:32.214259,-83,2c:41:38:f3:49:d2
15:34:32.240041,-84,2c:41:38:f3:49:d4
15:34:32.265191,-85,2c:41:38:f3:49:d5
15:34:32.418794,-84,2c:41:38:f3:49:d2
15:34:32.444943,-84,2c:41:38:f3:49:d4
15:34:32.470229,-84,2c:41:38:f3:49:d5
15:34:32.598472,-84,2c:41:38:f3:49:d0
15:34:32.623608,-84,2c:41:38:f3:49:d2
15:34:32.649680,-85,2c:41:38:f3:49:d4
15:34:32.674838,-85,2c:41:38:f3:49:d5
15:34:32.828666,-85,2c:41:38:f3:49:d2
15:34:32.854520,-85,2c:41:38:f3:49:d4
15:34:32.879784,-84,2c:41:38:f3:49:d5
15:34:33.008012,-83,2c:41:38:f3:49:d0
15:34:33.033374,-84,2c:41:38:f3:49:d2
15:34:33.058889,-84,2c:41:38:f3:49:d4
15:34:33.212820,-85,2c:41:38:f3:49:d0
15:34:33.238048,-86,2c:41:38:f3:49:d2
15:34:33.264083,-85,2c:41:38:f3:49:d4
15:34:33.289550,-85,2c:41:38:f3:49:d5
15:34:33.417650,-85,2c:41:38:f3:49:d0
15:34:33.442897,-85,2c:41:38:f3:49:d2
15:34:33.468419,-84,2c:41:38:f3:49:d4
15:34:33.494491,-84,2c:41:38:f3:49:d5
15:34:33.648134,-84,2c:41:38:f3:49:d2
15:34:33.673477,-84,2c:41:38:f3:49:d4
15:34:33.698969,-84,2c:41:38:f3:49:d5
15:34:33.827262,-84,2c:41:38:f3:49:d0
15:34:34.773856,-92,c8:4c:75:40:90:5b
15:34:35.498543,-97,c8:4c:75:40:90:5b
15:34:36.392285,-86,20:aa:4b:e1:e1:f5
15:34:36.906043,-85,20:aa:4b:e1:e1:f5
15:34:37.000653,-86,20:aa:4b:e1:e1:f5
15:34:38.536991,-84,2c:41:38:f3:49:d0
15:34:38.562387,-84,2c:41:38:f3:49:d2
15:34:38.587930,-83,2c:41:38:f3:49:d4
15:34:38.613583,-83,2c:41:38:f3:49:d5
15:34:38.742150,-82,2c:41:38:f3:49:d0
15:34:38.767775,-83,2c:41:38:f3:49:d2
15:34:38.793485,-83,2c:41:38:f3:49:d4
15:34:38.818993,-83,2c:41:38:f3:49:d5
15:34:38.947255,-84,2c:41:38:f3:49:d0
15:34:38.972631,-82,2c:41:38:f3:49:d2
15:34:38.998509,-82,2c:41:38:f3:49:d4
15:34:39.023897,-82,2c:41:38:f3:49:d5
15:34:39.152043,-83,2c:41:38:f3:49:d0
15:34:39.177355,-84,2c:41:38:f3:49:d2
15:34:39.202726,-83,2c:41:38:f3:49:d4
15:34:39.228488,-84,2c:41:38:f3:49:d5
15:34:39.356827,-83,2c:41:38:f3:49:d0
15:34:39.382151,-84,2c:41:38:f3:49:d2
15:34:39.408057,-82,2c:41:38:f3:49:d4
15:34:39.433452,-82,2c:41:38:f3:49:d5
15:34:39.561676,-84,2c:41:38:f3:49:d0
15:34:39.587283,-84,2c:41:38:f3:49:d2
15:34:39.612580,-83,2c:41:38:f3:49:d4
15:34:39.638567,-84,2c:41:38:f3:49:d5
15:34:39.766418,-83,2c:41:38:f3:49:d0
15:34:39.792056,-83,2c:41:38:f3:49:d2
15:34:39.817687,-84,2c:41:38:f3:49:d4
15:34:39.843333,-83,2c:41:38:f3:49:d5
15:34:39.971268,-83,2c:41:38:f3:49:d0
15:34:39.996852,-84,2c:41:38:f3:49:d2
15:34:40.022228,-83,2c:41:38:f3:49:d4
15:34:40.048183,-84,2c:41:38:f3:49:d5
15:34:40.201706,-83,2c:41:38:f3:49:d2
15:34:40.227004,-84,2c:41:38:f3:49:d4
15:34:40.252892,-84,2c:41:38:f3:49:d5
15:34:40.380847,-84,2c:41:38:f3:49:d0
15:34:40.406457,-83,2c:41:38:f3:49:d2
15:34:40.431773,-83,2c:41:38:f3:49:d4
15:34:40.818515,-92,c8:4c:75:40:90:5b
15:34:40.917384,-95,c8:4c:75:40:90:5b
15:34:41.224343,-93,c8:4c:75:40:90:5b
15:34:41.642656,-93,c8:4c:75:40:90:5b
15:34:41.949683,-94,c8:4c:75:40:90:5b
15:34:42.355188,-93,c8:4c:75:40:90:5b
15:34:42.453468,-92,c8:4c:75:40:90:5b
