15:28:44.332000,-79,c8:4c:75:40:90:5b
15:28:44.332000,-93,c4:6e:1f:bd:4d:ec
15:28:44.332000,-87,98:fc:11:6b:d6:fc
15:28:44.333000,-69,2c:41:38:f3:cd:d4
15:28:44.333000,-82,00:03:52:ab:82:c3
15:28:44.333000,-84,2c:41:38:f3:cd:d1
15:28:44.333000,-84,2c:41:38:f3:cd:d0
15:28:44.333000,-77,9c:1c:12:c1:01:85
15:28:44.333000,-77,e8:39:35:f4:9a:90
15:28:44.334000,-78,9c:1c:12:c1:01:83
15:28:44.334000,-77,9c:1c:12:c1:01:82
15:28:44.334000,-82,00:03:52:ab:82:c2
15:28:44.334000,-81,00:03:52:ab:82:c6
15:28:44.334000,-81,00:03:52:ab:82:c5
15:28:44.334000,-77,e8:39:35:f4:9a:94
15:28:44.335000,-73,2c:41:38:f3:49:d2
15:28:44.335000,-73,2c:41:38:f3:49:d4
15:28:44.335000,-74,9c:1c:12:c1:01:80
15:28:44.335000,-77,e8:39:35:f4:9a:91
15:28:44.335000,-75,9c:1c:12:c1:01:84
15:28:44.336000,-82,00:03:52:ab:82:c4
15:28:44.336000,-73,2c:41:38:f3:49:d5
15:28:44.336000,-73,2c:41:38:f3:49:d0
15:28:44.336000,-81,00:03:52:ab:82:c0
15:28:44.336000,-66,9c:1c:12:c1:51:85
15:28:44.344000,-75,9c:1c:12:c1:51:81
15:28:44.345000,-75,9c:1c:12:c1:51:82
15:28:44.345000,-75,9c:1c:12:c1:51:83
15:28:44.345000,-74,9c:1c:12:c1:01:81
15:28:44.345000,-76,00:03:52:ad:90:e2
15:28:44.346000,-76,00:03:52:ad:90:e6
15:28:44.346000,-76,00:03:52:ad:90:e4
15:28:44.346000,-76,00:03:52:ad:90:e3
15:28:44.346000,-74,9c:1c:12:c1:51:80
15:28:44.346000,-67,9c:1c:12:c1:51:84
15:28:44.347000,-75,00:03:52:ad:90:e5
15:28:44.347000,-77,20:aa:4b:e1:e1:f5
15:28:44.347000,-85,2c:41:38:f3:cd:d6
15:28:44.347000,-75,00:03:52:ad:90:e0
