15:26:56.276000,-48,c8:4c:75:40:90:5b
15:26:56.277000,-68,c4:6e:1f:bd:4d:ec
15:26:56.277000,-58,98:fc:11:6b:d6:fc
15:27:00.329000,-47,c8:4c:75:40:90:5b
15:27:00.329000,-76,c4:6e:1f:bd:4d:ec
15:27:00.331000,-54,98:fc:11:6b:d6:fc
15:27:00.331000,-86,2c:41:38:ef:3b:f0
15:27:00.331000,-88,2c:41:38:ef:3b:f1
15:27:03.331000,-47,c8:4c:75:40:90:5b
15:27:03.331000,-78,c4:6e:1f:bd:4d:ec
15:27:03.332000,-70,98:fc:11:6b:d6:fc
15:27:03.332000,-86,2c:41:38:ef:3b:f0
15:27:03.333000,-88,2c:41:38:ef:3b:f1
15:27:09.111000,-51,c8:4c:75:40:90:5b
15:27:09.111000,-75,c4:6e:1f:bd:4d:ec
15:27:09.112000,-60,98:fc:11:6b:d6:fc
15:27:09.113000,-86,2c:41:38:ef:3b:f0
15:27:09.113000,-88,2c:41:38:ef:3b:f1
15:27:09.113000,-91,2c:41:38:f3:cd:d6
15:27:09.114000,-91,2c:41:38:f3:cd:d4
15:27:09.114000,-91,00:03:52:ab:82:c3
15:27:09.114000,-91,2c:41:38:f3:cd:d1
