13:34:25.972176,-83,2c:41:38:ef:3b:f6
13:34:26.100203,-83,2c:41:38:ef:3b:f0
13:34:26.125762,-83,2c:41:38:ef:3b:f1
13:34:26.151423,-83,2c:41:38:ef:3b:f4
13:34:26.177012,-84,2c:41:38:ef:3b:f6
13:34:26.305134,-87,2c:41:38:ef:3b:f0
13:34:26.330606,-87,2c:41:38:ef:3b:f1
13:34:26.356277,-86,2c:41:38:ef:3b:f4
13:34:26.381860,-86,2c:41:38:ef:3b:f6
13:34:26.393549,-91,2c:41:38:f3:49:d0
13:34:26.509983,-86,2c:41:38:ef:3b:f0
13:34:26.535996,-86,2c:41:38:ef:3b:f1
13:34:26.561600,-86,2c:41:38:ef:3b:f4
13:34:26.587165,-87,2c:41:38:ef:3b:f6
13:34:26.598731,-91,2c:41:38:f3:49:d0
13:34:26.624648,-89,2c:41:38:f3:49:d2
13:34:26.650089,-90,2c:41:38:f3:49:d4
13:34:26.675772,-90,2c:41:38:f3:49:d5
13:34:26.715277,-87,2c:41:38:ef:3b:f0
13:34:26.740737,-91,2c:41:38:ef:3b:f1
13:34:26.766367,-89,2c:41:38:ef:3b:f4
13:34:26.791957,-90,2c:41:38:ef:3b:f6
13:34:26.803499,-92,2c:41:38:f3:49:d0
13:34:26.829329,-91,2c:41:38:f3:49:d2
13:34:26.854890,-92,2c:41:38:f3:49:d4
13:34:26.880428,-91,2c:41:38:f3:49:d5
13:34:26.919766,-90,2c:41:38:ef:3b:f0
13:34:26.945565,-88,2c:41:38:ef:3b:f1
13:34:26.971156,-87,2c:41:38:ef:3b:f4
13:34:26.996786,-88,2c:41:38:ef:3b:f6
13:34:27.125048,-84,2c:41:38:ef:3b:f0
13:34:27.150355,-84,2c:41:38:ef:3b:f1
13:34:27.176251,-85,2c:41:38:ef:3b:f4
13:34:27.201587,-86,2c:41:38:ef:3b:f6
13:34:27.329873,-88,2c:41:38:ef:3b:f0
13:34:27.355428,-89,2c:41:38:ef:3b:f1
13:34:27.380757,-89,2c:41:38:ef:3b:f4
13:34:27.406373,-93,2c:41:38:ef:3b:f6
13:34:27.534640,-90,2c:41:38:ef:3b:f0
13:34:27.559889,-89,2c:41:38:ef:3b:f1
13:34:27.585538,-90,2c:41:38:ef:3b:f4
13:34:27.611057,-88,2c:41:38:ef:3b:f6
13:34:27.738894,-89,2c:41:38:ef:3b:f0
13:34:27.765306,-90,2c:41:38:ef:3b:f1
13:34:27.790396,-89,2c:41:38:ef:3b:f4
13:34:27.816229,-89,2c:41:38:ef:3b:f6
13:34:28.227279,-84,c8:4c:75:40:90:5b
13:34:28.323411,-83,c8:4c:75:40:90:5b
13:34:28.422596,-83,c8:4c:75:40:90:5b
13:34:28.536896,-83,c8:4c:75:40:90:5b
13:34:28.633359,-83,c8:4c:75:40:90:5b
13:34:28.731698,-82,c8:4c:75:40:90:5b
13:34:28.846965,-82,c8:4c:75:40:90:5b
13:34:28.938572,-82,c8:4c:75:40:90:5b
13:34:29.040108,-82,c8:4c:75:40:90:5b
13:34:29.150701,-82,c8:4c:75:40:90:5b
13:34:29.245754,-82,c8:4c:75:40:90:5b
13:34:29.344222,-80,c8:4c:75:40:90:5b
13:34:29.457517,-79,c8:4c:75:40:90:5b
13:34:29.552925,-82,c8:4c:75:40:90:5b
13:34:29.654604,-83,c8:4c:75:40:90:5b
13:34:29.763325,-82,c8:4c:75:40:90:5b
13:34:29.859792,-82,c8:4c:75:40:90:5b
13:34:29.962156,-83,c8:4c:75:40:90:5b
13:34:30.071347,-81,c8:4c:75:40:90:5b
13:34:32.653872,-87,2c:41:38:ef:3b:f0
13:34:32.679864,-87,2c:41:38:ef:3b:f1
13:34:32.704916,-88,2c:41:38:ef:3b:f4
13:34:32.730532,-88,2c:41:38:ef:3b:f6
13:34:32.859451,-87,2c:41:38:ef:3b:f0
13:34:32.884750,-89,2c:41:38:ef:3b:f1
13:34:32.910401,-87,2c:41:38:ef:3b:f4
13:34:32.935999,-89,2c:41:38:ef:3b:f6
13:34:33.064381,-89,2c:41:38:ef:3b:f0
13:34:33.089529,-89,2c:41:38:ef:3b:f1
13:34:33.115465,-87,2c:41:38:ef:3b:f4
13:34:33.140783,-88,2c:41:38:ef:3b:f6
13:34:33.294858,-88,2c:41:38:ef:3b:f1
13:34:33.320339,-88,2c:41:38:ef:3b:f4
13:34:33.345594,-88,2c:41:38:ef:3b:f6
13:34:33.473397,-90,2c:41:38:ef:3b:f0
13:34:33.499369,-88,2c:41:38:ef:3b:f1
13:34:33.524642,-89,2c:41:38:ef:3b:f4
13:34:33.550227,-86,2c:41:38:ef:3b:f6
13:34:33.678764,-88,2c:41:38:ef:3b:f0
13:34:33.704024,-88,2c:41:38:ef:3b:f1
13:34:33.729903,-88,2c:41:38:ef:3b:f4
13:34:33.755454,-88,2c:41:38:ef:3b:f6
13:34:33.883573,-88,2c:41:38:ef:3b:f0
13:34:33.909114,-86,2c:41:38:ef:3b:f1
13:34:33.934336,-89,2c:41:38:ef:3b:f4
13:34:33.960322,-89,2c:41:38:ef:3b:f6
13:34:34.088264,-88,2c:41:38:ef:3b:f0
13:34:34.113833,-87,2c:41:38:ef:3b:f1
13:34:34.139460,-88,2c:41:38:ef:3b:f4
13:34:34.164952,-89,2c:41:38:ef:3b:f6
13:34:34.318709,-91,2c:41:38:ef:3b:f1
13:34:34.344073,-88,2c:41:38:ef:3b:f4
13:34:34.369947,-90,2c:41:38:ef:3b:f6
13:34:34.497852,-87,2c:41:38:ef:3b:f0
13:34:34.523423,-87,2c:41:38:ef:3b:f1
13:34:34.549325,-89,2c:41:38:ef:3b:f4
13:34:34.574335,-88,2c:41:38:ef:3b:f6
13:34:34.872759,-82,c8:4c:75:40:90:5b
13:34:34.986320,-81,c8:4c:75:40:90:5b
13:34:35.082484,-81,c8:4c:75:40:90:5b
13:34:35.182708,-85,c8:4c:75:40:90:5b
13:34:35.294424,-81,c8:4c:75:40:90:5b
13:34:35.391298,-84,c8:4c:75:40:90:5b
13:34:35.490460,-80,c8:4c:75:40:90:5b
13:34:35.600727,-82,c8:4c:75:40:90:5b
13:34:35.696563,-82,c8:4c:75:40:90:5b
13:34:35.795171,-85,c8:4c:75:40:90:5b
13:34:35.905738,-82,c8:4c:75:40:90:5b
13:34:36.102653,-82,c8:4c:75:40:90:5b
13:34:36.409564,-85,c8:4c:75:40:90:5b
13:34:36.520918,-82,c8:4c:75:40:90:5b
13:34:36.717550,-86,c8:4c:75:40:90:5b
13:34:39.412477,-89,2c:41:38:ef:3b:f0
13:34:39.463859,-92,2c:41:38:ef:3b:f4
13:34:39.669215,-91,2c:41:38:ef:3b:f4
13:34:39.822730,-92,2c:41:38:ef:3b:f0
13:34:40.283603,-92,2c:41:38:ef:3b:f4
13:34:40.718766,-89,2c:41:38:ef:3b:f6
13:34:40.872254,-88,2c:41:38:ef:3b:f1
13:34:40.897599,-88,2c:41:38:ef:3b:f4
13:34:40.923152,-90,2c:41:38:ef:3b:f6
13:34:41.051496,-90,2c:41:38:ef:3b:f0
13:34:41.077164,-88,2c:41:38:ef:3b:f1
13:34:41.102687,-88,2c:41:38:ef:3b:f4
13:34:41.127977,-88,2c:41:38:ef:3b:f6
13:34:41.256283,-88,2c:41:38:ef:3b:f0
13:34:41.532787,-83,c8:4c:75:40:90:5b
13:34:41.635382,-83,c8:4c:75:40:90:5b
13:34:41.749167,-82,c8:4c:75:40:90:5b
13:34:41.840886,-81,c8:4c:75:40:90:5b
13:34:41.939385,-84,c8:4c:75:40:90:5b
13:34:42.051369,-79,c8:4c:75:40:90:5b
13:34:42.253562,-83,c8:4c:75:40:90:5b
13:34:42.360927,-86,c8:4c:75:40:90:5b
13:34:42.455842,-82,c8:4c:75:40:90:5b
13:34:42.553582,-83,c8:4c:75:40:90:5b
13:34:42.666007,-84,c8:4c:75:40:90:5b
13:34:42.762358,-83,c8:4c:75:40:90:5b
13:34:42.860688,-83,c8:4c:75:40:90:5b
13:34:43.069627,-82,c8:4c:75:40:90:5b
13:34:43.168876,-83,c8:4c:75:40:90:5b
13:34:43.284840,-82,c8:4c:75:40:90:5b
13:34:43.376812,-82,c8:4c:75:40:90:5b
13:34:45.966067,-87,2c:41:38:ef:3b:f0
13:34:45.991718,-89,2c:41:38:ef:3b:f1
13:34:46.017185,-87,2c:41:38:ef:3b:f4
13:34:46.042744,-86,2c:41:38:ef:3b:f6
13:34:46.171555,-88,2c:41:38:ef:3b:f0
13:34:46.197111,-87,2c:41:38:ef:3b:f1
13:34:46.222422,-87,2c:41:38:ef:3b:f4
13:34:46.247968,-87,2c:41:38:ef:3b:f6
13:34:46.376304,-88,2c:41:38:ef:3b:f0
13:34:46.401887,-89,2c:41:38:ef:3b:f1
13:34:46.427516,-87,2c:41:38:ef:3b:f4
13:34:46.452774,-87,2c:41:38:ef:3b:f6
13:34:46.581166,-87,2c:41:38:ef:3b:f0
13:34:46.606454,-87,2c:41:38:ef:3b:f1
13:34:46.632316,-86,2c:41:38:ef:3b:f4
13:34:46.657653,-87,2c:41:38:ef:3b:f6
13:34:46.785930,-87,2c:41:38:ef:3b:f0
13:34:46.811245,-88,2c:41:38:ef:3b:f1
13:34:46.837158,-87,2c:41:38:ef:3b:f4
13:34:46.862378,-89,2c:41:38:ef:3b:f6
13:34:46.990748,-87,2c:41:38:ef:3b:f0
13:34:47.016024,-87,2c:41:38:ef:3b:f1
13:34:47.041957,-86,2c:41:38:ef:3b:f4
13:34:47.067260,-87,2c:41:38:ef:3b:f6
13:34:47.195531,-87,2c:41:38:ef:3b:f0
13:34:47.220783,-86,2c:41:38:ef:3b:f1
13:34:47.246690,-86,2c:41:38:ef:3b:f4
13:34:47.272002,-86,2c:41:38:ef:3b:f6
13:34:47.400172,-87,2c:41:38:ef:3b:f0
13:34:47.425585,-86,2c:41:38:ef:3b:f1
13:34:47.451521,-87,2c:41:38:ef:3b:f4
13:34:47.476857,-86,2c:41:38:ef:3b:f6
13:34:47.605175,-86,2c:41:38:ef:3b:f0
13:34:47.630461,-85,2c:41:38:ef:3b:f1
13:34:47.656350,-86,2c:41:38:ef:3b:f4
13:34:47.682063,-88,2c:41:38:ef:3b:f6
13:34:47.809919,-86,2c:41:38:ef:3b:f0
13:34:48.082577,-83,c8:4c:75:40:90:5b
13:34:48.298846,-85,c8:4c:75:40:90:5b
13:34:48.390070,-86,c8:4c:75:40:90:5b
13:34:48.503213,-83,c8:4c:75:40:90:5b
13:34:48.599506,-82,c8:4c:75:40:90:5b
13:34:48.808602,-83,c8:4c:75:40:90:5b
13:34:48.906360,-84,c8:4c:75:40:90:5b
13:34:49.009687,-83,c8:4c:75:40:90:5b
13:34:49.116266,-83,c8:4c:75:40:90:5b
13:34:49.213569,-82,c8:4c:75:40:90:5b
13:34:49.311875,-83,c8:4c:75:40:90:5b
13:34:49.520979,-85,c8:4c:75:40:90:5b
13:34:49.828889,-86,c8:4c:75:40:90:5b
13:34:49.926692,-85,c8:4c:75:40:90:5b
