15:36:29.299000,-83,c8:4c:75:40:90:5b
15:36:29.300000,-92,98:fc:11:6b:d6:fc
15:36:29.301000,-77,c4:6e:1f:bd:4d:ec
15:36:29.301000,-80,9c:1c:12:c1:51:85
15:36:29.301000,-80,9c:1c:12:c1:51:81
15:36:29.301000,-79,9c:1c:12:c1:51:83
15:36:29.301000,-80,9c:1c:12:c1:51:82
15:36:29.301000,-89,2c:41:38:ef:3b:f6
15:36:29.302000,-80,9c:1c:12:c1:51:80
15:36:29.302000,-80,9c:1c:12:c1:51:84
15:36:29.302000,-69,2c:41:38:f3:cd:d0
15:36:29.303000,-79,00:03:52:ab:82:c2
15:36:29.303000,-88,2c:41:38:f3:49:d5
15:36:29.303000,-69,2c:41:38:f3:cd:d1
15:36:29.303000,-80,00:03:52:ab:82:c0
15:36:29.303000,-69,2c:41:38:f3:cd:d4
15:36:29.303000,-69,2c:41:38:f3:cd:d6
15:36:29.304000,-71,9c:1c:12:c1:01:81
15:36:29.304000,-71,9c:1c:12:c1:01:82
15:36:29.304000,-71,9c:1c:12:c1:01:83
15:36:29.304000,-72,9c:1c:12:c1:01:85
15:36:29.305000,-79,00:03:52:ab:82:c5
15:36:29.305000,-79,00:03:52:ab:82:c6
15:36:29.312000,-80,00:03:52:ab:82:c3
15:36:29.312000,-90,2c:41:38:ef:3b:f4
15:36:29.312000,-71,9c:1c:12:c1:01:80
15:36:29.313000,-72,9c:1c:12:c1:01:84
15:36:29.313000,-79,00:03:52:ab:82:c4
15:36:37.976000,-83,c8:4c:75:40:90:5b
15:36:37.977000,-92,98:fc:11:6b:d6:fc
15:36:37.978000,-78,c4:6e:1f:bd:4d:ec
15:36:37.978000,-82,9c:1c:12:c1:51:85
15:36:37.978000,-89,2c:41:38:ef:3b:f6
15:36:37.979000,-80,9c:1c:12:c1:51:80
15:36:37.979000,-83,9c:1c:12:c1:51:84
15:36:37.979000,-67,2c:41:38:f3:cd:d0
15:36:37.979000,-75,00:03:52:ab:82:c2
15:36:37.979000,-67,2c:41:38:f3:cd:d1
15:36:37.980000,-76,00:03:52:ab:82:c0
15:36:37.980000,-67,2c:41:38:f3:cd:d4
15:36:37.980000,-67,2c:41:38:f3:cd:d6
15:36:37.980000,-72,9c:1c:12:c1:01:81
15:36:37.981000,-72,9c:1c:12:c1:01:82
15:36:37.981000,-71,9c:1c:12:c1:01:83
15:36:37.981000,-72,9c:1c:12:c1:01:85
15:36:37.981000,-76,00:03:52:ab:82:c5
15:36:37.981000,-76,00:03:52:ab:82:c6
15:36:37.982000,-76,00:03:52:ab:82:c3
15:36:37.982000,-90,2c:41:38:ef:3b:f4
15:36:37.982000,-71,9c:1c:12:c1:01:80
15:36:37.982000,-72,9c:1c:12:c1:01:84
15:36:37.983000,-76,00:03:52:ab:82:c4
15:36:37.983000,-87,e8:39:35:f4:9a:94
15:36:37.983000,-91,2c:41:38:f3:49:d2
