13:42:32.580582,-91,2c:41:38:ef:3b:f0
13:42:34.588683,-53,c8:4c:75:40:90:5b
13:42:34.636808,-66,98:fc:11:6b:d6:fc
13:42:34.701622,-53,c8:4c:75:40:90:5b
13:42:34.739333,-66,98:fc:11:6b:d6:fc
13:42:34.798220,-54,c8:4c:75:40:90:5b
13:42:34.842052,-66,98:fc:11:6b:d6:fc
13:42:34.897726,-53,c8:4c:75:40:90:5b
13:42:34.944412,-66,98:fc:11:6b:d6:fc
13:42:35.013317,-55,c8:4c:75:40:90:5b
13:42:35.046856,-66,98:fc:11:6b:d6:fc
13:42:35.105341,-54,c8:4c:75:40:90:5b
13:42:35.149263,-66,98:fc:11:6b:d6:fc
13:42:35.203676,-53,c8:4c:75:40:90:5b
13:42:35.251659,-66,98:fc:11:6b:d6:fc
13:42:35.316406,-53,c8:4c:75:40:90:5b
13:42:35.354146,-67,98:fc:11:6b:d6:fc
13:42:35.412476,-54,c8:4c:75:40:90:5b
13:42:35.456455,-67,98:fc:11:6b:d6:fc
13:42:35.510845,-52,c8:4c:75:40:90:5b
13:42:35.558913,-67,98:fc:11:6b:d6:fc
13:42:35.625018,-52,c8:4c:75:40:90:5b
13:42:35.661257,-67,98:fc:11:6b:d6:fc
13:42:35.719701,-53,c8:4c:75:40:90:5b
13:42:35.763698,-67,98:fc:11:6b:d6:fc
13:42:35.818072,-53,c8:4c:75:40:90:5b
13:42:35.866090,-65,98:fc:11:6b:d6:fc
13:42:35.946595,-54,c8:4c:75:40:90:5b
13:42:35.968547,-66,98:fc:11:6b:d6:fc
13:42:36.026890,-53,c8:4c:75:40:90:5b
13:42:36.070869,-65,98:fc:11:6b:d6:fc
13:42:36.125211,-54,c8:4c:75:40:90:5b
13:42:36.173294,-65,98:fc:11:6b:d6:fc
13:42:36.241996,-55,c8:4c:75:40:90:5b
13:42:36.275693,-65,98:fc:11:6b:d6:fc
13:42:36.334106,-55,c8:4c:75:40:90:5b
13:42:36.378109,-64,98:fc:11:6b:d6:fc
13:42:36.432451,-55,c8:4c:75:40:90:5b
13:42:36.480494,-64,98:fc:11:6b:d6:fc
13:42:36.931132,-78,c4:6e:1f:bd:4d:ec
13:42:37.545995,-80,c4:6e:1f:bd:4d:ec
13:42:38.365193,-78,c4:6e:1f:bd:4d:ec
13:42:41.190447,-66,98:fc:11:6b:d6:fc
13:42:41.248514,-55,c8:4c:75:40:90:5b
13:42:41.292824,-64,98:fc:11:6b:d6:fc
13:42:41.347060,-55,c8:4c:75:40:90:5b
13:42:41.395374,-66,98:fc:11:6b:d6:fc
13:42:41.460505,-55,c8:4c:75:40:90:5b
13:42:41.498194,-65,98:fc:11:6b:d6:fc
13:42:41.556453,-55,c8:4c:75:40:90:5b
13:42:41.600506,-67,98:fc:11:6b:d6:fc
13:42:41.654752,-55,c8:4c:75:40:90:5b
13:42:41.702953,-67,98:fc:11:6b:d6:fc
13:42:41.767100,-54,c8:4c:75:40:90:5b
13:42:41.805306,-66,98:fc:11:6b:d6:fc
13:42:41.863660,-54,c8:4c:75:40:90:5b
13:42:41.907743,-66,98:fc:11:6b:d6:fc
13:42:41.961691,-53,c8:4c:75:40:90:5b
13:42:42.010103,-66,98:fc:11:6b:d6:fc
13:42:42.073997,-53,c8:4c:75:40:90:5b
13:42:42.112484,-65,98:fc:11:6b:d6:fc
13:42:42.170885,-52,c8:4c:75:40:90:5b
13:42:42.214904,-67,98:fc:11:6b:d6:fc
13:42:42.269169,-52,c8:4c:75:40:90:5b
13:42:42.317302,-67,98:fc:11:6b:d6:fc
13:42:42.397848,-51,c8:4c:75:40:90:5b
13:42:42.419660,-67,98:fc:11:6b:d6:fc
13:42:42.478138,-51,c8:4c:75:40:90:5b
13:42:42.522112,-67,98:fc:11:6b:d6:fc
13:42:42.577062,-51,c8:4c:75:40:90:5b
13:42:42.624530,-68,98:fc:11:6b:d6:fc
13:42:42.688263,-51,c8:4c:75:40:90:5b
13:42:42.749011,-66,98:fc:11:6b:d6:fc
13:42:42.785282,-51,c8:4c:75:40:90:5b
13:42:42.829310,-67,98:fc:11:6b:d6:fc
13:42:42.883596,-51,c8:4c:75:40:90:5b
13:42:42.931709,-68,98:fc:11:6b:d6:fc
13:42:42.997016,-52,c8:4c:75:40:90:5b
13:42:43.034162,-68,98:fc:11:6b:d6:fc
13:42:43.092505,-53,c8:4c:75:40:90:5b
13:42:43.136508,-68,98:fc:11:6b:d6:fc
13:42:43.587097,-76,c4:6e:1f:bd:4d:ec
13:42:43.689959,-76,c4:6e:1f:bd:4d:ec
13:42:43.894749,-74,c4:6e:1f:bd:4d:ec
13:42:44.304312,-75,c4:6e:1f:bd:4d:ec
13:42:44.918730,-76,c4:6e:1f:bd:4d:ec
13:42:45.123484,-75,c4:6e:1f:bd:4d:ec
13:42:45.893325,-91,2c:41:38:ef:3b:f0
13:42:45.944322,-92,2c:41:38:ef:3b:f4
13:42:45.969875,-92,2c:41:38:ef:3b:f6
13:42:46.175009,-91,2c:41:38:ef:3b:f6
13:42:46.329582,-89,2c:41:38:ef:3b:f1
13:42:46.353868,-89,2c:41:38:ef:3b:f4
13:42:46.379769,-89,2c:41:38:ef:3b:f6
13:42:46.507519,-91,2c:41:38:ef:3b:f0
13:42:46.559005,-90,2c:41:38:ef:3b:f4
13:42:46.712693,-92,2c:41:38:ef:3b:f0
13:42:46.763587,-91,2c:41:38:ef:3b:f4
13:42:46.789428,-91,2c:41:38:ef:3b:f6
13:42:46.917355,-89,2c:41:38:ef:3b:f0
13:42:46.968403,-89,2c:41:38:ef:3b:f4
13:42:47.173483,-90,2c:41:38:ef:3b:f4
13:42:47.198795,-90,2c:41:38:ef:3b:f6
13:42:47.327034,-90,2c:41:38:ef:3b:f0
13:42:47.352543,-89,2c:41:38:ef:3b:f1
13:42:47.378266,-90,2c:41:38:ef:3b:f4
13:42:47.558735,-91,2c:41:38:ef:3b:f1
13:42:47.608375,-89,2c:41:38:ef:3b:f6
13:42:48.006846,-52,c8:4c:75:40:90:5b
13:42:48.051295,-66,98:fc:11:6b:d6:fc
13:42:48.105176,-53,c8:4c:75:40:90:5b
13:42:48.154151,-66,98:fc:11:6b:d6:fc
13:42:48.218639,-55,c8:4c:75:40:90:5b
13:42:48.256555,-67,98:fc:11:6b:d6:fc
13:42:48.314819,-53,c8:4c:75:40:90:5b
13:42:48.359028,-66,98:fc:11:6b:d6:fc
13:42:48.413126,-54,c8:4c:75:40:90:5b
13:42:48.461376,-66,98:fc:11:6b:d6:fc
13:42:48.539390,-54,c8:4c:75:40:90:5b
13:42:48.563826,-65,98:fc:11:6b:d6:fc
13:42:48.621996,-54,c8:4c:75:40:90:5b
13:42:48.666187,-65,98:fc:11:6b:d6:fc
13:42:48.720324,-53,c8:4c:75:40:90:5b
13:42:48.768584,-66,98:fc:11:6b:d6:fc
13:42:48.832460,-53,c8:4c:75:40:90:5b
13:42:48.870951,-66,98:fc:11:6b:d6:fc
13:42:48.929242,-55,c8:4c:75:40:90:5b
13:42:48.973332,-67,98:fc:11:6b:d6:fc
13:42:49.027256,-52,c8:4c:75:40:90:5b
13:42:49.075750,-67,98:fc:11:6b:d6:fc
13:42:49.139446,-53,c8:4c:75:40:90:5b
13:42:49.178217,-66,98:fc:11:6b:d6:fc
13:42:49.236527,-54,c8:4c:75:40:90:5b
13:42:49.280583,-67,98:fc:11:6b:d6:fc
13:42:49.334742,-54,c8:4c:75:40:90:5b
13:42:49.382957,-66,98:fc:11:6b:d6:fc
13:42:49.446918,-54,c8:4c:75:40:90:5b
13:42:49.485309,-66,98:fc:11:6b:d6:fc
13:42:49.543564,-55,c8:4c:75:40:90:5b
13:42:49.587845,-67,98:fc:11:6b:d6:fc
13:42:49.641858,-53,c8:4c:75:40:90:5b
13:42:49.690146,-68,98:fc:11:6b:d6:fc
13:42:49.754105,-53,c8:4c:75:40:90:5b
13:42:49.792560,-66,98:fc:11:6b:d6:fc
13:42:49.850832,-54,c8:4c:75:40:90:5b
13:42:49.894964,-67,98:fc:11:6b:d6:fc
13:42:50.857936,-77,c4:6e:1f:bd:4d:ec
13:42:51.062810,-75,c4:6e:1f:bd:4d:ec
13:42:51.574687,-77,c4:6e:1f:bd:4d:ec
13:42:51.984295,-77,c4:6e:1f:bd:4d:ec
13:42:52.472914,-90,2c:41:38:ef:3b:f1
13:42:52.497429,-91,2c:41:38:ef:3b:f4
13:42:52.651816,-90,2c:41:38:ef:3b:f0
13:42:52.678198,-91,2c:41:38:ef:3b:f1
13:42:52.703082,-90,2c:41:38:ef:3b:f4
13:42:52.728279,-90,2c:41:38:ef:3b:f6
13:42:52.907842,-88,2c:41:38:ef:3b:f4
13:42:52.933145,-90,2c:41:38:ef:3b:f6
13:42:53.061403,-91,2c:41:38:ef:3b:f0
13:42:53.291554,-91,2c:41:38:ef:3b:f1
13:42:53.316967,-90,2c:41:38:ef:3b:f4
13:42:53.342720,-90,2c:41:38:ef:3b:f6
13:42:53.470980,-90,2c:41:38:ef:3b:f0
13:42:53.547458,-90,2c:41:38:ef:3b:f6
13:42:53.675773,-89,2c:41:38:ef:3b:f0
13:42:53.702379,-90,2c:41:38:ef:3b:f1
13:42:53.726735,-90,2c:41:38:ef:3b:f4
13:42:53.752261,-89,2c:41:38:ef:3b:f6
13:42:53.907557,-92,2c:41:38:ef:3b:f1
13:42:54.317106,-89,2c:41:38:ef:3b:f1
