13:20:50.007031,-91,2c:41:38:ef:3b:f4
13:20:50.160706,-86,2c:41:38:ef:3b:f0
13:20:50.186420,-84,2c:41:38:ef:3b:f1
13:20:50.211969,-83,2c:41:38:ef:3b:f4
13:20:50.237526,-83,2c:41:38:ef:3b:f6
13:20:50.365652,-83,2c:41:38:ef:3b:f0
13:20:50.391182,-84,2c:41:38:ef:3b:f1
13:20:50.416778,-84,2c:41:38:ef:3b:f4
13:20:50.442363,-83,2c:41:38:ef:3b:f6
13:20:50.570410,-86,2c:41:38:ef:3b:f0
13:20:50.595978,-85,2c:41:38:ef:3b:f1
13:20:50.621551,-87,2c:41:38:ef:3b:f4
13:20:50.647095,-86,2c:41:38:ef:3b:f6
13:20:50.801547,-87,2c:41:38:ef:3b:f1
13:20:50.827193,-87,2c:41:38:ef:3b:f4
13:20:50.852539,-86,2c:41:38:ef:3b:f6
13:20:50.980857,-86,2c:41:38:ef:3b:f0
13:20:51.006419,-87,2c:41:38:ef:3b:f1
13:20:51.031668,-86,2c:41:38:ef:3b:f4
13:20:51.057291,-84,2c:41:38:ef:3b:f6
13:20:51.185641,-86,2c:41:38:ef:3b:f0
13:20:51.210944,-86,2c:41:38:ef:3b:f1
13:20:51.236791,-86,2c:41:38:ef:3b:f4
13:20:51.262101,-85,2c:41:38:ef:3b:f6
13:20:51.390113,-86,2c:41:38:ef:3b:f0
13:20:51.415466,-86,2c:41:38:ef:3b:f1
13:20:51.467195,-84,2c:41:38:ef:3b:f6
13:20:51.594804,-85,2c:41:38:ef:3b:f0
13:20:51.620478,-86,2c:41:38:ef:3b:f1
13:20:51.646421,-86,2c:41:38:ef:3b:f4
13:20:51.671703,-85,2c:41:38:ef:3b:f6
13:20:51.799989,-86,2c:41:38:ef:3b:f0
13:20:51.825228,-85,2c:41:38:ef:3b:f1
13:20:51.851229,-85,2c:41:38:ef:3b:f4
13:20:51.876505,-84,2c:41:38:ef:3b:f6
13:20:52.214569,-79,98:fc:11:6b:d6:fc
13:20:52.287983,-44,c8:4c:75:40:90:5b
13:20:52.316925,-78,98:fc:11:6b:d6:fc
13:20:52.401174,-43,c8:4c:75:40:90:5b
13:20:52.419844,-79,98:fc:11:6b:d6:fc
13:20:52.497578,-43,c8:4c:75:40:90:5b
13:20:52.522255,-78,98:fc:11:6b:d6:fc
13:20:52.595979,-44,c8:4c:75:40:90:5b
13:20:52.624690,-78,98:fc:11:6b:d6:fc
13:20:52.708316,-44,c8:4c:75:40:90:5b
13:20:52.727162,-79,98:fc:11:6b:d6:fc
13:20:52.804768,-44,c8:4c:75:40:90:5b
13:20:52.829491,-79,98:fc:11:6b:d6:fc
13:20:52.903051,-44,c8:4c:75:40:90:5b
13:20:52.931883,-82,98:fc:11:6b:d6:fc
13:20:53.015511,-45,c8:4c:75:40:90:5b
13:20:53.034257,-81,98:fc:11:6b:d6:fc
13:20:53.111978,-45,c8:4c:75:40:90:5b
13:20:53.136609,-80,98:fc:11:6b:d6:fc
13:20:53.209825,-45,c8:4c:75:40:90:5b
13:20:53.239499,-79,98:fc:11:6b:d6:fc
13:20:53.322772,-44,c8:4c:75:40:90:5b
13:20:53.341398,-82,98:fc:11:6b:d6:fc
13:20:53.419142,-44,c8:4c:75:40:90:5b
13:20:53.443866,-80,98:fc:11:6b:d6:fc
13:20:53.517362,-44,c8:4c:75:40:90:5b
13:20:53.546344,-80,98:fc:11:6b:d6:fc
13:20:53.629913,-45,c8:4c:75:40:90:5b
13:20:53.648660,-80,98:fc:11:6b:d6:fc
13:20:53.726011,-46,c8:4c:75:40:90:5b
13:20:53.751084,-79,98:fc:11:6b:d6:fc
13:20:53.824206,-45,c8:4c:75:40:90:5b
13:20:53.853465,-80,98:fc:11:6b:d6:fc
13:20:53.937102,-44,c8:4c:75:40:90:5b
13:20:53.955971,-80,98:fc:11:6b:d6:fc
13:20:54.033548,-44,c8:4c:75:40:90:5b
13:20:54.058252,-81,98:fc:11:6b:d6:fc
13:20:54.131992,-43,c8:4c:75:40:90:5b
13:20:54.160698,-80,98:fc:11:6b:d6:fc
13:20:55.651470,-71,c4:6e:1f:bd:4d:ec
13:20:56.740021,-84,2c:41:38:ef:3b:f1
13:20:56.766445,-84,2c:41:38:ef:3b:f4
13:20:56.791694,-85,2c:41:38:ef:3b:f6
13:20:56.920031,-84,2c:41:38:ef:3b:f0
13:20:56.945653,-84,2c:41:38:ef:3b:f1
13:20:56.971285,-85,2c:41:38:ef:3b:f4
13:20:56.996488,-85,2c:41:38:ef:3b:f6
13:20:57.124335,-84,2c:41:38:ef:3b:f0
13:20:57.150377,-87,2c:41:38:ef:3b:f1
13:20:57.175810,-85,2c:41:38:ef:3b:f4
13:20:57.201349,-84,2c:41:38:ef:3b:f6
13:20:57.355182,-86,2c:41:38:ef:3b:f1
13:20:57.380528,-86,2c:41:38:ef:3b:f4
13:20:57.406432,-86,2c:41:38:ef:3b:f6
13:20:57.534429,-86,2c:41:38:ef:3b:f0
13:20:57.559968,-86,2c:41:38:ef:3b:f1
13:20:57.585360,-87,2c:41:38:ef:3b:f4
13:20:57.610943,-84,2c:41:38:ef:3b:f6
13:20:57.739241,-85,2c:41:38:ef:3b:f0
13:20:57.764743,-86,2c:41:38:ef:3b:f1
13:20:57.790127,-84,2c:41:38:ef:3b:f4
13:20:57.815744,-85,2c:41:38:ef:3b:f6
13:20:57.944012,-84,2c:41:38:ef:3b:f0
13:20:57.969585,-85,2c:41:38:ef:3b:f1
13:20:57.995194,-86,2c:41:38:ef:3b:f4
13:20:58.020486,-86,2c:41:38:ef:3b:f6
13:20:58.148815,-84,2c:41:38:ef:3b:f0
13:20:58.174418,-85,2c:41:38:ef:3b:f1
13:20:58.199995,-85,2c:41:38:ef:3b:f4
13:20:58.225280,-85,2c:41:38:ef:3b:f6
13:20:58.353600,-85,2c:41:38:ef:3b:f0
13:20:58.378925,-86,2c:41:38:ef:3b:f1
13:20:58.404845,-84,2c:41:38:ef:3b:f4
13:20:58.430075,-84,2c:41:38:ef:3b:f6
13:20:58.851952,-48,c8:4c:75:40:90:5b
13:20:58.870741,-82,98:fc:11:6b:d6:fc
13:20:58.948142,-48,c8:4c:75:40:90:5b
13:20:58.973456,-81,98:fc:11:6b:d6:fc
13:20:59.047702,-48,c8:4c:75:40:90:5b
13:20:59.075997,-81,98:fc:11:6b:d6:fc
13:20:59.159542,-47,c8:4c:75:40:90:5b
13:20:59.178258,-81,98:fc:11:6b:d6:fc
13:20:59.255979,-48,c8:4c:75:40:90:5b
13:20:59.280731,-80,98:fc:11:6b:d6:fc
13:20:59.353908,-48,c8:4c:75:40:90:5b
13:20:59.384580,-81,98:fc:11:6b:d6:fc
13:20:59.466692,-48,c8:4c:75:40:90:5b
13:20:59.485457,-79,98:fc:11:6b:d6:fc
13:20:59.563085,-47,c8:4c:75:40:90:5b
13:20:59.587945,-80,98:fc:11:6b:d6:fc
13:20:59.661511,-47,c8:4c:75:40:90:5b
13:20:59.690336,-79,98:fc:11:6b:d6:fc
13:20:59.773822,-46,c8:4c:75:40:90:5b
13:20:59.792695,-79,98:fc:11:6b:d6:fc
13:20:59.870706,-46,c8:4c:75:40:90:5b
13:20:59.895053,-79,98:fc:11:6b:d6:fc
13:20:59.969433,-46,c8:4c:75:40:90:5b
13:20:59.997702,-78,98:fc:11:6b:d6:fc
13:21:00.081443,-45,c8:4c:75:40:90:5b
13:21:00.099865,-78,98:fc:11:6b:d6:fc
13:21:00.177951,-45,c8:4c:75:40:90:5b
13:21:00.202355,-80,98:fc:11:6b:d6:fc
13:21:00.276105,-45,c8:4c:75:40:90:5b
13:21:00.304734,-79,98:fc:11:6b:d6:fc
13:21:00.388746,-47,c8:4c:75:40:90:5b
13:21:00.407234,-79,98:fc:11:6b:d6:fc
13:21:00.485898,-47,c8:4c:75:40:90:5b
13:21:00.509507,-79,98:fc:11:6b:d6:fc
13:21:00.583011,-46,c8:4c:75:40:90:5b
13:21:00.612090,-81,98:fc:11:6b:d6:fc
13:21:00.695457,-46,c8:4c:75:40:90:5b
13:21:00.714264,-81,98:fc:11:6b:d6:fc
13:21:03.268099,-85,2c:41:38:ef:3b:f0
13:21:03.293651,-85,2c:41:38:ef:3b:f1
13:21:03.319142,-84,2c:41:38:ef:3b:f4
13:21:03.345730,-84,2c:41:38:ef:3b:f6
13:21:03.473645,-86,2c:41:38:ef:3b:f0
13:21:03.499194,-86,2c:41:38:ef:3b:f1
13:21:03.524535,-86,2c:41:38:ef:3b:f4
13:21:03.550116,-85,2c:41:38:ef:3b:f6
13:21:03.678450,-84,2c:41:38:ef:3b:f0
13:21:03.703989,-84,2c:41:38:ef:3b:f1
13:21:03.729655,-84,2c:41:38:ef:3b:f4
13:21:03.755255,-85,2c:41:38:ef:3b:f6
13:21:03.882949,-84,2c:41:38:ef:3b:f0
13:21:03.908546,-86,2c:41:38:ef:3b:f1
13:21:03.934463,-84,2c:41:38:ef:3b:f4
13:21:04.088052,-84,2c:41:38:ef:3b:f0
13:21:04.113363,-84,2c:41:38:ef:3b:f1
13:21:04.139229,-84,2c:41:38:ef:3b:f4
13:21:04.164565,-85,2c:41:38:ef:3b:f6
13:21:04.292863,-84,2c:41:38:ef:3b:f0
13:21:04.318137,-84,2c:41:38:ef:3b:f1
13:21:04.344031,-84,2c:41:38:ef:3b:f4
13:21:04.369402,-84,2c:41:38:ef:3b:f6
13:21:04.497661,-85,2c:41:38:ef:3b:f0
13:21:04.522885,-84,2c:41:38:ef:3b:f1
13:21:04.548860,-85,2c:41:38:ef:3b:f4
13:21:04.574182,-85,2c:41:38:ef:3b:f6
13:21:04.702471,-85,2c:41:38:ef:3b:f0
13:21:04.727993,-85,2c:41:38:ef:3b:f1
13:21:04.753662,-83,2c:41:38:ef:3b:f4
13:21:04.779011,-84,2c:41:38:ef:3b:f6
13:21:04.907246,-85,2c:41:38:ef:3b:f0
13:21:04.932542,-85,2c:41:38:ef:3b:f1
13:21:04.984070,-84,2c:41:38:ef:3b:f6
13:21:05.112317,-85,2c:41:38:ef:3b:f0
13:21:05.137619,-86,2c:41:38:ef:3b:f1
13:21:05.162967,-85,2c:41:38:ef:3b:f4
13:21:05.424250,-81,98:fc:11:6b:d6:fc
13:21:05.497370,-47,c8:4c:75:40:90:5b
13:21:05.526756,-80,98:fc:11:6b:d6:fc
13:21:05.610254,-46,c8:4c:75:40:90:5b
13:21:05.629543,-80,98:fc:11:6b:d6:fc
13:21:05.707302,-47,c8:4c:75:40:90:5b
13:21:05.731946,-80,98:fc:11:6b:d6:fc
13:21:05.805335,-47,c8:4c:75:40:90:5b
13:21:05.834309,-80,98:fc:11:6b:d6:fc
13:21:05.917890,-47,c8:4c:75:40:90:5b
13:21:05.936842,-80,98:fc:11:6b:d6:fc
13:21:06.014265,-47,c8:4c:75:40:90:5b
13:21:06.039155,-79,98:fc:11:6b:d6:fc
13:21:06.112532,-46,c8:4c:75:40:90:5b
13:21:06.141724,-80,98:fc:11:6b:d6:fc
13:21:06.225018,-47,c8:4c:75:40:90:5b
13:21:06.243954,-79,98:fc:11:6b:d6:fc
13:21:06.321474,-47,c8:4c:75:40:90:5b
13:21:06.346302,-78,98:fc:11:6b:d6:fc
13:21:06.421789,-47,c8:4c:75:40:90:5b
13:21:06.448788,-80,98:fc:11:6b:d6:fc
13:21:06.532273,-47,c8:4c:75:40:90:5b
13:21:06.551162,-80,98:fc:11:6b:d6:fc
13:21:06.628993,-47,c8:4c:75:40:90:5b
13:21:06.653540,-79,98:fc:11:6b:d6:fc
13:21:06.726993,-47,c8:4c:75:40:90:5b
13:21:06.755865,-81,98:fc:11:6b:d6:fc
13:21:06.839779,-48,c8:4c:75:40:90:5b
13:21:06.858383,-83,98:fc:11:6b:d6:fc
13:21:06.935883,-48,c8:4c:75:40:90:5b
13:21:06.960830,-82,98:fc:11:6b:d6:fc
13:21:07.034163,-48,c8:4c:75:40:90:5b
13:21:07.146678,-49,c8:4c:75:40:90:5b
13:21:07.165545,-84,98:fc:11:6b:d6:fc
13:21:07.243334,-49,c8:4c:75:40:90:5b
13:21:07.267913,-83,98:fc:11:6b:d6:fc
13:21:07.341405,-48,c8:4c:75:40:90:5b
13:21:07.370356,-86,98:fc:11:6b:d6:fc
13:21:09.898502,-84,2c:41:38:ef:3b:f6
13:21:10.026668,-84,2c:41:38:ef:3b:f0
13:21:10.052101,-84,2c:41:38:ef:3b:f1
13:21:10.077730,-83,2c:41:38:ef:3b:f4
13:21:10.231575,-84,2c:41:38:ef:3b:f0
13:21:10.257262,-85,2c:41:38:ef:3b:f1
13:21:10.283293,-84,2c:41:38:ef:3b:f4
13:21:10.308626,-84,2c:41:38:ef:3b:f6
13:21:10.437030,-85,2c:41:38:ef:3b:f0
13:21:10.462455,-85,2c:41:38:ef:3b:f1
13:21:10.487801,-84,2c:41:38:ef:3b:f4
13:21:10.513422,-84,2c:41:38:ef:3b:f6
13:21:10.641636,-84,2c:41:38:ef:3b:f0
13:21:10.667077,-86,2c:41:38:ef:3b:f1
13:21:10.692600,-84,2c:41:38:ef:3b:f4
13:21:10.718228,-83,2c:41:38:ef:3b:f6
13:21:10.846564,-85,2c:41:38:ef:3b:f0
13:21:10.872074,-85,2c:41:38:ef:3b:f1
13:21:10.897420,-85,2c:41:38:ef:3b:f4
13:21:10.923040,-84,2c:41:38:ef:3b:f6
13:21:11.051298,-85,2c:41:38:ef:3b:f0
13:21:11.076466,-85,2c:41:38:ef:3b:f1
13:21:11.102506,-84,2c:41:38:ef:3b:f4
13:21:11.127813,-85,2c:41:38:ef:3b:f6
13:21:11.256103,-85,2c:41:38:ef:3b:f0
13:21:11.307315,-84,2c:41:38:ef:3b:f4
13:21:11.332603,-81,2c:41:38:ef:3b:f6
13:21:11.460957,-85,2c:41:38:ef:3b:f0
13:21:11.486262,-85,2c:41:38:ef:3b:f1
13:21:11.512099,-85,2c:41:38:ef:3b:f4
13:21:11.537436,-84,2c:41:38:ef:3b:f6
13:21:11.665758,-85,2c:41:38:ef:3b:f0
13:21:11.691014,-84,2c:41:38:ef:3b:f1
13:21:11.716902,-85,2c:41:38:ef:3b:f4
13:21:11.742170,-84,2c:41:38:ef:3b:f6
13:21:12.159653,-49,c8:4c:75:40:90:5b
13:21:12.182688,-83,98:fc:11:6b:d6:fc
13:21:12.256450,-49,c8:4c:75:40:90:5b
13:21:12.285703,-84,98:fc:11:6b:d6:fc
13:21:12.371252,-49,c8:4c:75:40:90:5b
13:21:12.390978,-83,98:fc:11:6b:d6:fc
13:21:12.470985,-49,c8:4c:75:40:90:5b
13:21:12.490652,-83,98:fc:11:6b:d6:fc
13:21:12.563718,-49,c8:4c:75:40:90:5b
13:21:12.592800,-84,98:fc:11:6b:d6:fc
13:21:12.676291,-49,c8:4c:75:40:90:5b
13:21:12.695198,-84,98:fc:11:6b:d6:fc
13:21:12.772617,-49,c8:4c:75:40:90:5b
13:21:12.797599,-84,98:fc:11:6b:d6:fc
13:21:12.871590,-50,c8:4c:75:40:90:5b
13:21:12.900007,-84,98:fc:11:6b:d6:fc
13:21:12.983416,-49,c8:4c:75:40:90:5b
13:21:13.002482,-83,98:fc:11:6b:d6:fc
13:21:13.079372,-49,c8:4c:75:40:90:5b
13:21:13.104834,-84,98:fc:11:6b:d6:fc
13:21:13.178322,-50,c8:4c:75:40:90:5b
13:21:13.208552,-85,98:fc:11:6b:d6:fc
13:21:13.293104,-49,c8:4c:75:40:90:5b
13:21:13.309592,-83,98:fc:11:6b:d6:fc
13:21:13.387774,-49,c8:4c:75:40:90:5b
13:21:13.413307,-84,98:fc:11:6b:d6:fc
13:21:13.489801,-49,c8:4c:75:40:90:5b
13:21:13.514479,-83,98:fc:11:6b:d6:fc
13:21:13.597893,-49,c8:4c:75:40:90:5b
13:21:13.616915,-83,98:fc:11:6b:d6:fc
13:21:13.694016,-49,c8:4c:75:40:90:5b
13:21:13.719222,-83,98:fc:11:6b:d6:fc
13:21:13.792254,-49,c8:4c:75:40:90:5b
13:21:13.821722,-83,98:fc:11:6b:d6:fc
13:21:13.904992,-50,c8:4c:75:40:90:5b
13:21:13.924015,-84,98:fc:11:6b:d6:fc
13:21:14.003636,-50,c8:4c:75:40:90:5b
13:21:14.026411,-85,98:fc:11:6b:d6:fc
