13:45:48.306257,-84,9c:1c:12:c1:51:80
13:45:48.306652,-85,9c:1c:12:c1:51:81
13:45:48.306899,-84,9c:1c:12:c1:51:82
13:45:48.307139,-84,9c:1c:12:c1:51:83
13:45:48.307388,-84,9c:1c:12:c1:51:84
13:45:48.307627,-85,9c:1c:12:c1:51:85
13:45:48.315628,-91,2c:41:38:ef:3b:f1
13:45:48.342055,-92,2c:41:38:ef:3b:f4
13:45:48.408109,-88,9c:1c:12:c1:51:80
13:45:48.408256,-87,9c:1c:12:c1:51:81
13:45:48.408569,-87,9c:1c:12:c1:51:82
13:45:48.408974,-86,9c:1c:12:c1:51:83
13:45:48.409100,-86,9c:1c:12:c1:51:84
13:45:48.409600,-86,9c:1c:12:c1:51:85
13:45:48.494584,-92,2c:41:38:ef:3b:f0
13:45:48.510633,-84,9c:1c:12:c1:51:80
13:45:48.510853,-85,9c:1c:12:c1:51:81
13:45:48.511048,-85,9c:1c:12:c1:51:82
13:45:48.511526,-84,9c:1c:12:c1:51:83
13:45:48.511714,-85,9c:1c:12:c1:51:84
13:45:48.511907,-84,9c:1c:12:c1:51:85
13:45:48.512093,-84,9c:1c:12:c1:51:84
13:45:48.520643,-91,2c:41:38:ef:3b:f1
13:45:48.545947,-93,2c:41:38:ef:3b:f4
13:45:48.571484,-91,2c:41:38:ef:3b:f6
13:45:48.613043,-86,9c:1c:12:c1:51:80
13:45:48.613251,-86,9c:1c:12:c1:51:81
13:45:48.613437,-87,9c:1c:12:c1:51:82
13:45:48.613897,-88,9c:1c:12:c1:51:83
13:45:48.614079,-87,9c:1c:12:c1:51:84
13:45:48.614548,-86,9c:1c:12:c1:51:85
13:45:48.614759,-86,9c:1c:12:c1:51:84
13:45:48.699555,-91,2c:41:38:ef:3b:f0
13:45:48.715384,-86,9c:1c:12:c1:51:80
13:45:48.715619,-85,9c:1c:12:c1:51:81
13:45:48.715839,-85,9c:1c:12:c1:51:82
13:45:48.716058,-85,9c:1c:12:c1:51:83
13:45:48.716579,-86,9c:1c:12:c1:51:84
13:45:48.716777,-85,9c:1c:12:c1:51:85
13:45:48.725035,-91,2c:41:38:ef:3b:f1
13:45:48.818227,-85,9c:1c:12:c1:51:80
13:45:48.818616,-86,9c:1c:12:c1:51:81
13:45:48.818860,-87,9c:1c:12:c1:51:82
13:45:48.819100,-86,9c:1c:12:c1:51:83
13:45:48.819337,-85,9c:1c:12:c1:51:84
13:45:48.819577,-86,9c:1c:12:c1:51:85
13:45:48.920718,-84,9c:1c:12:c1:51:80
13:45:48.921117,-83,9c:1c:12:c1:51:81
13:45:48.921371,-84,9c:1c:12:c1:51:82
13:45:48.921623,-83,9c:1c:12:c1:51:83
13:45:48.921872,-84,9c:1c:12:c1:51:84
13:45:48.922121,-83,9c:1c:12:c1:51:85
13:45:49.022890,-82,9c:1c:12:c1:51:80
13:45:49.023319,-83,9c:1c:12:c1:51:81
13:45:49.023577,-83,9c:1c:12:c1:51:82
13:45:49.023827,-83,9c:1c:12:c1:51:83
13:45:49.024076,-82,9c:1c:12:c1:51:84
13:45:49.024452,-83,9c:1c:12:c1:51:85
13:45:49.125358,-83,9c:1c:12:c1:51:80
13:45:49.125760,-84,9c:1c:12:c1:51:81
13:45:49.126013,-83,9c:1c:12:c1:51:82
13:45:49.126263,-84,9c:1c:12:c1:51:83
13:45:49.126509,-84,9c:1c:12:c1:51:84
13:45:49.126756,-84,9c:1c:12:c1:51:85
13:45:49.227690,-85,9c:1c:12:c1:51:80
13:45:49.228115,-84,9c:1c:12:c1:51:81
13:45:49.228367,-85,9c:1c:12:c1:51:82
13:45:49.228613,-85,9c:1c:12:c1:51:83
13:45:49.228859,-84,9c:1c:12:c1:51:84
13:45:49.229254,-85,9c:1c:12:c1:51:85
13:45:49.229494,-86,9c:1c:12:c1:51:84
13:45:49.229817,-85,9c:1c:12:c1:51:84
13:45:49.330108,-85,9c:1c:12:c1:51:80
13:45:49.330500,-85,9c:1c:12:c1:51:81
13:45:49.330748,-85,9c:1c:12:c1:51:82
13:45:49.330993,-85,9c:1c:12:c1:51:83
13:45:49.331268,-86,9c:1c:12:c1:51:84
13:45:49.331671,-85,9c:1c:12:c1:51:85
13:45:49.339583,-92,2c:41:38:ef:3b:f1
13:45:49.365517,-90,2c:41:38:ef:3b:f4
13:45:49.391129,-91,2c:41:38:ef:3b:f6
13:45:49.432742,-86,9c:1c:12:c1:51:80
13:45:49.433137,-85,9c:1c:12:c1:51:81
13:45:49.433382,-85,9c:1c:12:c1:51:82
13:45:49.433628,-85,9c:1c:12:c1:51:83
13:45:49.433906,-85,9c:1c:12:c1:51:84
13:45:49.519172,-89,2c:41:38:ef:3b:f0
13:45:49.535945,-85,9c:1c:12:c1:51:83
13:45:49.536340,-84,9c:1c:12:c1:51:85
13:45:49.570432,-89,2c:41:38:ef:3b:f4
13:45:49.637531,-83,9c:1c:12:c1:51:80
13:45:49.637962,-83,9c:1c:12:c1:51:81
13:45:49.638215,-84,9c:1c:12:c1:51:82
13:45:49.638463,-83,9c:1c:12:c1:51:83
13:45:49.638711,-84,9c:1c:12:c1:51:84
13:45:49.638985,-83,9c:1c:12:c1:51:85
13:45:49.723959,-91,2c:41:38:ef:3b:f0
13:45:49.739760,-82,9c:1c:12:c1:51:80
13:45:49.740181,-83,9c:1c:12:c1:51:81
13:45:49.740552,-84,9c:1c:12:c1:51:82
13:45:49.740796,-83,9c:1c:12:c1:51:83
13:45:49.741041,-83,9c:1c:12:c1:51:84
13:45:49.741286,-83,9c:1c:12:c1:51:85
13:45:49.749307,-92,2c:41:38:ef:3b:f1
13:45:49.842366,-82,9c:1c:12:c1:51:80
13:45:49.842761,-83,9c:1c:12:c1:51:81
13:45:49.843012,-83,9c:1c:12:c1:51:82
13:45:49.843258,-83,9c:1c:12:c1:51:83
13:45:49.843503,-83,9c:1c:12:c1:51:84
13:45:49.843746,-83,9c:1c:12:c1:51:85
13:45:49.928645,-90,2c:41:38:ef:3b:f0
13:45:49.944502,-80,9c:1c:12:c1:51:80
13:45:49.944971,-80,9c:1c:12:c1:51:81
13:45:49.945343,-79,9c:1c:12:c1:51:82
13:45:49.945591,-80,9c:1c:12:c1:51:83
13:45:49.945836,-80,9c:1c:12:c1:51:84
13:45:49.946080,-80,9c:1c:12:c1:51:85
13:45:49.979660,-90,2c:41:38:ef:3b:f4
13:45:50.005456,-89,2c:41:38:ef:3b:f6
13:45:50.047103,-79,9c:1c:12:c1:51:80
13:45:50.047494,-78,9c:1c:12:c1:51:81
13:45:50.047741,-79,9c:1c:12:c1:51:82
13:45:50.047989,-80,9c:1c:12:c1:51:83
13:45:50.048266,-80,9c:1c:12:c1:51:84
13:45:50.048517,-79,9c:1c:12:c1:51:85
13:45:50.133346,-90,2c:41:38:ef:3b:f0
13:45:50.149357,-83,9c:1c:12:c1:51:80
13:45:50.149857,-82,9c:1c:12:c1:51:81
13:45:50.150114,-84,9c:1c:12:c1:51:82
13:45:50.150362,-82,9c:1c:12:c1:51:83
13:45:50.150632,-84,9c:1c:12:c1:51:84
13:45:50.150881,-83,9c:1c:12:c1:51:85
13:45:50.706511,-93,c8:4c:75:40:90:5b
13:45:50.817862,-93,c8:4c:75:40:90:5b
13:45:51.012707,-92,c8:4c:75:40:90:5b
13:45:51.125821,-94,c8:4c:75:40:90:5b
13:45:51.432482,-93,c8:4c:75:40:90:5b
13:45:51.627114,-93,c8:4c:75:40:90:5b
13:45:51.835996,-92,c8:4c:75:40:90:5b
13:45:52.047491,-92,c8:4c:75:40:90:5b
13:45:52.143386,-92,c8:4c:75:40:90:5b
13:45:52.354591,-93,c8:4c:75:40:90:5b
13:45:52.728403,-83,20:aa:4b:e1:e1:f5
13:45:52.933885,-83,20:aa:4b:e1:e1:f5
13:45:53.036621,-85,20:aa:4b:e1:e1:f5
13:45:53.241124,-87,20:aa:4b:e1:e1:f5
13:45:53.343487,-86,20:aa:4b:e1:e1:f5
13:45:53.445874,-87,20:aa:4b:e1:e1:f5
13:45:53.650708,-87,20:aa:4b:e1:e1:f5
13:45:53.753061,-87,20:aa:4b:e1:e1:f5
13:45:54.060562,-89,20:aa:4b:e1:e1:f5
13:45:54.162694,-88,20:aa:4b:e1:e1:f5
13:45:54.265088,-88,20:aa:4b:e1:e1:f5
13:45:54.367499,-86,20:aa:4b:e1:e1:f5
13:45:54.469937,-87,20:aa:4b:e1:e1:f5
13:45:54.572312,-87,20:aa:4b:e1:e1:f5
13:45:54.920138,-90,2c:41:38:ef:3b:f6
13:45:54.961625,-82,9c:1c:12:c1:51:80
13:45:54.961747,-83,9c:1c:12:c1:51:81
13:45:54.962018,-83,9c:1c:12:c1:51:82
13:45:54.962475,-82,9c:1c:12:c1:51:83
13:45:54.962785,-82,9c:1c:12:c1:51:84
13:45:54.963127,-83,9c:1c:12:c1:51:85
13:45:54.963225,-83,9c:1c:12:c1:51:84
13:45:55.048211,-90,2c:41:38:ef:3b:f0
13:45:55.064449,-83,9c:1c:12:c1:51:80
13:45:55.064822,-82,9c:1c:12:c1:51:81
13:45:55.065143,-83,9c:1c:12:c1:51:82
13:45:55.065343,-82,9c:1c:12:c1:51:83
13:45:55.065540,-82,9c:1c:12:c1:51:84
13:45:55.065881,-82,9c:1c:12:c1:51:85
13:45:55.074034,-89,2c:41:38:ef:3b:f1
13:45:55.099751,-89,2c:41:38:ef:3b:f4
13:45:55.125372,-89,2c:41:38:ef:3b:f6
13:45:55.167013,-83,9c:1c:12:c1:51:80
13:45:55.167352,-82,9c:1c:12:c1:51:81
13:45:55.167551,-83,9c:1c:12:c1:51:82
13:45:55.167748,-83,9c:1c:12:c1:51:83
13:45:55.167944,-83,9c:1c:12:c1:51:84
13:45:55.168299,-83,9c:1c:12:c1:51:85
13:45:55.253205,-90,2c:41:38:ef:3b:f0
13:45:55.269246,-82,9c:1c:12:c1:51:80
13:45:55.269577,-83,9c:1c:12:c1:51:81
13:45:55.269835,-82,9c:1c:12:c1:51:82
13:45:55.270036,-83,9c:1c:12:c1:51:83
13:45:55.270375,-82,9c:1c:12:c1:51:84
13:45:55.270689,-82,9c:1c:12:c1:51:85
13:45:55.278835,-91,2c:41:38:ef:3b:f1
13:45:55.304506,-89,2c:41:38:ef:3b:f4
13:45:55.330101,-89,2c:41:38:ef:3b:f6
13:45:55.372077,-82,9c:1c:12:c1:51:80
13:45:55.372413,-82,9c:1c:12:c1:51:81
13:45:55.372612,-83,9c:1c:12:c1:51:82
13:45:55.372810,-82,9c:1c:12:c1:51:83
13:45:55.373006,-82,9c:1c:12:c1:51:84
13:45:55.373201,-82,9c:1c:12:c1:51:85
13:45:55.474464,-83,9c:1c:12:c1:51:80
13:45:55.474853,-83,9c:1c:12:c1:51:81
13:45:55.475056,-82,9c:1c:12:c1:51:82
13:45:55.475254,-83,9c:1c:12:c1:51:83
13:45:55.475451,-82,9c:1c:12:c1:51:84
13:45:55.475647,-83,9c:1c:12:c1:51:85
13:45:55.483613,-90,2c:41:38:ef:3b:f1
13:45:55.509389,-90,2c:41:38:ef:3b:f4
13:45:55.576902,-82,9c:1c:12:c1:51:80
13:45:55.577234,-83,9c:1c:12:c1:51:81
13:45:55.577432,-83,9c:1c:12:c1:51:82
13:45:55.577629,-82,9c:1c:12:c1:51:83
13:45:55.577825,-82,9c:1c:12:c1:51:84
13:45:55.578021,-83,9c:1c:12:c1:51:85
13:45:55.663316,-88,2c:41:38:ef:3b:f0
13:45:55.678819,-83,9c:1c:12:c1:51:80
13:45:55.679154,-83,9c:1c:12:c1:51:81
13:45:55.679464,-83,9c:1c:12:c1:51:82
13:45:55.679914,-83,9c:1c:12:c1:51:83
13:45:55.680232,-83,9c:1c:12:c1:51:84
13:45:55.680430,-83,9c:1c:12:c1:51:85
13:45:55.688426,-89,2c:41:38:ef:3b:f1
13:45:55.714566,-93,2c:41:38:ef:3b:f4
13:45:55.781567,-83,9c:1c:12:c1:51:80
13:45:55.781909,-83,9c:1c:12:c1:51:81
13:45:55.782108,-83,9c:1c:12:c1:51:82
13:45:55.782304,-84,9c:1c:12:c1:51:83
13:45:55.782500,-84,9c:1c:12:c1:51:84
13:45:55.782695,-83,9c:1c:12:c1:51:85
13:45:55.868185,-89,2c:41:38:ef:3b:f0
13:45:55.883642,-83,9c:1c:12:c1:51:80
13:45:55.883974,-82,9c:1c:12:c1:51:81
13:45:55.884172,-83,9c:1c:12:c1:51:82
13:45:55.884369,-83,9c:1c:12:c1:51:83
13:45:55.884784,-83,9c:1c:12:c1:51:84
13:45:55.885138,-83,9c:1c:12:c1:51:85
13:45:55.885475,-83,9c:1c:12:c1:51:84
13:45:55.893407,-89,2c:41:38:ef:3b:f1
13:45:55.918893,-89,2c:41:38:ef:3b:f4
13:45:55.944476,-89,2c:41:38:ef:3b:f6
13:45:55.986058,-83,9c:1c:12:c1:51:80
13:45:55.986427,-83,9c:1c:12:c1:51:81
13:45:55.986742,-82,9c:1c:12:c1:51:82
13:45:55.986941,-83,9c:1c:12:c1:51:83
13:45:55.987136,-83,9c:1c:12:c1:51:84
13:45:55.987445,-83,9c:1c:12:c1:51:85
13:45:56.072458,-89,2c:41:38:ef:3b:f0
13:45:56.088480,-83,9c:1c:12:c1:51:80
13:45:56.088812,-83,9c:1c:12:c1:51:81
13:45:56.089012,-83,9c:1c:12:c1:51:82
13:45:56.089207,-82,9c:1c:12:c1:51:83
13:45:56.089547,-83,9c:1c:12:c1:51:84
13:45:56.089950,-83,9c:1c:12:c1:51:85
13:45:56.098031,-90,2c:41:38:ef:3b:f1
13:45:56.123899,-88,2c:41:38:ef:3b:f4
13:45:56.149204,-88,2c:41:38:ef:3b:f6
13:45:56.190916,-82,9c:1c:12:c1:51:80
13:45:56.191280,-83,9c:1c:12:c1:51:81
13:45:56.191483,-83,9c:1c:12:c1:51:82
13:45:56.191681,-84,9c:1c:12:c1:51:83
13:45:56.191876,-83,9c:1c:12:c1:51:84
13:45:56.192185,-83,9c:1c:12:c1:51:85
13:45:56.192493,-83,9c:1c:12:c1:51:84
13:45:56.293700,-83,9c:1c:12:c1:51:80
13:45:56.294031,-83,9c:1c:12:c1:51:81
13:45:56.294230,-83,9c:1c:12:c1:51:82
13:45:56.294426,-83,9c:1c:12:c1:51:83
13:45:56.294620,-83,9c:1c:12:c1:51:84
13:45:56.294854,-83,9c:1c:12:c1:51:85
13:45:56.302835,-90,2c:41:38:ef:3b:f1
13:45:56.328672,-89,2c:41:38:ef:3b:f4
13:45:56.354104,-89,2c:41:38:ef:3b:f6
13:45:56.395728,-83,9c:1c:12:c1:51:80
13:45:56.396058,-83,9c:1c:12:c1:51:81
13:45:56.396257,-83,9c:1c:12:c1:51:82
13:45:56.396454,-83,9c:1c:12:c1:51:83
13:45:56.396761,-84,9c:1c:12:c1:51:84
13:45:56.397100,-84,9c:1c:12:c1:51:85
13:45:56.482608,-90,2c:41:38:ef:3b:f0
13:45:56.497985,-82,9c:1c:12:c1:51:80
13:45:56.498319,-83,9c:1c:12:c1:51:81
13:45:56.498659,-83,9c:1c:12:c1:51:82
13:45:56.498973,-83,9c:1c:12:c1:51:83
13:45:56.499320,-83,9c:1c:12:c1:51:84
13:45:56.499657,-83,9c:1c:12:c1:51:85
13:45:56.516085,-89,2c:41:38:ef:3b:f1
13:45:56.535744,-91,2c:41:38:ef:3b:f4
13:45:56.558991,-89,2c:41:38:ef:3b:f6
13:45:56.600443,-83,9c:1c:12:c1:51:80
13:45:56.600805,-83,9c:1c:12:c1:51:81
13:45:56.601008,-83,9c:1c:12:c1:51:82
13:45:56.601206,-84,9c:1c:12:c1:51:83
13:45:56.601513,-84,9c:1c:12:c1:51:84
13:45:56.601822,-82,9c:1c:12:c1:51:85
13:45:56.687393,-89,2c:41:38:ef:3b:f0
13:45:56.702790,-83,9c:1c:12:c1:51:80
13:45:56.703154,-82,9c:1c:12:c1:51:81
13:45:56.703471,-83,9c:1c:12:c1:51:82
13:45:56.703810,-83,9c:1c:12:c1:51:83
13:45:56.704009,-83,9c:1c:12:c1:51:84
13:45:56.704319,-83,9c:1c:12:c1:51:85
13:45:56.712425,-88,2c:41:38:ef:3b:f1
13:45:56.738192,-90,2c:41:38:ef:3b:f4
13:45:56.763697,-89,2c:41:38:ef:3b:f6
13:45:56.805657,-82,9c:1c:12:c1:51:80
13:45:56.806022,-83,9c:1c:12:c1:51:81
13:45:56.806225,-83,9c:1c:12:c1:51:82
13:45:56.806422,-83,9c:1c:12:c1:51:83
13:45:56.806619,-83,9c:1c:12:c1:51:84
13:45:56.806845,-83,9c:1c:12:c1:51:85
13:45:57.155863,-93,c8:4c:75:40:90:5b
13:45:57.269336,-91,c8:4c:75:40:90:5b
13:45:57.672726,-92,c8:4c:75:40:90:5b
13:45:57.884139,-93,c8:4c:75:40:90:5b
13:45:58.385509,-93,c8:4c:75:40:90:5b
13:45:58.815581,-93,c8:4c:75:40:90:5b
13:45:58.901554,-93,c8:4c:75:40:90:5b
13:45:58.999831,-95,c8:4c:75:40:90:5b
13:45:59.384444,-87,20:aa:4b:e1:e1:f5
13:45:59.486807,-97,20:aa:4b:e1:e1:f5
13:45:59.692319,-87,20:aa:4b:e1:e1:f5
13:45:59.794742,-87,20:aa:4b:e1:e1:f5
13:45:59.897052,-86,20:aa:4b:e1:e1:f5
13:46:00.101633,-86,20:aa:4b:e1:e1:f5
13:46:00.204472,-87,20:aa:4b:e1:e1:f5
13:46:00.409116,-86,20:aa:4b:e1:e1:f5
13:46:00.511474,-88,20:aa:4b:e1:e1:f5
13:46:00.818684,-86,20:aa:4b:e1:e1:f5
13:46:00.921069,-90,20:aa:4b:e1:e1:f5
13:46:01.023500,-86,20:aa:4b:e1:e1:f5
13:46:01.125880,-87,20:aa:4b:e1:e1:f5
13:46:01.330673,-86,20:aa:4b:e1:e1:f5
13:46:01.601918,-90,2c:41:38:ef:3b:f0
13:46:01.617679,-81,9c:1c:12:c1:51:80
13:46:01.617812,-83,9c:1c:12:c1:51:81
13:46:01.618098,-83,9c:1c:12:c1:51:82
13:46:01.618470,-82,9c:1c:12:c1:51:83
13:46:01.618755,-82,9c:1c:12:c1:51:84
13:46:01.619121,-82,9c:1c:12:c1:51:85
13:46:01.627210,-89,2c:41:38:ef:3b:f1
13:46:01.652898,-89,2c:41:38:ef:3b:f4
13:46:01.678491,-90,2c:41:38:ef:3b:f6
13:46:01.720736,-81,9c:1c:12:c1:51:80
13:46:01.721060,-82,9c:1c:12:c1:51:81
13:46:01.721252,-82,9c:1c:12:c1:51:82
13:46:01.721444,-82,9c:1c:12:c1:51:83
13:46:01.721636,-82,9c:1c:12:c1:51:84
13:46:01.721828,-83,9c:1c:12:c1:51:85
13:46:01.807135,-90,2c:41:38:ef:3b:f0
13:46:01.822702,-82,9c:1c:12:c1:51:80
13:46:01.823034,-82,9c:1c:12:c1:51:81
13:46:01.823376,-82,9c:1c:12:c1:51:82
13:46:01.823691,-82,9c:1c:12:c1:51:83
13:46:01.823998,-82,9c:1c:12:c1:51:84
13:46:01.824348,-82,9c:1c:12:c1:51:85
13:46:01.832416,-90,2c:41:38:ef:3b:f1
13:46:01.867314,-90,2c:41:38:ef:3b:f4
13:46:01.883720,-89,2c:41:38:ef:3b:f6
13:46:01.925435,-81,9c:1c:12:c1:51:80
13:46:01.925768,-82,9c:1c:12:c1:51:81
13:46:01.925969,-82,9c:1c:12:c1:51:82
13:46:01.926166,-82,9c:1c:12:c1:51:83
13:46:01.926364,-81,9c:1c:12:c1:51:84
13:46:01.926703,-82,9c:1c:12:c1:51:85
13:46:01.926896,-82,9c:1c:12:c1:51:84
13:46:02.012196,-90,2c:41:38:ef:3b:f0
13:46:02.027619,-82,9c:1c:12:c1:51:80
13:46:02.027951,-82,9c:1c:12:c1:51:81
13:46:02.028151,-82,9c:1c:12:c1:51:82
13:46:02.028350,-83,9c:1c:12:c1:51:83
13:46:02.028688,-82,9c:1c:12:c1:51:84
13:46:02.029030,-82,9c:1c:12:c1:51:85
13:46:02.037293,-91,2c:41:38:ef:3b:f1
13:46:02.062881,-89,2c:41:38:ef:3b:f4
13:46:02.088963,-89,2c:41:38:ef:3b:f6
13:46:02.130239,-81,9c:1c:12:c1:51:80
13:46:02.130572,-82,9c:1c:12:c1:51:81
13:46:02.130771,-83,9c:1c:12:c1:51:82
13:46:02.130968,-82,9c:1c:12:c1:51:83
13:46:02.131165,-82,9c:1c:12:c1:51:84
13:46:02.131478,-82,9c:1c:12:c1:51:85
13:46:02.216976,-89,2c:41:38:ef:3b:f0
13:46:02.232343,-81,9c:1c:12:c1:51:80
13:46:02.232705,-82,9c:1c:12:c1:51:81
13:46:02.233023,-82,9c:1c:12:c1:51:82
13:46:02.233363,-82,9c:1c:12:c1:51:83
13:46:02.233676,-82,9c:1c:12:c1:51:84
13:46:02.234013,-82,9c:1c:12:c1:51:85
13:46:02.242028,-89,2c:41:38:ef:3b:f1
13:46:02.267906,-89,2c:41:38:ef:3b:f4
13:46:02.293734,-90,2c:41:38:ef:3b:f6
13:46:02.335320,-81,9c:1c:12:c1:51:80
13:46:02.335655,-83,9c:1c:12:c1:51:81
13:46:02.335855,-82,9c:1c:12:c1:51:82
13:46:02.336054,-82,9c:1c:12:c1:51:83
13:46:02.336249,-83,9c:1c:12:c1:51:84
13:46:02.336446,-81,9c:1c:12:c1:51:85
13:46:02.421812,-89,2c:41:38:ef:3b:f0
13:46:02.437208,-82,9c:1c:12:c1:51:80
13:46:02.437543,-82,9c:1c:12:c1:51:81
13:46:02.437856,-82,9c:1c:12:c1:51:82
13:46:02.438164,-82,9c:1c:12:c1:51:83
13:46:02.438359,-82,9c:1c:12:c1:51:84
13:46:02.438711,-82,9c:1c:12:c1:51:85
13:46:02.447079,-90,2c:41:38:ef:3b:f1
13:46:02.472700,-89,2c:41:38:ef:3b:f4
13:46:02.498564,-88,2c:41:38:ef:3b:f6
13:46:02.540073,-81,9c:1c:12:c1:51:80
13:46:02.540441,-81,9c:1c:12:c1:51:81
13:46:02.540644,-82,9c:1c:12:c1:51:82
13:46:02.540842,-82,9c:1c:12:c1:51:83
13:46:02.541037,-82,9c:1c:12:c1:51:84
13:46:02.541233,-82,9c:1c:12:c1:51:85
13:46:02.626344,-88,2c:41:38:ef:3b:f0
13:46:02.642013,-82,9c:1c:12:c1:51:80
13:46:02.642377,-81,9c:1c:12:c1:51:81
13:46:02.642580,-83,9c:1c:12:c1:51:82
13:46:02.642919,-82,9c:1c:12:c1:51:83
13:46:02.643232,-81,9c:1c:12:c1:51:84
13:46:02.643543,-82,9c:1c:12:c1:51:85
13:46:02.651685,-90,2c:41:38:ef:3b:f1
13:46:02.677483,-90,2c:41:38:ef:3b:f4
13:46:02.703368,-90,2c:41:38:ef:3b:f6
13:46:02.744322,-82,9c:1c:12:c1:51:80
13:46:02.744652,-82,9c:1c:12:c1:51:81
13:46:02.745060,-82,9c:1c:12:c1:51:82
13:46:02.745370,-82,9c:1c:12:c1:51:83
13:46:02.745566,-81,9c:1c:12:c1:51:84
13:46:02.745903,-82,9c:1c:12:c1:51:85
13:46:02.847266,-81,9c:1c:12:c1:51:80
13:46:02.847601,-82,9c:1c:12:c1:51:81
13:46:02.847801,-81,9c:1c:12:c1:51:82
13:46:02.847998,-82,9c:1c:12:c1:51:83
13:46:02.848192,-82,9c:1c:12:c1:51:84
13:46:02.848387,-82,9c:1c:12:c1:51:85
13:46:02.856495,-88,2c:41:38:ef:3b:f1
13:46:02.882568,-89,2c:41:38:ef:3b:f4
13:46:02.907907,-91,2c:41:38:ef:3b:f6
13:46:02.949673,-82,9c:1c:12:c1:51:80
13:46:02.950084,-83,9c:1c:12:c1:51:81
13:46:02.950284,-82,9c:1c:12:c1:51:82
13:46:02.950483,-82,9c:1c:12:c1:51:83
13:46:02.950677,-82,9c:1c:12:c1:51:84
13:46:02.950874,-82,9c:1c:12:c1:51:85
13:46:03.036196,-88,2c:41:38:ef:3b:f0
13:46:03.051613,-82,9c:1c:12:c1:51:80
13:46:03.051975,-82,9c:1c:12:c1:51:81
13:46:03.052178,-82,9c:1c:12:c1:51:82
13:46:03.052519,-82,9c:1c:12:c1:51:83
13:46:03.052832,-82,9c:1c:12:c1:51:84
13:46:03.053139,-82,9c:1c:12:c1:51:85
13:46:03.061290,-89,2c:41:38:ef:3b:f1
13:46:03.087417,-88,2c:41:38:ef:3b:f4
13:46:03.112739,-90,2c:41:38:ef:3b:f6
13:46:03.154216,-82,9c:1c:12:c1:51:80
13:46:03.154547,-81,9c:1c:12:c1:51:81
13:46:03.154811,-82,9c:1c:12:c1:51:82
13:46:03.155015,-82,9c:1c:12:c1:51:83
13:46:03.155213,-82,9c:1c:12:c1:51:84
13:46:03.155409,-81,9c:1c:12:c1:51:85
13:46:03.240988,-89,2c:41:38:ef:3b:f0
13:46:03.256406,-81,9c:1c:12:c1:51:80
13:46:03.256740,-82,9c:1c:12:c1:51:81
13:46:03.256938,-82,9c:1c:12:c1:51:82
13:46:03.257250,-82,9c:1c:12:c1:51:83
13:46:03.257556,-82,9c:1c:12:c1:51:84
13:46:03.257893,-82,9c:1c:12:c1:51:85
13:46:03.266125,-88,2c:41:38:ef:3b:f1
13:46:03.317543,-90,2c:41:38:ef:3b:f6
13:46:03.359244,-82,9c:1c:12:c1:51:80
13:46:03.359577,-82,9c:1c:12:c1:51:81
13:46:03.359841,-82,9c:1c:12:c1:51:82
13:46:03.360044,-82,9c:1c:12:c1:51:83
13:46:03.360241,-82,9c:1c:12:c1:51:84
13:46:03.360437,-82,9c:1c:12:c1:51:85
13:46:03.445792,-89,2c:41:38:ef:3b:f0
13:46:03.461166,-81,9c:1c:12:c1:51:80
13:46:03.461498,-82,9c:1c:12:c1:51:81
13:46:03.461837,-83,9c:1c:12:c1:51:82
13:46:03.462183,-83,9c:1c:12:c1:51:83
13:46:03.462496,-81,9c:1c:12:c1:51:84
13:46:03.462832,-82,9c:1c:12:c1:51:85
13:46:03.496986,-89,2c:41:38:ef:3b:f4
13:46:03.522103,-89,2c:41:38:ef:3b:f6
13:46:06.040435,-86,20:aa:4b:e1:e1:f5
13:46:06.245914,-86,20:aa:4b:e1:e1:f5
13:46:06.451729,-88,20:aa:4b:e1:e1:f5
13:46:06.655566,-88,20:aa:4b:e1:e1:f5
13:46:07.372315,-88,20:aa:4b:e1:e1:f5
13:46:07.679482,-88,20:aa:4b:e1:e1:f5
13:46:07.781894,-88,20:aa:4b:e1:e1:f5
13:46:07.884271,-87,20:aa:4b:e1:e1:f5
13:46:08.171143,-86,9c:1c:12:c1:51:80
13:46:08.171254,-85,9c:1c:12:c1:51:81
13:46:08.171683,-85,9c:1c:12:c1:51:82
13:46:08.172033,-85,9c:1c:12:c1:51:83
13:46:08.172331,-85,9c:1c:12:c1:51:84
13:46:08.172661,-87,9c:1c:12:c1:51:85
13:46:08.180881,-90,2c:41:38:ef:3b:f1
13:46:08.206621,-89,2c:41:38:ef:3b:f4
13:46:08.232053,-89,2c:41:38:ef:3b:f6
13:46:08.273689,-86,9c:1c:12:c1:51:80
13:46:08.273802,-86,9c:1c:12:c1:51:81
13:46:08.274073,-86,9c:1c:12:c1:51:82
13:46:08.274427,-86,9c:1c:12:c1:51:83
13:46:08.274763,-85,9c:1c:12:c1:51:84
13:46:08.275071,-85,9c:1c:12:c1:51:85
13:46:08.360783,-89,2c:41:38:ef:3b:f0
13:46:08.376377,-87,9c:1c:12:c1:51:80
13:46:08.376715,-86,9c:1c:12:c1:51:81
13:46:08.377065,-84,9c:1c:12:c1:51:82
13:46:08.377414,-86,9c:1c:12:c1:51:83
13:46:08.377611,-86,9c:1c:12:c1:51:84
13:46:08.377807,-86,9c:1c:12:c1:51:85
13:46:08.386135,-89,2c:41:38:ef:3b:f1
13:46:08.411940,-89,2c:41:38:ef:3b:f4
13:46:08.437539,-88,2c:41:38:ef:3b:f6
13:46:08.478949,-86,9c:1c:12:c1:51:80
13:46:08.479285,-86,9c:1c:12:c1:51:81
13:46:08.479482,-85,9c:1c:12:c1:51:82
13:46:08.479681,-85,9c:1c:12:c1:51:83
13:46:08.479976,-86,9c:1c:12:c1:51:84
13:46:08.480317,-86,9c:1c:12:c1:51:85
13:46:08.565786,-88,2c:41:38:ef:3b:f0
13:46:08.581136,-85,9c:1c:12:c1:51:80
13:46:08.581501,-86,9c:1c:12:c1:51:81
13:46:08.581817,-85,9c:1c:12:c1:51:82
13:46:08.582126,-85,9c:1c:12:c1:51:83
13:46:08.582462,-84,9c:1c:12:c1:51:84
13:46:08.582802,-86,9c:1c:12:c1:51:85
13:46:08.590924,-90,2c:41:38:ef:3b:f1
13:46:08.616734,-89,2c:41:38:ef:3b:f4
13:46:08.642173,-88,2c:41:38:ef:3b:f6
13:46:08.684041,-85,9c:1c:12:c1:51:80
13:46:08.684377,-86,9c:1c:12:c1:51:81
13:46:08.684575,-87,9c:1c:12:c1:51:82
13:46:08.684836,-86,9c:1c:12:c1:51:83
13:46:08.685035,-86,9c:1c:12:c1:51:84
13:46:08.685232,-84,9c:1c:12:c1:51:85
13:46:08.770179,-89,2c:41:38:ef:3b:f0
13:46:08.795690,-88,2c:41:38:ef:3b:f1
13:46:08.821525,-88,2c:41:38:ef:3b:f4
13:46:08.846908,-89,2c:41:38:ef:3b:f6
13:46:08.888847,-86,9c:1c:12:c1:51:80
13:46:08.889182,-85,9c:1c:12:c1:51:81
13:46:08.889380,-85,9c:1c:12:c1:51:82
13:46:08.889577,-85,9c:1c:12:c1:51:83
13:46:08.889836,-87,9c:1c:12:c1:51:84
13:46:08.890038,-86,9c:1c:12:c1:51:85
13:46:08.890228,-86,9c:1c:12:c1:51:84
13:46:08.974988,-89,2c:41:38:ef:3b:f0
13:46:08.990758,-87,9c:1c:12:c1:51:80
13:46:08.991088,-86,9c:1c:12:c1:51:81
13:46:08.991427,-86,9c:1c:12:c1:51:82
13:46:08.991748,-85,9c:1c:12:c1:51:83
13:46:08.992056,-86,9c:1c:12:c1:51:84
13:46:08.992397,-86,9c:1c:12:c1:51:85
13:46:09.026389,-90,2c:41:38:ef:3b:f4
13:46:09.052240,-90,2c:41:38:ef:3b:f6
13:46:09.093623,-86,9c:1c:12:c1:51:80
13:46:09.093958,-84,9c:1c:12:c1:51:81
13:46:09.094156,-86,9c:1c:12:c1:51:82
13:46:09.094352,-88,9c:1c:12:c1:51:83
13:46:09.094548,-86,9c:1c:12:c1:51:84
13:46:09.094810,-86,9c:1c:12:c1:51:85
13:46:09.095003,-85,9c:1c:12:c1:51:84
13:46:09.195563,-85,9c:1c:12:c1:51:80
13:46:09.195921,-85,9c:1c:12:c1:51:81
13:46:09.196236,-86,9c:1c:12:c1:51:82
13:46:09.196544,-84,9c:1c:12:c1:51:83
13:46:09.196739,-85,9c:1c:12:c1:51:84
13:46:09.197073,-86,9c:1c:12:c1:51:85
13:46:09.205320,-89,2c:41:38:ef:3b:f1
13:46:09.231172,-89,2c:41:38:ef:3b:f4
13:46:09.256731,-90,2c:41:38:ef:3b:f6
13:46:09.298417,-86,9c:1c:12:c1:51:80
13:46:09.298750,-85,9c:1c:12:c1:51:81
13:46:09.298949,-85,9c:1c:12:c1:51:82
13:46:09.299146,-87,9c:1c:12:c1:51:83
13:46:09.299340,-86,9c:1c:12:c1:51:84
13:46:09.299536,-84,9c:1c:12:c1:51:85
13:46:09.384562,-88,2c:41:38:ef:3b:f0
13:46:09.400453,-84,9c:1c:12:c1:51:80
13:46:09.400787,-84,9c:1c:12:c1:51:81
13:46:09.400986,-86,9c:1c:12:c1:51:82
13:46:09.401208,-87,9c:1c:12:c1:51:83
13:46:09.401546,-86,9c:1c:12:c1:51:84
13:46:09.401866,-85,9c:1c:12:c1:51:85
13:46:09.436168,-89,2c:41:38:ef:3b:f4
13:46:09.461565,-89,2c:41:38:ef:3b:f6
13:46:09.502771,-86,9c:1c:12:c1:51:80
13:46:09.503135,-87,9c:1c:12:c1:51:81
13:46:09.503448,-86,9c:1c:12:c1:51:82
13:46:09.503787,-85,9c:1c:12:c1:51:83
13:46:09.504127,-86,9c:1c:12:c1:51:85
13:46:09.589886,-89,2c:41:38:ef:3b:f0
13:46:09.605225,-85,9c:1c:12:c1:51:80
13:46:09.605559,-85,9c:1c:12:c1:51:81
13:46:09.605757,-85,9c:1c:12:c1:51:82
13:46:09.605986,-86,9c:1c:12:c1:51:83
13:46:09.606329,-84,9c:1c:12:c1:51:84
13:46:09.606640,-86,9c:1c:12:c1:51:85
13:46:09.614960,-89,2c:41:38:ef:3b:f1
13:46:09.640776,-90,2c:41:38:ef:3b:f4
13:46:09.666379,-89,2c:41:38:ef:3b:f6
13:46:09.707756,-85,9c:1c:12:c1:51:80
13:46:09.708088,-86,9c:1c:12:c1:51:81
13:46:09.708289,-86,9c:1c:12:c1:51:82
13:46:09.708487,-87,9c:1c:12:c1:51:83
13:46:09.708680,-86,9c:1c:12:c1:51:84
13:46:09.708988,-84,9c:1c:12:c1:51:85
13:46:09.794178,-89,2c:41:38:ef:3b:f0
13:46:09.809977,-85,9c:1c:12:c1:51:80
13:46:09.810344,-86,9c:1c:12:c1:51:81
13:46:09.810689,-85,9c:1c:12:c1:51:82
13:46:09.811002,-85,9c:1c:12:c1:51:83
13:46:09.811199,-85,9c:1c:12:c1:51:84
13:46:09.811396,-84,9c:1c:12:c1:51:85
13:46:09.845817,-91,2c:41:38:ef:3b:f4
13:46:09.871145,-91,2c:41:38:ef:3b:f6
13:46:09.912551,-86,9c:1c:12:c1:51:80
13:46:09.912920,-85,9c:1c:12:c1:51:81
13:46:09.913125,-85,9c:1c:12:c1:51:82
13:46:09.913354,-86,9c:1c:12:c1:51:83
13:46:09.913556,-86,9c:1c:12:c1:51:84
13:46:09.913895,-85,9c:1c:12:c1:51:85
13:46:09.999408,-90,2c:41:38:ef:3b:f0
13:46:10.014835,-86,9c:1c:12:c1:51:80
13:46:10.015168,-85,9c:1c:12:c1:51:81
13:46:10.015368,-86,9c:1c:12:c1:51:82
13:46:10.015567,-86,9c:1c:12:c1:51:83
13:46:10.015905,-86,9c:1c:12:c1:51:84
13:46:10.016220,-85,9c:1c:12:c1:51:85
13:46:10.024506,-88,2c:41:38:ef:3b:f1
13:46:10.050680,-89,2c:41:38:ef:3b:f4
13:46:10.075940,-88,2c:41:38:ef:3b:f6
13:46:10.117239,-85,9c:1c:12:c1:51:80
13:46:10.117603,-87,9c:1c:12:c1:51:81
13:46:10.117808,-85,9c:1c:12:c1:51:82
13:46:10.118655,-87,9c:1c:12:c1:51:84
