13:44:06.984268,-67,c8:4c:75:40:90:5b
13:44:07.024077,-74,98:fc:11:6b:d6:fc
13:44:07.081069,-67,c8:4c:75:40:90:5b
13:44:07.126609,-73,98:fc:11:6b:d6:fc
13:44:07.179991,-69,c8:4c:75:40:90:5b
13:44:07.229357,-72,98:fc:11:6b:d6:fc
13:44:07.291942,-68,c8:4c:75:40:90:5b
13:44:07.331786,-71,98:fc:11:6b:d6:fc
13:44:07.388795,-69,c8:4c:75:40:90:5b
13:44:07.434125,-71,98:fc:11:6b:d6:fc
13:44:07.487122,-71,c8:4c:75:40:90:5b
13:44:07.536576,-72,98:fc:11:6b:d6:fc
13:44:07.599343,-70,c8:4c:75:40:90:5b
13:44:07.638915,-72,98:fc:11:6b:d6:fc
13:44:07.696021,-68,c8:4c:75:40:90:5b
13:44:07.741331,-72,98:fc:11:6b:d6:fc
13:44:07.794340,-67,c8:4c:75:40:90:5b
13:44:07.843683,-71,98:fc:11:6b:d6:fc
13:44:07.906620,-67,c8:4c:75:40:90:5b
13:44:07.946202,-71,98:fc:11:6b:d6:fc
13:44:08.003203,-67,c8:4c:75:40:90:5b
13:44:08.048528,-71,98:fc:11:6b:d6:fc
13:44:08.101438,-67,c8:4c:75:40:90:5b
13:44:08.150973,-71,98:fc:11:6b:d6:fc
13:44:08.213788,-67,c8:4c:75:40:90:5b
13:44:08.253333,-71,98:fc:11:6b:d6:fc
13:44:08.310431,-68,c8:4c:75:40:90:5b
13:44:08.355810,-72,98:fc:11:6b:d6:fc
13:44:08.408714,-68,c8:4c:75:40:90:5b
13:44:08.458121,-72,98:fc:11:6b:d6:fc
13:44:08.520894,-71,c8:4c:75:40:90:5b
13:44:08.560575,-72,98:fc:11:6b:d6:fc
13:44:08.617608,-70,c8:4c:75:40:90:5b
13:44:08.662933,-74,98:fc:11:6b:d6:fc
13:44:08.715917,-71,c8:4c:75:40:90:5b
13:44:08.765437,-74,98:fc:11:6b:d6:fc
13:44:08.828521,-70,c8:4c:75:40:90:5b
13:44:08.867767,-73,98:fc:11:6b:d6:fc
13:44:10.239350,-82,c4:6e:1f:bd:4d:ec
13:44:10.853741,-74,c4:6e:1f:bd:4d:ec
13:44:13.680224,-79,98:fc:11:6b:d6:fc
13:44:13.743601,-65,c8:4c:75:40:90:5b
13:44:13.782990,-79,98:fc:11:6b:d6:fc
13:44:13.840024,-64,c8:4c:75:40:90:5b
13:44:13.885450,-79,98:fc:11:6b:d6:fc
13:44:13.938286,-64,c8:4c:75:40:90:5b
13:44:13.987740,-80,98:fc:11:6b:d6:fc
13:44:14.050356,-64,c8:4c:75:40:90:5b
13:44:14.090262,-80,98:fc:11:6b:d6:fc
13:44:14.147178,-65,c8:4c:75:40:90:5b
13:44:14.192580,-79,98:fc:11:6b:d6:fc
13:44:14.245524,-64,c8:4c:75:40:90:5b
13:44:14.295091,-77,98:fc:11:6b:d6:fc
13:44:14.357467,-64,c8:4c:75:40:90:5b
13:44:14.397407,-78,98:fc:11:6b:d6:fc
13:44:14.454360,-64,c8:4c:75:40:90:5b
13:44:14.499876,-77,98:fc:11:6b:d6:fc
13:44:14.552695,-65,c8:4c:75:40:90:5b
13:44:14.602243,-78,98:fc:11:6b:d6:fc
13:44:14.664669,-64,c8:4c:75:40:90:5b
13:44:14.704610,-79,98:fc:11:6b:d6:fc
13:44:14.761558,-63,c8:4c:75:40:90:5b
13:44:14.807062,-80,98:fc:11:6b:d6:fc
13:44:14.859965,-64,c8:4c:75:40:90:5b
13:44:14.909380,-78,98:fc:11:6b:d6:fc
13:44:14.971830,-64,c8:4c:75:40:90:5b
13:44:15.011830,-79,98:fc:11:6b:d6:fc
13:44:15.068757,-64,c8:4c:75:40:90:5b
13:44:15.114220,-78,98:fc:11:6b:d6:fc
13:44:15.167069,-66,c8:4c:75:40:90:5b
13:44:15.216636,-80,98:fc:11:6b:d6:fc
13:44:15.279063,-64,c8:4c:75:40:90:5b
13:44:15.319012,-79,98:fc:11:6b:d6:fc
13:44:15.375943,-64,c8:4c:75:40:90:5b
13:44:15.421434,-80,98:fc:11:6b:d6:fc
13:44:15.474273,-64,c8:4c:75:40:90:5b
13:44:15.523785,-81,98:fc:11:6b:d6:fc
13:44:15.586280,-63,c8:4c:75:40:90:5b
13:44:16.997711,-73,c4:6e:1f:bd:4d:ec
13:44:17.100120,-74,c4:6e:1f:bd:4d:ec
13:44:17.202387,-75,c4:6e:1f:bd:4d:ec
13:44:17.304943,-76,c4:6e:1f:bd:4d:ec
13:44:17.407262,-78,c4:6e:1f:bd:4d:ec
13:44:17.612100,-79,c4:6e:1f:bd:4d:ec
13:44:17.714430,-78,c4:6e:1f:bd:4d:ec
13:44:18.092411,-89,9c:1c:12:c1:51:82
13:44:18.194609,-90,9c:1c:12:c1:51:80
13:44:18.195013,-91,9c:1c:12:c1:51:81
13:44:18.297327,-91,9c:1c:12:c1:51:81
13:44:18.400008,-92,9c:1c:12:c1:51:81
13:44:18.707505,-90,9c:1c:12:c1:51:82
13:44:20.233858,-84,98:fc:11:6b:d6:fc
13:44:20.290575,-65,c8:4c:75:40:90:5b
13:44:20.336292,-83,98:fc:11:6b:d6:fc
13:44:20.388647,-65,c8:4c:75:40:90:5b
13:44:20.439017,-85,98:fc:11:6b:d6:fc
13:44:20.501673,-64,c8:4c:75:40:90:5b
13:44:20.541422,-85,98:fc:11:6b:d6:fc
13:44:20.598354,-66,c8:4c:75:40:90:5b
13:44:20.643847,-84,98:fc:11:6b:d6:fc
13:44:20.696608,-64,c8:4c:75:40:90:5b
13:44:20.746331,-84,98:fc:11:6b:d6:fc
13:44:20.809327,-64,c8:4c:75:40:90:5b
13:44:20.848578,-84,98:fc:11:6b:d6:fc
13:44:20.905599,-65,c8:4c:75:40:90:5b
13:44:20.951060,-85,98:fc:11:6b:d6:fc
13:44:21.003775,-65,c8:4c:75:40:90:5b
13:44:21.053421,-84,98:fc:11:6b:d6:fc
13:44:21.116400,-65,c8:4c:75:40:90:5b
13:44:21.155897,-85,98:fc:11:6b:d6:fc
13:44:21.212692,-65,c8:4c:75:40:90:5b
13:44:21.258254,-85,98:fc:11:6b:d6:fc
13:44:21.311031,-65,c8:4c:75:40:90:5b
13:44:21.360706,-85,98:fc:11:6b:d6:fc
13:44:21.423399,-65,c8:4c:75:40:90:5b
13:44:21.463021,-84,98:fc:11:6b:d6:fc
13:44:21.520007,-64,c8:4c:75:40:90:5b
13:44:21.565430,-83,98:fc:11:6b:d6:fc
13:44:21.618215,-65,c8:4c:75:40:90:5b
13:44:21.667824,-82,98:fc:11:6b:d6:fc
13:44:21.730239,-66,c8:4c:75:40:90:5b
13:44:21.770307,-82,98:fc:11:6b:d6:fc
13:44:21.827077,-65,c8:4c:75:40:90:5b
13:44:21.872665,-83,98:fc:11:6b:d6:fc
13:44:21.925439,-65,c8:4c:75:40:90:5b
13:44:21.975084,-84,98:fc:11:6b:d6:fc
13:44:22.038181,-64,c8:4c:75:40:90:5b
13:44:22.077484,-85,98:fc:11:6b:d6:fc
13:44:22.134328,-64,c8:4c:75:40:90:5b
13:44:22.179895,-85,98:fc:11:6b:d6:fc
13:44:22.526893,-75,c4:6e:1f:bd:4d:ec
13:44:22.732085,-75,c4:6e:1f:bd:4d:ec
13:44:22.834480,-75,c4:6e:1f:bd:4d:ec
13:44:23.346477,-75,c4:6e:1f:bd:4d:ec
13:44:23.551269,-75,c4:6e:1f:bd:4d:ec
13:44:23.653661,-74,c4:6e:1f:bd:4d:ec
13:44:23.858436,-74,c4:6e:1f:bd:4d:ec
13:44:23.960829,-76,c4:6e:1f:bd:4d:ec
13:44:24.165676,-78,c4:6e:1f:bd:4d:ec
13:44:24.268071,-77,c4:6e:1f:bd:4d:ec
13:44:24.370469,-79,c4:6e:1f:bd:4d:ec
13:44:26.889868,-77,98:fc:11:6b:d6:fc
13:44:26.952080,-67,c8:4c:75:40:90:5b
13:44:26.992229,-77,98:fc:11:6b:d6:fc
13:44:27.049468,-67,c8:4c:75:40:90:5b
13:44:27.095071,-78,98:fc:11:6b:d6:fc
13:44:27.147760,-65,c8:4c:75:40:90:5b
13:44:27.197491,-78,98:fc:11:6b:d6:fc
13:44:27.260849,-64,c8:4c:75:40:90:5b
13:44:27.299886,-78,98:fc:11:6b:d6:fc
13:44:27.356664,-65,c8:4c:75:40:90:5b
13:44:27.402363,-78,98:fc:11:6b:d6:fc
13:44:27.455886,-67,c8:4c:75:40:90:5b
13:44:27.504758,-79,98:fc:11:6b:d6:fc
13:44:27.568793,-65,c8:4c:75:40:90:5b
13:44:27.607118,-79,98:fc:11:6b:d6:fc
13:44:27.663854,-65,c8:4c:75:40:90:5b
13:44:27.709464,-80,98:fc:11:6b:d6:fc
13:44:27.762194,-65,c8:4c:75:40:90:5b
13:44:27.811952,-78,98:fc:11:6b:d6:fc
13:44:27.872802,-64,c8:4c:75:40:90:5b
13:44:27.914265,-79,98:fc:11:6b:d6:fc
13:44:27.971090,-65,c8:4c:75:40:90:5b
13:44:28.068803,-65,c8:4c:75:40:90:5b
13:44:28.181990,-64,c8:4c:75:40:90:5b
13:44:28.221521,-78,98:fc:11:6b:d6:fc
13:44:28.278247,-64,c8:4c:75:40:90:5b
13:44:28.323841,-78,98:fc:11:6b:d6:fc
13:44:28.376388,-65,c8:4c:75:40:90:5b
13:44:28.426294,-77,98:fc:11:6b:d6:fc
13:44:28.488635,-66,c8:4c:75:40:90:5b
13:44:28.528723,-77,98:fc:11:6b:d6:fc
13:44:28.585400,-66,c8:4c:75:40:90:5b
13:44:28.631159,-78,98:fc:11:6b:d6:fc
13:44:28.683519,-65,c8:4c:75:40:90:5b
13:44:28.733483,-77,98:fc:11:6b:d6:fc
13:44:28.796190,-66,c8:4c:75:40:90:5b
13:44:28.835885,-78,98:fc:11:6b:d6:fc
