13:23:29.873000,-33,c8:4c:75:40:90:5b
13:23:29.877000,-69,c4:6e:1f:bd:4d:ec
13:23:29.877000,-74,98:fc:11:6b:d6:fc
13:23:29.878000,-76,2c:41:38:ef:3b:f4
13:23:29.879000,-76,2c:41:38:ef:3b:f0
13:23:29.880000,-76,2c:41:38:ef:3b:f6
13:23:29.880000,-88,34:81:c4:2d:15:26
13:23:29.882000,-75,2c:41:38:ef:3b:f1
13:23:29.882000,-92,c0:25:06:7e:af:7a
