15:26:15.180000,-72,9c:1c:12:c1:51:81
15:26:15.181000,-74,9c:1c:12:c1:51:85
15:26:15.181000,-72,9c:1c:12:c1:51:83
15:26:15.181000,-72,9c:1c:12:c1:51:82
15:26:15.181000,-73,9c:1c:12:c1:01:82
15:26:15.181000,-74,9c:1c:12:c1:01:83
15:26:15.181000,-75,9c:1c:12:c1:01:85
15:26:15.182000,-73,9c:1c:12:c1:01:81
15:26:15.182000,-81,00:03:52:ad:90:e3
15:26:15.182000,-77,2c:41:38:f3:cd:d6
15:26:15.182000,-77,2c:41:38:f3:cd:d4
15:26:15.182000,-81,00:03:52:ad:90:e2
15:26:15.183000,-78,2c:41:38:f3:cd:d0
15:26:15.183000,-83,e8:39:35:f4:9a:96
15:26:15.183000,-81,2c:41:38:f3:49:d5
15:26:15.183000,-82,2c:41:38:f3:49:d4
15:26:15.183000,-81,2c:41:38:f3:49:d2
15:26:15.183000,-80,c8:4c:75:40:90:5b
15:26:15.184000,-84,00:03:52:ab:82:c5
15:26:15.184000,-84,00:03:52:ab:82:c6
15:26:15.184000,-85,00:03:52:ab:82:c3
15:26:15.184000,-85,00:03:52:ab:82:c2
15:26:15.185000,-80,20:aa:4b:e1:e1:f5
15:26:15.185000,-84,98:fc:11:6b:d6:fc
15:26:15.185000,-72,9c:1c:12:c1:51:84
15:26:15.185000,-73,9c:1c:12:c1:51:80
15:26:15.185000,-74,9c:1c:12:c1:01:80
15:26:15.185000,-75,9c:1c:12:c1:01:84
15:26:15.186000,-82,2c:41:38:f3:49:d0
15:26:15.186000,-84,00:03:52:ab:82:c4
15:26:15.186000,-82,00:03:52:ad:90:e6
15:26:15.186000,-84,00:03:52:ad:90:e4
15:26:15.186000,-82,00:03:52:ad:90:e0
15:26:15.191000,-83,00:03:52:ad:90:e5
