13:21:15.371000,-34,c8:4c:75:40:90:5b
13:21:15.372000,-58,c4:6e:1f:bd:4d:ec
13:21:15.372000,-77,2c:41:38:ef:3b:f6
13:21:15.373000,-77,2c:41:38:ef:3b:f4
13:21:15.373000,-77,2c:41:38:ef:3b:f0
13:21:15.373000,-88,2c:41:38:f3:cd:d6
13:21:15.373000,-77,2c:41:38:ef:3b:f1
