13:19:13.520075,-89,2c:41:38:ef:3b:f1
13:19:13.571352,-88,2c:41:38:ef:3b:f6
13:19:13.699551,-88,2c:41:38:ef:3b:f0
13:19:13.725050,-88,2c:41:38:ef:3b:f1
13:19:13.750723,-87,2c:41:38:ef:3b:f4
13:19:13.776283,-87,2c:41:38:ef:3b:f6
13:19:13.904281,-87,2c:41:38:ef:3b:f0
13:19:13.929844,-87,2c:41:38:ef:3b:f1
13:19:13.955478,-86,2c:41:38:ef:3b:f4
13:19:13.980985,-85,2c:41:38:ef:3b:f6
13:19:14.109163,-82,2c:41:38:ef:3b:f0
13:19:14.134668,-83,2c:41:38:ef:3b:f1
13:19:14.160251,-83,2c:41:38:ef:3b:f4
13:19:14.185843,-83,2c:41:38:ef:3b:f6
13:19:14.313902,-83,2c:41:38:ef:3b:f0
13:19:14.339341,-83,2c:41:38:ef:3b:f1
13:19:14.364960,-83,2c:41:38:ef:3b:f4
13:19:14.391238,-84,2c:41:38:ef:3b:f6
13:19:14.519144,-82,2c:41:38:ef:3b:f0
13:19:14.544507,-83,2c:41:38:ef:3b:f1
13:19:14.570386,-82,2c:41:38:ef:3b:f4
13:19:14.595941,-85,2c:41:38:ef:3b:f6
13:19:14.723571,-85,2c:41:38:ef:3b:f0
13:19:14.749678,-86,2c:41:38:ef:3b:f1
13:19:14.775055,-86,2c:41:38:ef:3b:f4
13:19:14.800542,-86,2c:41:38:ef:3b:f6
13:19:14.928533,-85,2c:41:38:ef:3b:f0
13:19:14.954595,-85,2c:41:38:ef:3b:f1
13:19:14.979963,-85,2c:41:38:ef:3b:f4
13:19:15.005476,-86,2c:41:38:ef:3b:f6
13:19:15.133827,-86,2c:41:38:ef:3b:f0
13:19:15.159358,-87,2c:41:38:ef:3b:f1
13:19:15.184761,-88,2c:41:38:ef:3b:f4
13:19:15.210316,-88,2c:41:38:ef:3b:f6
13:19:15.364230,-89,2c:41:38:ef:3b:f1
13:19:15.389824,-88,2c:41:38:ef:3b:f4
13:19:15.415421,-86,2c:41:38:ef:3b:f6
13:19:15.827982,-49,c8:4c:75:40:90:5b
13:19:15.855430,-81,98:fc:11:6b:d6:fc
13:19:15.944644,-48,c8:4c:75:40:90:5b
13:19:15.960103,-81,98:fc:11:6b:d6:fc
13:19:16.037468,-48,c8:4c:75:40:90:5b
13:19:16.060848,-82,98:fc:11:6b:d6:fc
13:19:16.135753,-48,c8:4c:75:40:90:5b
13:19:16.248234,-47,c8:4c:75:40:90:5b
13:19:16.267367,-81,98:fc:11:6b:d6:fc
13:19:16.344678,-47,c8:4c:75:40:90:5b
13:19:16.368054,-80,98:fc:11:6b:d6:fc
13:19:16.443011,-47,c8:4c:75:40:90:5b
13:19:16.470333,-79,98:fc:11:6b:d6:fc
13:19:16.555196,-47,c8:4c:75:40:90:5b
13:19:16.574579,-80,98:fc:11:6b:d6:fc
13:19:16.651903,-48,c8:4c:75:40:90:5b
13:19:16.675092,-81,98:fc:11:6b:d6:fc
13:19:16.750207,-48,c8:4c:75:40:90:5b
13:19:16.777618,-81,98:fc:11:6b:d6:fc
13:19:16.862431,-47,c8:4c:75:40:90:5b
13:19:16.881748,-81,98:fc:11:6b:d6:fc
13:19:16.959119,-47,c8:4c:75:40:90:5b
13:19:17.057334,-47,c8:4c:75:40:90:5b
13:19:17.084744,-80,98:fc:11:6b:d6:fc
13:19:17.169637,-47,c8:4c:75:40:90:5b
13:19:17.188978,-81,98:fc:11:6b:d6:fc
13:19:17.267535,-48,c8:4c:75:40:90:5b
13:19:17.289568,-80,98:fc:11:6b:d6:fc
13:19:17.368959,-47,c8:4c:75:40:90:5b
13:19:17.477338,-47,c8:4c:75:40:90:5b
13:19:17.496250,-80,98:fc:11:6b:d6:fc
13:19:17.573438,-48,c8:4c:75:40:90:5b
13:19:17.596831,-79,98:fc:11:6b:d6:fc
13:19:17.671860,-47,c8:4c:75:40:90:5b
13:19:17.699138,-80,98:fc:11:6b:d6:fc
13:19:17.961948,-76,c4:6e:1f:bd:4d:ec
13:19:18.064422,-75,c4:6e:1f:bd:4d:ec
13:19:18.371963,-78,c4:6e:1f:bd:4d:ec
13:19:18.576764,-77,c4:6e:1f:bd:4d:ec
13:19:18.883918,-76,c4:6e:1f:bd:4d:ec
13:19:18.986332,-76,c4:6e:1f:bd:4d:ec
13:19:19.191163,-76,c4:6e:1f:bd:4d:ec
13:19:19.293519,-76,c4:6e:1f:bd:4d:ec
13:19:19.395942,-77,c4:6e:1f:bd:4d:ec
13:19:19.600800,-77,c4:6e:1f:bd:4d:ec
13:19:19.703187,-77,c4:6e:1f:bd:4d:ec
13:19:20.253305,-87,2c:41:38:ef:3b:f0
13:19:20.278705,-86,2c:41:38:ef:3b:f1
13:19:20.304325,-87,2c:41:38:ef:3b:f4
13:19:20.329916,-87,2c:41:38:ef:3b:f6
13:19:20.390619,-95,c0:25:06:7e:af:7a
13:19:20.458680,-89,2c:41:38:ef:3b:f0
13:19:20.484246,-89,2c:41:38:ef:3b:f1
13:19:20.493077,-93,c0:25:06:7e:af:7a
13:19:20.509459,-88,2c:41:38:ef:3b:f4
13:19:20.535485,-88,2c:41:38:ef:3b:f6
13:19:20.663510,-88,2c:41:38:ef:3b:f0
13:19:20.689049,-88,2c:41:38:ef:3b:f1
13:19:20.697924,-94,c0:25:06:7e:af:7a
13:19:20.714189,-87,2c:41:38:ef:3b:f4
13:19:20.740379,-86,2c:41:38:ef:3b:f6
13:19:20.868315,-87,2c:41:38:ef:3b:f0
13:19:20.893842,-87,2c:41:38:ef:3b:f1
13:19:20.919208,-86,2c:41:38:ef:3b:f4
13:19:20.945087,-89,2c:41:38:ef:3b:f6
13:19:20.952242,-90,c8:4c:75:40:90:5b
13:19:21.098650,-88,2c:41:38:ef:3b:f1
13:19:21.123829,-87,2c:41:38:ef:3b:f4
13:19:21.149652,-89,2c:41:38:ef:3b:f6
13:19:21.259608,-90,c8:4c:75:40:90:5b
13:19:21.277545,-88,2c:41:38:ef:3b:f0
13:19:21.303382,-87,2c:41:38:ef:3b:f1
13:19:21.329123,-89,2c:41:38:ef:3b:f4
13:19:21.354387,-87,2c:41:38:ef:3b:f6
13:19:21.482664,-87,2c:41:38:ef:3b:f0
13:19:21.507968,-87,2c:41:38:ef:3b:f1
13:19:21.533864,-86,2c:41:38:ef:3b:f4
13:19:21.559234,-88,2c:41:38:ef:3b:f6
13:19:21.687467,-88,2c:41:38:ef:3b:f0
13:19:21.712763,-86,2c:41:38:ef:3b:f1
13:19:21.738690,-88,2c:41:38:ef:3b:f4
13:19:21.764002,-89,2c:41:38:ef:3b:f6
13:19:21.892289,-89,2c:41:38:ef:3b:f0
13:19:21.917540,-88,2c:41:38:ef:3b:f1
13:19:21.943490,-90,2c:41:38:ef:3b:f4
13:19:21.968797,-89,2c:41:38:ef:3b:f6
13:19:22.097090,-88,2c:41:38:ef:3b:f0
13:19:22.122619,-89,2c:41:38:ef:3b:f1
13:19:22.487873,-49,c8:4c:75:40:90:5b
13:19:22.511442,-78,98:fc:11:6b:d6:fc
13:19:22.586365,-49,c8:4c:75:40:90:5b
13:19:22.613993,-78,98:fc:11:6b:d6:fc
13:19:22.718544,-78,98:fc:11:6b:d6:fc
13:19:22.728966,-48,c8:4c:75:40:90:5b
13:19:22.795350,-48,c8:4c:75:40:90:5b
13:19:22.819211,-79,98:fc:11:6b:d6:fc
13:19:22.896244,-48,c8:4c:75:40:90:5b
13:19:22.921544,-79,98:fc:11:6b:d6:fc
13:19:23.020890,-48,c8:4c:75:40:90:5b
13:19:23.025817,-81,98:fc:11:6b:d6:fc
13:19:23.103039,-48,c8:4c:75:40:90:5b
13:19:23.126420,-81,98:fc:11:6b:d6:fc
13:19:23.201389,-50,c8:4c:75:40:90:5b
13:19:23.228748,-82,98:fc:11:6b:d6:fc
13:19:23.313034,-47,c8:4c:75:40:90:5b
13:19:23.332939,-85,98:fc:11:6b:d6:fc
13:19:23.410457,-47,c8:4c:75:40:90:5b
13:19:23.433635,-86,98:fc:11:6b:d6:fc
13:19:23.508568,-48,c8:4c:75:40:90:5b
13:19:23.536033,-85,98:fc:11:6b:d6:fc
13:19:23.620305,-47,c8:4c:75:40:90:5b
13:19:23.640110,-87,98:fc:11:6b:d6:fc
13:19:23.718160,-46,c8:4c:75:40:90:5b
13:19:23.740854,-86,98:fc:11:6b:d6:fc
13:19:23.815741,-45,c8:4c:75:40:90:5b
13:19:23.843301,-86,98:fc:11:6b:d6:fc
13:19:23.927459,-45,c8:4c:75:40:90:5b
13:19:23.947308,-86,98:fc:11:6b:d6:fc
13:19:24.024629,-46,c8:4c:75:40:90:5b
13:19:24.048077,-87,98:fc:11:6b:d6:fc
13:19:24.122925,-47,c8:4c:75:40:90:5b
13:19:24.150386,-86,98:fc:11:6b:d6:fc
13:19:24.234936,-47,c8:4c:75:40:90:5b
13:19:24.254985,-86,98:fc:11:6b:d6:fc
13:19:24.331804,-46,c8:4c:75:40:90:5b
13:19:24.355253,-84,98:fc:11:6b:d6:fc
13:19:24.925635,-76,c4:6e:1f:bd:4d:ec
13:19:25.539919,-75,c4:6e:1f:bd:4d:ec
13:19:25.642319,-76,c4:6e:1f:bd:4d:ec
13:19:25.744719,-74,c4:6e:1f:bd:4d:ec
13:19:26.883482,-88,2c:41:38:ef:3b:f6
13:19:27.011686,-87,2c:41:38:ef:3b:f0
13:19:27.037134,-87,2c:41:38:ef:3b:f1
13:19:27.046287,-94,c0:25:06:7e:af:7a
13:19:27.062688,-87,2c:41:38:ef:3b:f4
13:19:27.088830,-87,2c:41:38:ef:3b:f6
13:19:27.217134,-86,2c:41:38:ef:3b:f0
13:19:27.242650,-86,2c:41:38:ef:3b:f1
13:19:27.268063,-88,2c:41:38:ef:3b:f4
13:19:27.293600,-86,2c:41:38:ef:3b:f6
13:19:27.421930,-86,2c:41:38:ef:3b:f0
13:19:27.447470,-86,2c:41:38:ef:3b:f1
13:19:27.472831,-87,2c:41:38:ef:3b:f4
13:19:27.498722,-86,2c:41:38:ef:3b:f6
13:19:27.626551,-86,2c:41:38:ef:3b:f0
13:19:27.677866,-87,2c:41:38:ef:3b:f4
13:19:27.703496,-87,2c:41:38:ef:3b:f6
13:19:27.831272,-89,2c:41:38:ef:3b:f0
13:19:27.857068,-87,2c:41:38:ef:3b:f1
13:19:27.882462,-90,2c:41:38:ef:3b:f4
13:19:27.908049,-87,2c:41:38:ef:3b:f6
13:19:28.036403,-88,2c:41:38:ef:3b:f0
13:19:28.061467,-87,2c:41:38:ef:3b:f1
13:19:28.087269,-87,2c:41:38:ef:3b:f4
13:19:28.112671,-89,2c:41:38:ef:3b:f6
13:19:28.241191,-87,2c:41:38:ef:3b:f0
13:19:28.266673,-86,2c:41:38:ef:3b:f1
13:19:28.292005,-87,2c:41:38:ef:3b:f4
13:19:28.317898,-89,2c:41:38:ef:3b:f6
13:19:28.445997,-86,2c:41:38:ef:3b:f0
13:19:28.471456,-87,2c:41:38:ef:3b:f1
13:19:28.496766,-86,2c:41:38:ef:3b:f4
13:19:28.522698,-86,2c:41:38:ef:3b:f6
13:19:28.650738,-87,2c:41:38:ef:3b:f0
13:19:28.676328,-86,2c:41:38:ef:3b:f1
13:19:28.701648,-88,2c:41:38:ef:3b:f4
13:19:28.727160,-85,2c:41:38:ef:3b:f6
13:19:29.246241,-47,c8:4c:75:40:90:5b
13:19:29.269920,-82,98:fc:11:6b:d6:fc
13:19:29.345295,-48,c8:4c:75:40:90:5b
13:19:29.372944,-82,98:fc:11:6b:d6:fc
13:19:29.461788,-47,c8:4c:75:40:90:5b
13:19:29.475187,-83,98:fc:11:6b:d6:fc
13:19:29.554185,-47,c8:4c:75:40:90:5b
13:19:29.577714,-83,98:fc:11:6b:d6:fc
13:19:29.652492,-48,c8:4c:75:40:90:5b
13:19:29.679948,-83,98:fc:11:6b:d6:fc
13:19:29.764465,-47,c8:4c:75:40:90:5b
13:19:29.782464,-84,98:fc:11:6b:d6:fc
13:19:29.861185,-47,c8:4c:75:40:90:5b
13:19:29.884832,-83,98:fc:11:6b:d6:fc
13:19:29.959463,-47,c8:4c:75:40:90:5b
13:19:29.987345,-84,98:fc:11:6b:d6:fc
13:19:30.072290,-46,c8:4c:75:40:90:5b
13:19:30.089630,-84,98:fc:11:6b:d6:fc
13:19:30.168278,-47,c8:4c:75:40:90:5b
13:19:30.192114,-83,98:fc:11:6b:d6:fc
13:19:30.266661,-46,c8:4c:75:40:90:5b
13:19:30.294388,-83,98:fc:11:6b:d6:fc
13:19:30.378910,-47,c8:4c:75:40:90:5b
13:19:30.396957,-84,98:fc:11:6b:d6:fc
13:19:30.475520,-47,c8:4c:75:40:90:5b
13:19:30.499671,-84,98:fc:11:6b:d6:fc
13:19:30.573630,-47,c8:4c:75:40:90:5b
13:19:30.602520,-85,98:fc:11:6b:d6:fc
13:19:30.685985,-47,c8:4c:75:40:90:5b
13:19:30.704066,-84,98:fc:11:6b:d6:fc
13:19:30.782720,-46,c8:4c:75:40:90:5b
13:19:30.806359,-84,98:fc:11:6b:d6:fc
13:19:30.881018,-47,c8:4c:75:40:90:5b
13:19:30.908854,-84,98:fc:11:6b:d6:fc
13:19:30.993505,-46,c8:4c:75:40:90:5b
13:19:31.011324,-83,98:fc:11:6b:d6:fc
13:19:31.089903,-47,c8:4c:75:40:90:5b
13:19:31.113768,-84,98:fc:11:6b:d6:fc
13:19:32.093525,-73,c4:6e:1f:bd:4d:ec
13:19:32.605406,-75,c4:6e:1f:bd:4d:ec
13:19:33.322242,-76,c4:6e:1f:bd:4d:ec
13:19:33.565112,-85,2c:41:38:ef:3b:f0
13:19:33.590668,-85,2c:41:38:ef:3b:f1
13:19:33.616447,-85,2c:41:38:ef:3b:f4
13:19:33.641998,-85,2c:41:38:ef:3b:f6
13:19:33.770525,-85,2c:41:38:ef:3b:f0
13:19:33.795865,-87,2c:41:38:ef:3b:f1
13:19:33.821608,-87,2c:41:38:ef:3b:f4
13:19:33.847299,-85,2c:41:38:ef:3b:f6
13:19:33.981702,-86,2c:41:38:ef:3b:f0
13:19:34.000785,-85,2c:41:38:ef:3b:f1
13:19:34.026699,-86,2c:41:38:ef:3b:f4
13:19:34.052093,-85,2c:41:38:ef:3b:f6
13:19:34.180362,-88,2c:41:38:ef:3b:f0
13:19:34.205721,-85,2c:41:38:ef:3b:f1
13:19:34.231563,-86,2c:41:38:ef:3b:f4
13:19:34.256904,-87,2c:41:38:ef:3b:f6
13:19:34.385149,-86,2c:41:38:ef:3b:f0
13:19:34.410437,-86,2c:41:38:ef:3b:f1
13:19:34.461230,-85,2c:41:38:ef:3b:f6
13:19:34.589969,-85,2c:41:38:ef:3b:f0
13:19:34.641206,-85,2c:41:38:ef:3b:f4
13:19:34.666451,-86,2c:41:38:ef:3b:f6
13:19:34.794791,-85,2c:41:38:ef:3b:f0
13:19:34.820007,-84,2c:41:38:ef:3b:f1
13:19:34.846002,-84,2c:41:38:ef:3b:f4
13:19:34.871342,-85,2c:41:38:ef:3b:f6
13:19:34.999544,-86,2c:41:38:ef:3b:f0
13:19:35.025058,-85,2c:41:38:ef:3b:f1
13:19:35.050823,-85,2c:41:38:ef:3b:f4
13:19:35.076435,-84,2c:41:38:ef:3b:f6
13:19:35.182036,-90,c8:4c:75:40:90:5b
13:19:35.203959,-85,2c:41:38:ef:3b:f0
13:19:35.229929,-85,2c:41:38:ef:3b:f1
13:19:35.255278,-86,2c:41:38:ef:3b:f4
13:19:35.281189,-84,2c:41:38:ef:3b:f6
13:19:35.409163,-85,2c:41:38:ef:3b:f0
13:19:35.434726,-84,2c:41:38:ef:3b:f1
13:19:35.460106,-85,2c:41:38:ef:3b:f4
13:19:35.485647,-84,2c:41:38:ef:3b:f6
13:19:35.795868,-49,c8:4c:75:40:90:5b
13:19:35.823577,-82,98:fc:11:6b:d6:fc
13:19:35.908119,-50,c8:4c:75:40:90:5b
13:19:35.926190,-82,98:fc:11:6b:d6:fc
13:19:36.005356,-50,c8:4c:75:40:90:5b
13:19:36.028833,-83,98:fc:11:6b:d6:fc
13:19:36.106403,-50,c8:4c:75:40:90:5b
13:19:36.131339,-83,98:fc:11:6b:d6:fc
13:19:36.216029,-49,c8:4c:75:40:90:5b
13:19:36.233671,-84,98:fc:11:6b:d6:fc
13:19:36.312539,-49,c8:4c:75:40:90:5b
13:19:36.336139,-82,98:fc:11:6b:d6:fc
13:19:36.410882,-49,c8:4c:75:40:90:5b
13:19:36.438480,-82,98:fc:11:6b:d6:fc
13:19:36.523580,-51,c8:4c:75:40:90:5b
13:19:36.540954,-83,98:fc:11:6b:d6:fc
13:19:36.619736,-48,c8:4c:75:40:90:5b
13:19:36.643369,-83,98:fc:11:6b:d6:fc
13:19:36.718017,-49,c8:4c:75:40:90:5b
13:19:36.745746,-83,98:fc:11:6b:d6:fc
13:19:36.830063,-49,c8:4c:75:40:90:5b
13:19:36.848004,-84,98:fc:11:6b:d6:fc
13:19:36.926937,-48,c8:4c:75:40:90:5b
13:19:36.950481,-82,98:fc:11:6b:d6:fc
13:19:37.025236,-49,c8:4c:75:40:90:5b
13:19:37.052919,-80,98:fc:11:6b:d6:fc
13:19:37.137010,-49,c8:4c:75:40:90:5b
13:19:37.155291,-81,98:fc:11:6b:d6:fc
13:19:37.234185,-49,c8:4c:75:40:90:5b
13:19:37.257858,-82,98:fc:11:6b:d6:fc
13:19:37.332481,-49,c8:4c:75:40:90:5b
13:19:37.360114,-82,98:fc:11:6b:d6:fc
13:19:37.444400,-50,c8:4c:75:40:90:5b
13:19:37.462452,-82,98:fc:11:6b:d6:fc
13:19:37.542208,-50,c8:4c:75:40:90:5b
13:19:37.564908,-83,98:fc:11:6b:d6:fc
13:19:37.639140,-49,c8:4c:75:40:90:5b
13:19:37.667373,-82,98:fc:11:6b:d6:fc
